iverilog_demo/radar_demo.vcd
$date
	Thu Jun 18 19:31:01 2026
$end
$version
	Icarus Verilog
$end
$timescale
	1ps
$end
$scope module radar_demo_tb $end
$var wire 1 ! det_valid $end
$var wire 17 " det_thr [16:0] $end
$var wire 6 # det_range [5:0] $end
$var wire 17 $ det_mag [16:0] $end
$var wire 1 % det_flag $end
$var wire 5 & det_doppler [4:0] $end
$var wire 16 ' det_count [15:0] $end
$var wire 8 ( cfar_status [7:0] $end
$var wire 1 ) cfar_busy $end
$var parameter 32 * BIN_METER $end
$var parameter 32 + BIN_TIME_NS $end
$var reg 8 , cfg_alpha [7:0] $end
$var reg 1 - cfg_enable $end
$var reg 4 . cfg_guard [3:0] $end
$var reg 2 / cfg_mode [1:0] $end
$var reg 16 0 cfg_simple_thr [15:0] $end
$var reg 5 1 cfg_train [4:0] $end
$var reg 1 2 clk $end
$var reg 5 3 dop_bin [4:0] $end
$var reg 32 4 dop_data [31:0] $end
$var reg 1 5 dop_valid $end
$var reg 1 6 frame_done $end
$var reg 1 7 reset_n $end
$var reg 6 8 rng_bin [5:0] $end
$var integer 32 9 bar_len [31:0] $end
$var integer 32 : i [31:0] $end
$var integer 32 ; j [31:0] $end
$var integer 32 < k [31:0] $end
$var integer 32 = n_det_0 [31:0] $end
$var integer 32 > scenario_seed [31:0] $end
$scope module dut $end
$var wire 8 ? cfg_alpha [7:0] $end
$var wire 1 - cfg_cfar_enable $end
$var wire 2 @ cfg_cfar_mode [1:0] $end
$var wire 4 A cfg_guard_cells [3:0] $end
$var wire 16 B cfg_simple_threshold [15:0] $end
$var wire 5 C cfg_train_cells [4:0] $end
$var wire 1 2 clk $end
$var wire 5 D doppler_bin_in [4:0] $end
$var wire 32 E doppler_data [31:0] $end
$var wire 1 5 doppler_valid $end
$var wire 1 6 frame_complete $end
$var wire 1 F lag_add_valid $end
$var wire 1 G lag_rem_valid $end
$var wire 1 H lead_add_valid $end
$var wire 1 I lead_rem_valid $end
$var wire 6 J range_bin_in [5:0] $end
$var wire 1 7 reset_n $end
$var wire 17 K lead_rem_val [16:0] $end
$var wire 8 L lead_rem_idx [7:0] $end
$var wire 24 M lead_delta [23:0] $end
$var wire 2 N lead_cnt_delta [1:0] $end
$var wire 17 O lead_add_val [16:0] $end
$var wire 8 P lead_add_idx [7:0] $end
$var wire 17 Q lag_rem_val [16:0] $end
$var wire 8 R lag_rem_idx [7:0] $end
$var wire 24 S lag_delta [23:0] $end
$var wire 2 T lag_cnt_delta [1:0] $end
$var wire 17 U lag_add_val [16:0] $end
$var wire 8 V lag_add_idx [7:0] $end
$var wire 16 W dop_q [15:0] $end
$var wire 16 X dop_i [15:0] $end
$var wire 17 Y cur_mag [16:0] $end
$var wire 1 ) cfar_busy $end
$var wire 16 Z abs_q [15:0] $end
$var wire 16 [ abs_i [15:0] $end
$var parameter 32 \ ADDR_WIDTH $end
$var parameter 32 ] ALPHA_FRAC_BITS $end
$var parameter 32 ^ ALPHA_WIDTH $end
$var parameter 32 _ COL_BITS $end
$var parameter 32 ` MAG_WIDTH $end
$var parameter 32 a MAX_GUARD $end
$var parameter 32 b MAX_TRAIN $end
$var parameter 32 c NUM_DOPPLER_BINS $end
$var parameter 32 d NUM_RANGE_BINS $end
$var parameter 34 e PROD_WIDTH $end
$var parameter 32 f ROW_BITS $end
$var parameter 4 g ST_BUFFER $end
$var parameter 4 h ST_CFAR_CMP $end
$var parameter 4 i ST_CFAR_INIT $end
$var parameter 4 j ST_CFAR_MUL $end
$var parameter 4 k ST_CFAR_THR $end
$var parameter 4 l ST_COL_LOAD $end
$var parameter 4 m ST_COL_NEXT $end
$var parameter 4 n ST_DONE $end
$var parameter 4 o ST_IDLE $end
$var parameter 33 p SUM_WIDTH $end
$var parameter 64 q TOTAL_CELLS $end
$var reg 17 r adaptive_thr [16:0] $end
$var reg 8 s cfar_status [7:0] $end
$var reg 5 t col_idx [4:0] $end
$var reg 7 u col_load_idx [6:0] $end
$var reg 7 v cut_idx [6:0] $end
$var reg 16 w detect_count [15:0] $end
$var reg 5 x detect_doppler [4:0] $end
$var reg 1 % detect_flag $end
$var reg 17 y detect_magnitude [16:0] $end
$var reg 6 z detect_range [5:0] $end
$var reg 17 { detect_threshold [16:0] $end
$var reg 1 ! detect_valid $end
$var reg 7 | init_idx [6:0] $end
$var reg 7 } lagging_count [6:0] $end
$var reg 23 ~ lagging_sum [22:0] $end
$var reg 7 !" leading_count [6:0] $end
$var reg 23 "" leading_sum [22:0] $end
$var reg 11 #" mag_raddr [10:0] $end
$var reg 17 $" mag_rdata [16:0] $end
$var reg 11 %" mag_waddr [10:0] $end
$var reg 17 &" mag_wdata [16:0] $end
$var reg 1 '" mag_we $end
$var reg 31 (" noise_product [30:0] $end
$var reg 23 )" noise_sum_comb [22:0] $end
$var reg 23 *" noise_sum_reg [22:0] $end
$var reg 8 +" r_alpha [7:0] $end
$var reg 1 ," r_enable $end
$var reg 4 -" r_guard [3:0] $end
$var reg 2 ." r_mode [1:0] $end
$var reg 16 /" r_simple_thr [15:0] $end
$var reg 5 0" r_train [4:0] $end
$var reg 4 1" state [3:0] $end
$var integer 32 2" init_i [31:0] $end
$scope begin threshold_compare $end
$var reg 17 3" thr_val [16:0] $end
$upscope $end
$upscope $end
$upscope $end
$enddefinitions $end
$comment Show the parameter values. $end
$dumpall
b100000000000 q
b10111 p
b0 o
b111 n
b110 m
b10 l
b100 k
b1000 j
b11 i
b101 h
b1 g
b110 f
b11111 e
b1000000 d
b100000 c
b10000 b
b1000 a
b10001 `
b101 _
b1000 ^
b100 ]
b1011 \
b10100000 +
b11000 *
$end
#0
$dumpvars
bx 3"
b1000000 2"
b0 1"
b1000 0"
b10011100010000 /"
b0 ."
b10 -"
0,"
b110000 +"
b0 *"
b0 )"
b0 ("
0'"
b0 &"
b0 %"
bx $"
b0 #"
b0 ""
b0 !"
b0 ~
b0 }
b0 |
b0 {
b0 z
b0 y
b0 x
b0 w
b0 v
b0 u
b0 t
b0 s
b0 r
b0 [
b0 Z
b0 Y
b0 X
b0 W
b1011 V
b0 U
b0 T
b0 S
b11 R
b0 Q
b11111110 P
b0 O
b0 N
b0 M
b11110110 L
b0 K
b0 J
0I
0H
1G
1F
b0 E
b0 D
b1000 C
b0 B
b10 A
b0 @
b101 ?
b11111010111011100011110110100 >
b0 =
bx <
bx ;
b1000000 :
bx 9
b0 8
07
06
05
b0 4
b0 3
02
b1000 1
b0 0
b0 /
b10 .
1-
b101 ,
0)
b0 (
b0 '
b0 &
0%
b0 $
b0 #
b0 "
0!
$end
#5000
b0 $"
12
#10000
02
#15000
12
#20000
02
#25000
12
#30000
02
#35000
12
#40000
02
#45000
12
#50000
02
#55000
12
#60000
02
#65000
12
#70000
02
#75000
12
#80000
02
#85000
12
#90000
02
#95000
12
#100000
02
17
#105000
12
#110000
02
#115000
12
#120000
02
b0 :
b0 ;
#125000
b1100101110 [
b100000011001 Y
b10011101011 Z
b1100101110 X
b10011101011 W
b100111010110000001100101110 4
b100111010110000001100101110 E
15
b1 :
12
#130000
02
#135000
b1101000100 [
b100000100100 Y
b10011100000 Z
b1101000100 X
b10011100000 W
1)
b1 1"
b100000011001 &"
1'"
b0 /"
1,"
b101 +"
b100111000000000001101000100 4
b100111000000000001101000100 E
b1 8
b1 J
b10 :
12
#140000
02
#145000
b10001111011 [
b11100111011 Y
b1011000000 Z
b10001111011 X
b1011000000 W
b100000100100 &"
b100000 %"
b10000 (
b10000 s
1'"
b10110000000000010001111011 4
b10110000000000010001111011 E
b10 8
b10 J
b11 :
12
#150000
02
#155000
b10001010110 [
b11101100000 Y
b1100001010 Z
b10001010110 X
b1100001010 W
b11100111011 &"
b1000000 %"
1'"
b11000010100000010001010110 4
b11000010100000010001010110 E
b11 8
b11 J
b100000011001 $"
b100 :
12
#160000
02
#165000
b1100111000 [
b11010110000 Y
b1101111000 Z
b1100111000 X
b1101111000 W
b11101100000 &"
b1100000 %"
1'"
b11011110000000001100111000 4
b11011110000000001100111000 E
b100 8
b100 J
b101 :
12
#170000
02
#175000
b1100010001 [
b11001111000 Y
b1101100111 Z
b1100010001 X
b1101100111 W
b11010110000 &"
b10000000 %"
1'"
b11011001110000001100010001 4
b11011001110000001100010001 E
b101 8
b101 J
b110 :
12
#180000
02
#185000
b1100000001 [
b11000100111 Y
b1100100110 Z
b1100000001 X
b1100100110 W
b11001111000 &"
b10100000 %"
1'"
b11001001100000001100000001 4
b11001001100000001100000001 E
b110 8
b110 J
b111 :
12
#190000
02
#195000
b1011000111 [
b11011011001 Y
b10000010010 Z
b1011000111 X
b10000010010 W
b11000100111 &"
b11000000 %"
1'"
b100000100100000001011000111 4
b100000100100000001011000111 E
b111 8
b111 J
b1000 :
12
#200000
02
#205000
b11101010011000 [
b111010100110000 Y
b11101010011000 Z
b11101010011000 X
b11101010011000 W
b11011011001 &"
b11100000 %"
1'"
b111010100110000011101010011000 4
b111010100110000011101010011000 E
b1000 8
b1000 J
b1001 :
12
#210000
02
#215000
b1101111010 [
b100001111001 Y
b10011111111 Z
b1101111010 X
b10011111111 W
b111010100110000 &"
b100000000 %"
1'"
b100111111110000001101111010 4
b100111111110000001101111010 E
b1001 8
b1001 J
b1010 :
12
#220000
02
#225000
b10001111100 [
b100011111011 Y
b10001111111 Z
b10001111100 X
b10001111111 W
b100001111001 &"
b100100000 %"
1'"
b100011111110000010001111100 4
b100011111110000010001111100 E
b1010 8
b1010 J
b1011 :
12
#230000
02
#235000
b1101010011 [
b11100100111 Y
b1111010100 Z
b1101010011 X
b1111010100 W
b100011111011 &"
b101000000 %"
1'"
b11110101000000001101010011 4
b11110101000000001101010011 E
b1011 8
b1011 J
b1100 :
12
#240000
02
#245000
b10010001100 [
b11111010010 Y
b1101000110 Z
b10010001100 X
b1101000110 W
b11100100111 &"
b101100000 %"
1'"
b11010001100000010010001100 4
b11010001100000010010001100 E
b1100 8
b1100 J
b1101 :
12
#250000
02
#255000
b10001000111 [
b100001100110 Y
b10000011111 Z
b10001000111 X
b10000011111 W
b11111010010 &"
b110000000 %"
1'"
b100000111110000010001000111 4
b100000111110000010001000111 E
b1101 8
b1101 J
b1110 :
12
#260000
02
#265000
b10000110101 [
b100101000110 Y
b10100010001 Z
b10000110101 X
b10100010001 W
b100001100110 &"
b110100000 %"
1'"
b101000100010000010000110101 4
b101000100010000010000110101 E
b1110 8
b1110 J
b1111 :
12
#270000
02
#275000
b10001110111 [
b11110110111 Y
b1101000000 Z
b10001110111 X
b1101000000 W
b100101000110 &"
b111000000 %"
1'"
b11010000000000010001110111 4
b11010000000000010001110111 E
b1111 8
b1111 J
b10000 :
12
#280000
02
#285000
b1011110000 [
b11011110011 Y
b10000000011 Z
b1011110000 X
b10000000011 W
b11110110111 &"
b111100000 %"
1'"
b100000000110000001011110000 4
b100000000110000001011110000 E
b10000 8
b10000 J
b10001 :
12
#290000
02
#295000
b10100001100 [
b100110101110 Y
b10010100010 Z
b10100001100 X
b10010100010 W
b11011110011 &"
b1000000000 %"
1'"
b100101000100000010100001100 4
b100101000100000010100001100 E
b10001 8
b10001 J
b10010 :
12
#300000
02
#305000
b1011011011 [
b10110110111 Y
b1011011100 Z
b1011011011 X
b1011011100 W
b100110101110 &"
b1000100000 %"
1'"
b10110111000000001011011011 4
b10110111000000001011011011 E
b10010 8
b10010 J
b10011 :
12
#310000
02
#315000
b1101101110 [
b11101100110 Y
b1111111000 Z
b1101101110 X
b1111111000 W
b10110110111 &"
b1001000000 %"
1'"
b11111110000000001101101110 4
b11111110000000001101101110 E
b10011 8
b10011 J
b10100 :
12
#320000
02
#325000
b1100010001 [
b11000110110 Y
b1100100101 Z
b1100010001 X
b1100100101 W
b11101100110 &"
b1001100000 %"
1'"
b11001001010000001100010001 4
b11001001010000001100010001 E
b10100 8
b10100 J
b10101 :
12
#330000
02
#335000
b1011011110 [
b11001000111 Y
b1101101001 Z
b1011011110 X
b1101101001 W
b11000110110 &"
b1010000000 %"
1'"
b11011010010000001011011110 4
b11011010010000001011011110 E
b10101 8
b10101 J
b10110 :
12
#340000
02
#345000
b10011100010000 [
b100111000100000 Y
b10011100010000 Z
b10011100010000 X
b10011100010000 W
b11001000111 &"
b1010100000 %"
1'"
b100111000100000010011100010000 4
b100111000100000010011100010000 E
b10110 8
b10110 J
b10111 :
12
#350000
02
#355000
b10011100011 [
b100101010111 Y
b10001110100 Z
b10011100011 X
b10001110100 W
b100111000100000 &"
b1011000000 %"
1'"
b100011101000000010011100011 4
b100011101000000010011100011 E
b10111 8
b10111 J
b11000 :
12
#360000
02
#365000
b10011001000 [
b100101001001 Y
b10010000001 Z
b10011001000 X
b10010000001 W
b100101010111 &"
b1011100000 %"
1'"
b100100000010000010011001000 4
b100100000010000010011001000 E
b11000 8
b11000 J
b11001 :
12
#370000
02
#375000
b1100010101 [
b11011101100 Y
b1111010111 Z
b1100010101 X
b1111010111 W
b100101001001 &"
b1100000000 %"
1'"
b11110101110000001100010101 4
b11110101110000001100010101 E
b11001 8
b11001 J
b11010 :
12
#380000
02
#385000
b1111010111 [
b100000010101 Y
b10000111110 Z
b1111010111 X
b10000111110 W
b11011101100 &"
b1100100000 %"
1'"
b100001111100000001111010111 4
b100001111100000001111010111 E
b11010 8
b11010 J
b11011 :
12
#390000
02
#395000
b10010000010 [
b11101101011 Y
b1011101001 Z
b10010000010 X
b1011101001 W
b100000010101 &"
b1101000000 %"
1'"
b10111010010000010010000010 4
b10111010010000010010000010 E
b11011 8
b11011 J
b11100 :
12
#400000
02
#405000
b10011001001 [
b100011101010 Y
b10000100001 Z
b10011001001 X
b10000100001 W
b11101101011 &"
b1101100000 %"
1'"
b100001000010000010011001001 4
b100001000010000010011001001 E
b11100 8
b11100 J
b11101 :
12
#410000
02
#415000
b10100000111 [
b100001011011 Y
b1101010100 Z
b10100000111 X
b1101010100 W
b100011101010 &"
b1110000000 %"
1'"
b11010101000000010100000111 4
b11010101000000010100000111 E
b11101 8
b11101 J
b11110 :
12
#420000
02
#425000
b1110010011 [
b100001101001 Y
b10011010110 Z
b1110010011 X
b10011010110 W
b100001011011 &"
b1110100000 %"
1'"
b100110101100000001110010011 4
b100110101100000001110010011 E
b11110 8
b11110 J
b11111 :
12
#430000
02
#435000
b10000000111 [
b11110110111 Y
b1110110000 Z
b10000000111 X
b1110110000 W
b100001101001 &"
b1111000000 %"
1'"
b11101100000000010000000111 4
b11101100000000010000000111 E
b11111 8
b11111 J
b100000 :
12
#440000
02
#445000
b1111110000 [
b11011011111 Y
b1011101111 Z
b1111110000 X
b1011101111 W
b11110110111 &"
b1111100000 %"
1'"
b10111011110000001111110000 4
b10111011110000001111110000 E
b100000 8
b100000 J
b100001 :
12
#450000
02
#455000
b1011111011 [
b11100100011 Y
b10000101000 Z
b1011111011 X
b10000101000 W
b11011011111 &"
b10000000000 %"
1'"
b100001010000000001011111011 4
b100001010000000001011111011 E
b100001 8
b100001 J
b100010 :
12
#460000
02
#465000
b1101110110 [
b11110110100 Y
b10000111110 Z
b1101110110 X
b10000111110 W
b11100100011 &"
b10000100000 %"
1'"
b100001111100000001101110110 4
b100001111100000001101110110 E
b100010 8
b100010 J
b100011 :
12
#470000
02
#475000
b10010011101 [
b11111001100 Y
b1100101111 Z
b10010011101 X
b1100101111 W
b11110110100 &"
b10001000000 %"
1'"
b11001011110000010010011101 4
b11001011110000010010011101 E
b100011 8
b100011 J
b100100 :
12
#480000
02
#485000
b10001111111 [
b100011011000 Y
b10001011001 Z
b10001111111 X
b10001011001 W
b11111001100 &"
b10001100000 %"
1'"
b100010110010000010001111111 4
b100010110010000010001111111 E
b100100 8
b100100 J
b100101 :
12
#490000
02
#495000
b1111011101 [
b100010100011 Y
b10011000110 Z
b1111011101 X
b10011000110 W
b100011011000 &"
b10010000000 %"
1'"
b100110001100000001111011101 4
b100110001100000001111011101 E
b100101 8
b100101 J
b100110 :
12
#500000
02
#505000
b10010010000 [
b100010101001 Y
b10000011001 Z
b10010010000 X
b10000011001 W
b100010100011 &"
b10010100000 %"
1'"
b100000110010000010010010000 4
b100000110010000010010010000 E
b100110 8
b100110 J
b100111 :
12
#510000
02
#515000
b1101100011 [
b11111000000 Y
b10001011101 Z
b1101100011 X
b10001011101 W
b100010101001 &"
b10011000000 %"
1'"
b100010111010000001101100011 4
b100010111010000001101100011 E
b100111 8
b100111 J
b101000 :
12
#520000
02
#525000
b1110011000 [
b11100011001 Y
b1110000001 Z
b1110011000 X
b1110000001 W
b11111000000 &"
b10011100000 %"
1'"
b11100000010000001110011000 4
b11100000010000001110011000 E
b101000 8
b101000 J
b101001 :
12
#530000
02
#535000
b10001001111 [
b11101010100 Y
b1100000101 Z
b10001001111 X
b1100000101 W
b11100011001 &"
b10100000000 %"
1'"
b11000001010000010001001111 4
b11000001010000010001001111 E
b101001 8
b101001 J
b101010 :
12
#540000
02
#545000
b1011100101 [
b11000010011 Y
b1100101110 Z
b1011100101 X
b1100101110 W
b11101010100 &"
b10100100000 %"
1'"
b11001011100000001011100101 4
b11001011100000001011100101 E
b101010 8
b101010 J
b101011 :
12
#550000
02
#555000
b1111000000 [
b11011101010 Y
b1100101010 Z
b1111000000 X
b1100101010 W
b11000010011 &"
b10101000000 %"
1'"
b11001010100000001111000000 4
b11001010100000001111000000 E
b101011 8
b101011 J
b101100 :
12
#560000
02
#565000
b10000110010 [
b11100110110 Y
b1100000100 Z
b10000110010 X
b1100000100 W
b11011101010 &"
b10101100000 %"
1'"
b11000001000000010000110010 4
b11000001000000010000110010 E
b101100 8
b101100 J
b101101 :
12
#570000
02
#575000
b110000110101000 [
b1100001101010000 Y
b110000110101000 Z
b110000110101000 X
b110000110101000 W
b11100110110 &"
b10110000000 %"
1'"
b1100001101010000110000110101000 4
b1100001101010000110000110101000 E
b101101 8
b101101 J
b101110 :
12
#580000
02
#585000
b10010011000 [
b100100001101 Y
b10001110101 Z
b10010011000 X
b10001110101 W
b1100001101010000 &"
b10110100000 %"
1'"
b100011101010000010010011000 4
b100011101010000010010011000 E
b101110 8
b101110 J
b101111 :
12
#590000
02
#595000
b10000011011 [
b100011101010 Y
b10011001111 Z
b10000011011 X
b10011001111 W
b100100001101 &"
b10111000000 %"
1'"
b100110011110000010000011011 4
b100110011110000010000011011 E
b101111 8
b101111 J
b110000 :
12
#600000
02
#605000
b10010000001 [
b11110001100 Y
b1100001011 Z
b10010000001 X
b1100001011 W
b100011101010 &"
b10111100000 %"
1'"
b11000010110000010010000001 4
b11000010110000010010000001 E
b110000 8
b110000 J
b110001 :
12
#610000
02
#615000
b1100100000 [
b11101110100 Y
b10001010100 Z
b1100100000 X
b10001010100 W
b11110001100 &"
b11000000000 %"
1'"
b100010101000000001100100000 4
b100010101000000001100100000 E
b110001 8
b110001 J
b110010 :
12
#620000
02
#625000
b1110011100 [
b100000000111 Y
b10001101011 Z
b1110011100 X
b10001101011 W
b11101110100 &"
b11000100000 %"
1'"
b100011010110000001110011100 4
b100011010110000001110011100 E
b110010 8
b110010 J
b110011 :
12
#630000
02
#635000
b1101100010 [
b100001000110 Y
b10011100100 Z
b1101100010 X
b10011100100 W
b100000000111 &"
b11001000000 %"
1'"
b100111001000000001101100010 4
b100111001000000001101100010 E
b110011 8
b110011 J
b110100 :
12
#640000
02
#645000
b1100100011 [
b11000101111 Y
b1100001100 Z
b1100100011 X
b1100001100 W
b100001000110 &"
b11001100000 %"
1'"
b11000011000000001100100011 4
b11000011000000001100100011 E
b110100 8
b110100 J
b110101 :
12
#650000
02
#655000
b1011100010 [
b11101101111 Y
b10010001101 Z
b1011100010 X
b10010001101 W
b11000101111 &"
b11010000000 %"
1'"
b100100011010000001011100010 4
b100100011010000001011100010 E
b110101 8
b110101 J
b110110 :
12
#660000
02
#665000
b1100111011 [
b100000011010 Y
b10011011111 Z
b1100111011 X
b10011011111 W
b11101101111 &"
b11010100000 %"
1'"
b100110111110000001100111011 4
b100110111110000001100111011 E
b110110 8
b110110 J
b110111 :
12
#670000
02
#675000
b1101101110 [
b11101010111 Y
b1111101001 Z
b1101101110 X
b1111101001 W
b100000011010 &"
b11011000000 %"
1'"
b11111010010000001101101110 4
b11111010010000001101101110 E
b110111 8
b110111 J
b111000 :
12
#680000
02
#685000
b1111100011 [
b11010101101 Y
b1011001010 Z
b1111100011 X
b1011001010 W
b11101010111 &"
b11011100000 %"
1'"
b10110010100000001111100011 4
b10110010100000001111100011 E
b111000 8
b111000 J
b111001 :
12
#690000
02
#695000
b10000001101 [
b11110100101 Y
b1110011000 Z
b10000001101 X
b1110011000 W
b11010101101 &"
b11100000000 %"
1'"
b11100110000000010000001101 4
b11100110000000010000001101 E
b111001 8
b111001 J
b111010 :
12
#700000
02
#705000
b1100100110 [
b100000011000 Y
b10011110010 Z
b1100100110 X
b10011110010 W
b11110100101 &"
b11100100000 %"
1'"
b100111100100000001100100110 4
b100111100100000001100100110 E
b111010 8
b111010 J
b111011 :
12
#710000
02
#715000
b10001001001 [
b11100101001 Y
b1011100000 Z
b10001001001 X
b1011100000 W
b100000011000 &"
b11101000000 %"
1'"
b10111000000000010001001001 4
b10111000000000010001001001 E
b111011 8
b111011 J
b111100 :
12
#720000
02
#725000
b1111110010 [
b11011011110 Y
b1011101100 Z
b1111110010 X
b1011101100 W
b11100101001 &"
b11101100000 %"
1'"
b10111011000000001111110010 4
b10111011000000001111110010 E
b111100 8
b111100 J
b111101 :
12
#730000
02
#735000
b1101101100 [
b11110111100 Y
b10001010000 Z
b1101101100 X
b10001010000 W
b11011011110 &"
b11110000000 %"
1'"
b100010100000000001101101100 4
b100010100000000001101101100 E
b111101 8
b111101 J
b111110 :
12
#740000
02
#745000
b1101000001 [
b11111001110 Y
b10010001101 Z
b1101000001 X
b10010001101 W
b11110111100 &"
b11110100000 %"
1'"
b100100011010000001101000001 4
b100100011010000001101000001 E
b111110 8
b111110 J
b111111 :
12
#750000
02
#755000
b10000001110 [
b100010010000 Y
b10010000010 Z
b10000001110 X
b10010000010 W
b11111001110 &"
b11111000000 %"
1'"
b100100000100000010000001110 4
b100100000100000010000001110 E
b111111 8
b111111 J
b1 ;
b0 :
12
#760000
02
#765000
b0 [
b0 Y
b0 Z
b0 X
b0 W
b100010010000 &"
b11111100000 %"
1'"
b0 4
b0 E
b0 8
b0 J
b1 3
b1 D
b1 :
12
#770000
02
#775000
b0 &"
b1 %"
1'"
b1 8
b1 J
b10 :
12
#780000
02
#785000
b100001 %"
1'"
b10 8
b10 J
b11 :
12
#790000
02
#795000
b1000001 %"
1'"
b11 8
b11 J
b100 :
12
#800000
02
#805000
b1100001 %"
1'"
b100 8
b100 J
b101 :
12
#810000
02
#815000
b10000001 %"
1'"
b101 8
b101 J
b110 :
12
#820000
02
#825000
b10100001 %"
1'"
b110 8
b110 J
b111 :
12
#830000
02
#835000
b11000001 %"
1'"
b111 8
b111 J
b1000 :
12
#840000
02
#845000
b11100001 %"
1'"
b1000 8
b1000 J
b1001 :
12
#850000
02
#855000
b100000001 %"
1'"
b1001 8
b1001 J
b1010 :
12
#860000
02
#865000
b100100001 %"
1'"
b1010 8
b1010 J
b1011 :
12
#870000
02
#875000
b101000001 %"
1'"
b1011 8
b1011 J
b1100 :
12
#880000
02
#885000
b101100001 %"
1'"
b1100 8
b1100 J
b1101 :
12
#890000
02
#895000
b110000001 %"
1'"
b1101 8
b1101 J
b1110 :
12
#900000
02
#905000
b110100001 %"
1'"
b1110 8
b1110 J
b1111 :
12
#910000
02
#915000
b111000001 %"
1'"
b1111 8
b1111 J
b10000 :
12
#920000
02
#925000
b111100001 %"
1'"
b10000 8
b10000 J
b10001 :
12
#930000
02
#935000
b1000000001 %"
1'"
b10001 8
b10001 J
b10010 :
12
#940000
02
#945000
b1000100001 %"
1'"
b10010 8
b10010 J
b10011 :
12
#950000
02
#955000
b1001000001 %"
1'"
b10011 8
b10011 J
b10100 :
12
#960000
02
#965000
b1001100001 %"
1'"
b10100 8
b10100 J
b10101 :
12
#970000
02
#975000
b1010000001 %"
1'"
b10101 8
b10101 J
b10110 :
12
#980000
02
#985000
b1010100001 %"
1'"
b10110 8
b10110 J
b10111 :
12
#990000
02
#995000
b1011000001 %"
1'"
b10111 8
b10111 J
b11000 :
12
#1000000
02
#1005000
b1011100001 %"
1'"
b11000 8
b11000 J
b11001 :
12
#1010000
02
#1015000
b1100000001 %"
1'"
b11001 8
b11001 J
b11010 :
12
#1020000
02
#1025000
b1100100001 %"
1'"
b11010 8
b11010 J
b11011 :
12
#1030000
02
#1035000
b1101000001 %"
1'"
b11011 8
b11011 J
b11100 :
12
#1040000
02
#1045000
b1101100001 %"
1'"
b11100 8
b11100 J
b11101 :
12
#1050000
02
#1055000
b1110000001 %"
1'"
b11101 8
b11101 J
b11110 :
12
#1060000
02
#1065000
b1110100001 %"
1'"
b11110 8
b11110 J
b11111 :
12
#1070000
02
#1075000
b1111000001 %"
1'"
b11111 8
b11111 J
b100000 :
12
#1080000
02
#1085000
b1111100001 %"
1'"
b100000 8
b100000 J
b100001 :
12
#1090000
02
#1095000
b10000000001 %"
1'"
b100001 8
b100001 J
b100010 :
12
#1100000
02
#1105000
b10000100001 %"
1'"
b100010 8
b100010 J
b100011 :
12
#1110000
02
#1115000
b10001000001 %"
1'"
b100011 8
b100011 J
b100100 :
12
#1120000
02
#1125000
b10001100001 %"
1'"
b100100 8
b100100 J
b100101 :
12
#1130000
02
#1135000
b10010000001 %"
1'"
b100101 8
b100101 J
b100110 :
12
#1140000
02
#1145000
b10010100001 %"
1'"
b100110 8
b100110 J
b100111 :
12
#1150000
02
#1155000
b10011000001 %"
1'"
b100111 8
b100111 J
b101000 :
12
#1160000
02
#1165000
b10011100001 %"
1'"
b101000 8
b101000 J
b101001 :
12
#1170000
02
#1175000
b10100000001 %"
1'"
b101001 8
b101001 J
b101010 :
12
#1180000
02
#1185000
b10100100001 %"
1'"
b101010 8
b101010 J
b101011 :
12
#1190000
02
#1195000
b10101000001 %"
1'"
b101011 8
b101011 J
b101100 :
12
#1200000
02
#1205000
b10101100001 %"
1'"
b101100 8
b101100 J
b101101 :
12
#1210000
02
#1215000
b10110000001 %"
1'"
b101101 8
b101101 J
b101110 :
12
#1220000
02
#1225000
b10110100001 %"
1'"
b101110 8
b101110 J
b101111 :
12
#1230000
02
#1235000
b10111000001 %"
1'"
b101111 8
b101111 J
b110000 :
12
#1240000
02
#1245000
b10111100001 %"
1'"
b110000 8
b110000 J
b110001 :
12
#1250000
02
#1255000
b11000000001 %"
1'"
b110001 8
b110001 J
b110010 :
12
#1260000
02
#1265000
b11000100001 %"
1'"
b110010 8
b110010 J
b110011 :
12
#1270000
02
#1275000
b11001000001 %"
1'"
b110011 8
b110011 J
b110100 :
12
#1280000
02
#1285000
b11001100001 %"
1'"
b110100 8
b110100 J
b110101 :
12
#1290000
02
#1295000
b11010000001 %"
1'"
b110101 8
b110101 J
b110110 :
12
#1300000
02
#1305000
b11010100001 %"
1'"
b110110 8
b110110 J
b110111 :
12
#1310000
02
#1315000
b11011000001 %"
1'"
b110111 8
b110111 J
b111000 :
12
#1320000
02
#1325000
b11011100001 %"
1'"
b111000 8
b111000 J
b111001 :
12
#1330000
02
#1335000
b11100000001 %"
1'"
b111001 8
b111001 J
b111010 :
12
#1340000
02
#1345000
b11100100001 %"
1'"
b111010 8
b111010 J
b111011 :
12
#1350000
02
#1355000
b11101000001 %"
1'"
b111011 8
b111011 J
b111100 :
12
#1360000
02
#1365000
b11101100001 %"
1'"
b111100 8
b111100 J
b111101 :
12
#1370000
02
#1375000
b11110000001 %"
1'"
b111101 8
b111101 J
b111110 :
12
#1380000
02
#1385000
b11110100001 %"
1'"
b111110 8
b111110 J
b111111 :
12
#1390000
02
#1395000
b11111000001 %"
1'"
b111111 8
b111111 J
b10 ;
b0 :
12
#1400000
02
#1405000
b11111100001 %"
1'"
b0 8
b0 J
b10 3
b10 D
b1 :
12
#1410000
02
#1415000
b10 %"
1'"
b1 8
b1 J
b10 :
12
#1420000
02
#1425000
b100010 %"
1'"
b10 8
b10 J
b11 :
12
#1430000
02
#1435000
b1000010 %"
1'"
b11 8
b11 J
b100 :
12
#1440000
02
#1445000
b1100010 %"
1'"
b100 8
b100 J
b101 :
12
#1450000
02
#1455000
b10000010 %"
1'"
b101 8
b101 J
b110 :
12
#1460000
02
#1465000
b10100010 %"
1'"
b110 8
b110 J
b111 :
12
#1470000
02
#1475000
b11000010 %"
1'"
b111 8
b111 J
b1000 :
12
#1480000
02
#1485000
b11100010 %"
1'"
b1000 8
b1000 J
b1001 :
12
#1490000
02
#1495000
b100000010 %"
1'"
b1001 8
b1001 J
b1010 :
12
#1500000
02
#1505000
b100100010 %"
1'"
b1010 8
b1010 J
b1011 :
12
#1510000
02
#1515000
b101000010 %"
1'"
b1011 8
b1011 J
b1100 :
12
#1520000
02
#1525000
b101100010 %"
1'"
b1100 8
b1100 J
b1101 :
12
#1530000
02
#1535000
b110000010 %"
1'"
b1101 8
b1101 J
b1110 :
12
#1540000
02
#1545000
b110100010 %"
1'"
b1110 8
b1110 J
b1111 :
12
#1550000
02
#1555000
b111000010 %"
1'"
b1111 8
b1111 J
b10000 :
12
#1560000
02
#1565000
b111100010 %"
1'"
b10000 8
b10000 J
b10001 :
12
#1570000
02
#1575000
b1000000010 %"
1'"
b10001 8
b10001 J
b10010 :
12
#1580000
02
#1585000
b1000100010 %"
1'"
b10010 8
b10010 J
b10011 :
12
#1590000
02
#1595000
b1001000010 %"
1'"
b10011 8
b10011 J
b10100 :
12
#1600000
02
#1605000
b1001100010 %"
1'"
b10100 8
b10100 J
b10101 :
12
#1610000
02
#1615000
b1010000010 %"
1'"
b10101 8
b10101 J
b10110 :
12
#1620000
02
