iverilog_demo/tb_cdc_modules.vcd
$date
	Thu Jun 18 19:31:02 2026
$end
$version
	Icarus Verilog
$end
$timescale
	1ps
$end
$scope module tb_cdc_modules $end
$var wire 1 ! m3_src_ready $end
$var wire 1 " m3_dst_valid $end
$var wire 32 # m3_dst_data [31:0] $end
$var wire 1 $ m2_dst_signal $end
$var wire 1 % m1_dst_valid $end
$var wire 8 & m1_dst_data [7:0] $end
$var real 1 ' DST_CLK_PERIOD $end
$var real 1 ( HS_DST_PERIOD $end
$var real 1 ) HS_SRC_PERIOD $end
$var real 1 * SRC_CLK_PERIOD $end
$var reg 1 + m1_dst_clk $end
$var reg 1 , m1_dst_reset_n $end
$var reg 1 - m1_src_clk $end
$var reg 8 . m1_src_data [7:0] $end
$var reg 1 / m1_src_reset_n $end
$var reg 1 0 m1_src_valid $end
$var reg 1 1 m2_dst_clk $end
$var reg 1 2 m2_reset_n $end
$var reg 1 3 m2_src_clk $end
$var reg 1 4 m2_src_signal $end
$var reg 1 5 m3_dst_clk $end
$var reg 1 6 m3_dst_ready $end
$var reg 1 7 m3_reset_n $end
$var reg 1 8 m3_src_clk $end
$var reg 32 9 m3_src_data [31:0] $end
$var reg 1 : m3_src_valid $end
$var integer 32 ; fail_count [31:0] $end
$var integer 32 < i [31:0] $end
$var integer 32 = pass_count [31:0] $end
$var integer 32 > test_num [31:0] $end
$scope module uut_m1 $end
$var wire 1 + dst_clk $end
$var wire 8 ? dst_data [7:0] $end
$var wire 1 , dst_reset_n $end
$var wire 1 % dst_valid $end
$var wire 1 - src_clk $end
$var wire 8 @ src_data [7:0] $end
$var wire 1 / src_reset_n $end
$var wire 1 0 src_valid $end
$var parameter 32 A STAGES $end
$var parameter 32 B WIDTH $end
$var reg 8 C dst_data_reg [7:0] $end
$var reg 1 D dst_valid_reg $end
$var reg 2 E prev_dst_toggle [1:0] $end
$var reg 8 F src_data_gray [7:0] $end
$var reg 8 G src_data_reg [7:0] $end
$var reg 2 H src_toggle [1:0] $end
$scope function binary_to_gray $end
$var reg 8 I binary [7:0] $end
$upscope $end
$scope function gray_to_binary $end
$var reg 8 J binary [7:0] $end
$var reg 8 K gray [7:0] $end
$var integer 32 L i [31:0] $end
$upscope $end
$scope begin data_sync_chain[0] $end
$var parameter 2 M i $end
$upscope $end
$scope begin data_sync_chain[1] $end
$var parameter 2 N i $end
$upscope $end
$scope begin data_sync_chain[2] $end
$var parameter 3 O i $end
$upscope $end
$scope begin toggle_sync_chain[0] $end
$var parameter 2 P i $end
$upscope $end
$scope begin toggle_sync_chain[1] $end
$var parameter 2 Q i $end
$upscope $end
$scope begin toggle_sync_chain[2] $end
$var parameter 3 R i $end
$upscope $end
$upscope $end
$scope module uut_m2 $end
$var wire 1 1 dst_clk $end
$var wire 1 2 reset_n $end
$var wire 1 3 src_clk $end
$var wire 1 4 src_signal $end
$var wire 1 $ dst_signal $end
$var parameter 32 S STAGES $end
$var reg 3 T sync_chain [2:0] $end
$upscope $end
$scope module uut_m3 $end
$var wire 1 5 dst_clk $end
$var wire 32 U dst_data [31:0] $end
$var wire 1 6 dst_ready $end
$var wire 1 " dst_valid $end
$var wire 1 7 reset_n $end
$var wire 1 8 src_clk $end
$var wire 32 V src_data [31:0] $end
$var wire 1 : src_valid $end
$var wire 1 ! src_ready $end
$var parameter 32 W WIDTH $end
$var reg 1 X dst_ack $end
$var reg 32 Y dst_data_reg [31:0] $end
$var reg 1 Z dst_req_sync $end
$var reg 2 [ dst_req_sync_chain [1:0] $end
$var reg 1 \ dst_valid_reg $end
$var reg 1 ] src_ack_sync $end
$var reg 2 ^ src_ack_sync_chain [1:0] $end
$var reg 1 _ src_busy $end
$var reg 32 ` src_data_reg [31:0] $end
$upscope $end
$scope begin a2_wait $end
$var reg 1 a saw_valid $end
$var integer 32 b wait_cycles [31:0] $end
$upscope $end
$scope begin a3_block $end
$var integer 32 c rx_count [31:0] $end
$var integer 32 d total_wait [31:0] $end
$var integer 32 e tx_count [31:0] $end
$scope begin verify_received $end
$var reg 1 f all_valid $end
$var reg 1 g found $end
$var integer 32 h j [31:0] $end
$var integer 32 i k [31:0] $end
$upscope $end
$upscope $end
$scope begin a4_block $end
$var reg 1 j all_match $end
$var integer 32 k rx_idx [31:0] $end
$var integer 32 l tx_idx [31:0] $end
$var integer 32 m wait_cnt [31:0] $end
$upscope $end
$scope begin a5_dst_idle $end
$var reg 1 n saw_valid $end
$var integer 32 o wait_cycles [31:0] $end
$upscope $end
$scope begin a5_wait $end
$var integer 32 p wait_cycles [31:0] $end
$upscope $end
$scope begin a6_baseline $end
$var integer 32 q wait_cycles [31:0] $end
$upscope $end
$scope begin a6_check_reset $end
$var reg 1 r dst_cleared $end
$var integer 32 s wait_cycles [31:0] $end
$upscope $end
$scope begin a6_recovery $end
$var integer 32 t wait_cycles [31:0] $end
$upscope $end
$scope begin a7_wait $end
$var integer 32 u wait_cycles [31:0] $end
$upscope $end
$scope begin a8_wait $end
$var integer 32 v wait_cycles [31:0] $end
$upscope $end
$scope begin b2_wait $end
$var reg 1 w saw_high $end
$var integer 32 x wait_cycles [31:0] $end
$upscope $end
$scope begin b3_wait $end
$var integer 32 y wait_cycles [31:0] $end
$upscope $end
$scope begin b4_wait $end
$var reg 1 z saw_pulse $end
$var integer 32 { wait_cycles [31:0] $end
$upscope $end
$scope begin b5_wait $end
$var reg 1 | saw_pulse $end
$var integer 32 } wait_cycles [31:0] $end
$upscope $end
$scope begin c2_wait $end
$var integer 32 ~ wait_cycles [31:0] $end
$upscope $end
$scope begin c2_wait_ready $end
$var integer 32 !" wait_cycles [31:0] $end
$upscope $end
$scope begin c3_block $end
$var reg 1 "" all_match $end
$var reg 1 #" dst_wait_done $end
$var reg 1 $" src_wait_done $end
$var integer 32 %" rx_idx [31:0] $end
$var integer 32 &" tx_idx [31:0] $end
$var integer 32 '" wait_cnt [31:0] $end
$upscope $end
$scope begin c4_wait_done $end
$var integer 32 (" wait_cnt [31:0] $end
$upscope $end
$scope begin c4_wait_valid $end
$var integer 32 )" wait_cnt [31:0] $end
$upscope $end
$scope begin c5_block $end
$var reg 1 *" all_match $end
$var reg 1 +" dst_wait_done $end
$var reg 1 ," src_wait_done $end
$var integer 32 -" rx_idx [31:0] $end
$var integer 32 ." tx_idx [31:0] $end
$var integer 32 /" wait_cnt [31:0] $end
$upscope $end
$scope begin c6_post_reset_xfer $end
$var integer 32 0" wait_cnt [31:0] $end
$upscope $end
$scope begin c6_recovery_wait $end
$var reg 1 1" recovered $end
$var integer 32 2" wait_cnt [31:0] $end
$upscope $end
$scope begin c6_wait_ready $end
$var integer 32 3" wait_cnt [31:0] $end
$upscope $end
$scope task check $end
$var reg 1 4" cond $end
$var reg 512 5" label [511:0] $end
$upscope $end
$upscope $end
$enddefinitions $end
$comment Show the parameter values. $end
$dumpall
b100000 W
b11 S
b10 R
b1 Q
b0 P
b10 O
b1 N
b0 M
b1000 B
b11 A
r2.5 *
r10 )
r7 (
r10 '
$end
#0
$dumpvars
bx 5"
x4"
bx 3"
bx 2"
x1"
bx 0"
bx /"
bx ."
bx -"
x,"
x+"
x*"
bx )"
bx ("
bx '"
bx &"
bx %"
x$"
x#"
x""
bx !"
bx ~
bx }
x|
bx {
xz
bx y
bx x
xw
bx v
bx u
bx t
bx s
xr
bx q
bx p
bx o
xn
bx m
bx l
bx k
xj
bx i
bx h
xg
xf
bx e
bx d
bx c
bx b
xa
bx `
0_
b0 ^
0]
0\
b0 [
0Z
bx Y
0X
b0 V
bx U
bx T
bx L
bx K
bx J
bx I
b0 H
bx G
bx F
b0 E
0D
bx C
b0 @
bx ?
b0 >
b0 =
bx <
b0 ;
0:
b0 9
08
07
06
05
04
03
02
01
00
0/
b0 .
0-
0,
0+
bx &
0%
x$
bx #
0"
1!
$end
#1250
b0 F
b0 G
13
1-
#2500
03
0-
#3500
b0 #
b0 U
b0 Y
15
#3750
13
1-
#5000
0$
b0 `
b0 T
b0 &
b0 ?
b0 C
03
0-
18
11
1+
#6250
13
1-
#7000
05
#7500
03
0-
#8750
13
1-
#10000
03
0-
08
01
0+
#10500
15
#11250
13
1-
#12500
03
0-
#13750
13
1-
#14000
05
#15000
03
0-
18
11
1+
#16250
13
1-
#17500
03
0-
15
#18750
13
1-
#20000
03
0-
08
01
0+
#21000
05
#21250
13
1-
#22500
03
0-
#23750
13
1-
#24500
15
#25000
03
0-
18
11
1+
#26250
13
1-
#27500
03
0-
#28000
05
#28750
13
1-
#30000
03
0-
08
01
0+
#31250
13
1-
#31500
15
#32500
03
0-
#33750
13
1-
#35000
03
0-
05
18
11
1+
#36250
13
1-
#37500
03
0-
#38500
15
#38750
13
1-
#40000
03
0-
08
01
0+
#41250
13
1-
#42000
05
#42500
03
0-
#43750
13
1-
#45000
03
0-
18
11
1+
#45500
15
#46250
13
1-
#47500
03
0-
#48750
13
1-
#49000
05
#50000
03
0-
08
01
0+
#51250
13
1-
#52500
03
0-
15
#53750
13
1-
#55000
03
0-
18
11
1+
#56000
05
#56250
13
1-
#57500
03
0-
#58750
13
1-
#59500
15
#60000
03
0-
08
01
0+
#61250
13
1-
#62500
03
0-
#63000
05
#63750
13
1-
#65000
03
0-
18
11
1+
#66250
13
1-
#66500
15
#67500
03
0-
#68750
13
1-
#70000
03
0-
05
08
01
0+
#71250
13
1-
#72500
03
0-
#73500
15
#73750
13
1-
#75000
03
0-
18
11
1+
#76250
13
1-
#77000
05
#77500
03
0-
#78750
13
1-
#80000
03
0-
08
01
0+
#80500
15
#81250
13
1-
#82500
03
0-
#83750
13
1-
#84000
05
#85000
03
0-
18
11
1+
#86250
13
1-
#87500
03
0-
15
#88750
13
1-
#90000
03
0-
08
01
0+
#91000
05
#91250
13
1-
#92500
03
0-
#93750
13
1-
#94500
15
#95000
03
0-
18
11
1+
#96250
13
1-
#97500
03
0-
#98000
05
#98750
13
1-
#100000
03
0-
08
01
0+
b10 =
b10 >
b100110100110001001110100010000001100100011100110111010001011111011001000110000101110100011000010010000000111101001000000011000000100000011001000111010101110010011010010110111001100111001000000111001001100101011100110110010101110100 5"
14"
#101250
13
1-
#101500
15
#102500
03
0-
#103750
13
1-
#105000
b11111111111111111111111111111111 L
b0 J
b0 K
1,
1/
03
0-
05
18
11
1+
#106250
b1 H
b11110111 F
b10100101 G
b10100101 I
10
b10100101 .
b10100101 @
13
1-
#107500
03
0-
#108500
15
#108750
b10 H
13
1-
#109750
b0 b
0a
00
#110000
03
0-
08
01
0+
#111250
13
1-
#112000
05
#112500
03
0-
#113750
13
1-
#115000
b11111111111111111111111111111111 L
03
0-
18
11
1+
#115500
15
#116000
b1 b
#116250
13
1-
#117500
03
0-
#118750
13
1-
#119000
05
#120000
03
0-
08
01
0+
#121250
13
1-
#122500
03
0-
15
#123750
13
1-
#125000
b11111111111111111111111111111111 L
03
0-
18
11
1+
#126000
b10 b
05
#126250
13
1-
#127500
03
0-
#128750
13
1-
#129500
15
#130000
03
0-
08
01
0+
#131250
13
1-
#132500
03
0-
#133000
05
#133750
13
1-
#135000
b11111111111111111111111111111111 L
03
0-
18
11
1+
#136000
b11 b
#136250
13
1-
#136500
15
#137500
03
0-
#138750
13
1-
#140000
03
0-
05
08
01
0+
#141250
13
1-
#142500
03
0-
#143500
15
#143750
13
1-
#145000
b10 E
1%
1D
b10100101 &
b10100101 ?
b10100101 C
b11111111111111111111111111111111 L
b10100101 J
b11110111 K
03
0-
18
11
1+
#146000
0,
0/
b100 =
b100 >
b100110100110001001110100010000001100100011000010111010001100001001000000011000001111000010000010011010100100000011101000111001001100001011011100111001101100110011001010111001001110010011001010110010000100000011000110110111101110010011100100110010101100011011101000110110001111001 5"
1a
#146250
b0 H
b0 F
b0 G
13
1-
#147000
05
#147500
03
0-
#148750
13
1-
#150000
03
0-
08
01
0+
#150500
15
#151250
13
1-
#152500
03
0-
#153750
13
1-
#154000
05
#155000
b0 E
0%
0D
b0 &
b0 ?
b0 C
03
0-
18
11
1+
