iverilog_demo/tb_edge_detector.vcd
$date
	Thu Jun 18 19:31:04 2026
$end
$version
	Icarus Verilog
$end
$timescale
	1ps
$end
$scope module tb_edge_detector $end
$var wire 1 ! rising_falling_edge $end
$var real 1 " CLK_PERIOD $end
$var reg 1 # clk $end
$var reg 1 $ reset_n $end
$var reg 1 % signal_in $end
$var integer 32 & fail_count [31:0] $end
$var integer 32 ' pass_count [31:0] $end
$var integer 32 ( test_num [31:0] $end
$scope module uut $end
$var wire 1 # clk $end
$var wire 1 $ reset_n $end
$var wire 1 ! rising_falling_edge $end
$var wire 1 % signal_in $end
$var reg 1 ) signal_in_prev $end
$var reg 1 * signal_in_prev2 $end
$upscope $end
$scope task check $end
$var reg 1 + expected $end
$var reg 256 , label [255:0] $end
$upscope $end
$upscope $end
$enddefinitions $end
$comment Show the parameter values. $end
$dumpall
r2.5 "
$end
#0
$dumpvars
bx ,
x+
0*
0)
b0 (
b0 '
b0 &
0%
0$
0#
0!
$end
#1250
1#
#2500
0#
#3750
1#
#5000
0#
#6250
1#
#7500
0#
#8750
1#
#9750
1$
b1 '
b1 (
b100111101110101011101000111000001110101011101000010000001101100011011110111011100100000011001000111010101110010011010010110111001100111001000000111001001100101011100110110010101110100 ,
0+
#10000
0#
#11250
1#
#12250
1%
b10 '
b10 (
b110110001101111011101110010000001100001011001100111010001100101011100100010000001110010011001010111001101100101011101000010000001110010011001010110110001100101011000010111001101100101001011000010000001101110011011110010000001100101011001000110011101100101 ,
#12500
0#
#13750
1!
1)
1#
#14750
b11 '
b11 (
b110010101110100011001010110001101110100011001010110010000100000001010000011000100100000011000110110110001101011001000000110000101100110011101000110010101110010001000000111010001110010011000010110111001110011011010010111010001101001011011110110111000101001 ,
1+
#15000
0#
#16250
0!
1*
1#
#17250
b100 '
b100 (
b110010101100100011001110110010100100000011011110110111001100101001000000110001101111001011000110110110001100101001000000110000101100110011101000110010101110010001000000111001001101001011100110110100101101110011001110010000001100101011001000110011101100101 ,
0+
#17500
0#
#18750
1#
#20000
0#
#21250
1#
#22500
0#
#23750
1#
#24750
0%
b101 '
b101 (
b100111001101111001000000110010101100100011001110110010100100000011001000111010101110010011010010110111001100111001000000111001101110100011001010110000101100100011110010010000001101000011010010110011101101000 ,
#25000
0#
#26250
1!
0)
1#
#27250
b110 '
b110 (
b110010101110100011001010110001101110100011001010110010000100000001010000011000100100000011000110110110001101011001000000110000101100110011101000110010101110010001000000111010001110010011000010110111001110011011010010111010001101001011011110110111000101001 ,
1+
#27500
0#
#28750
0!
0*
1#
#29750
1%
b111 '
b111 (
b110010001100111011001010010000001101111011011100110010100100000011000110111100101100011011011000110010100100000011000010110011001110100011001010111001000100000011001100110000101101100011011000110100101101110011001110010000001100101011001000110011101100101 ,
0+
#30000
0#
#31250
1!
1)
1#
#32250
0%
b1000 '
b1000 (
b101001001100001011100000110100101100100001000000111010001101111011001110110011101101100111111111111111111111111111000101111111110010010001100010010000001100101011001000110011101100101 ,
1+
#32500
0#
#33750
1*
0)
1#
#34750
1%
b1001 '
b1001 (
b101001001100001011100000110100101100100001000000111010001101111011001110110011101101100111111111111111111111111111000101111111110010010001100000010000001100101011001000110011101100101 ,
#35000
0#
#36250
0*
1)
1#
#37250
0%
b1010 '
b1010 (
b101001001100001011100000110100101100100001000000111010001101111011001110110011101101100011001010010000011111111111111111111111110010010001100010010000001100101011001000110011101100101001000000110000101100111011000010110100101101110 ,
#37500
0#
#38750
1*
0)
1#
#40000
0#
#41250
0!
0*
1#
#42500
0#
#43750
1#
#45000
0#
#46250
1#
#47250
1%
b1011 '
b1011 (
b1010011011101000110000101100010011011000110010100100000011011000110111101110111111111111111111111111111100101000010000001101110011011110010000001100101011001000110011101100101 ,
0+
#47500
0#
#48750
1!
1)
1#
#49750
0%
b1100 '
b1100 (
b110010100100000011100000111010101101100011100110110010100100000111000101000000010010100001000000111001001101001011100110110100101101110011001110010000001100101011001000110011101100101001000000110010001100101011101000110010101100011011101000110010101100100 ,
1+
#50000
0#
#51250
1*
0)
1#
#52250
b1101 '
b1101 (
b10000001110000011101010110110001110011011001010010000011100010100000001001010000100000011001100110000101101100011011000110100101101110011001110010000001100101011001000110011101100101001000000110010001100101011101000110010101100011011101000110010101100100 ,
#52500
0#
#53750
0!
0*
1#
#54750
1%
b1110 '
b1110 (
b111001000100000011100110110100101101110011001110110110001100101001011010110001101111001011000110110110001100101001000000111000001110101011011000111001101100101001000001110001010000000100101000010000001101110011011110010000001100101011001000110011101100101 ,
0+
#55000
0#
#56250
1!
1)
1#
#57500
0#
#58750
0!
1*
1#
#59750
0*
0)
0$
#60000
0#
#60750
b1111 '
b1111 (
b111010000100000011011000110111101110111001000000110010001110101011100100110100101101110011001110010000001101101011010010110010000101101011011110111000001100101011100100110000101110100011010010110111101101110001000000111001001100101011100110110010101110100 ,
#61250
1#
#62500
0#
#63750
1#
#64750
1$
#65000
0#
#66250
1!
1)
1#
#67250
b10000 '
b10000 (
b111010001100101011100100010000001110010011001010111001101100101011101000010000000101000011100100110010101100111011010010111001101110100011001010111001001110011001000000111001001100101001011010110001101100001011100000111010001110101011100100110010100101001 ,
1+
#67500
0#
#68750
0!
1*
1#
#69750
b10001 '
b10001 (
b10100110110010101110100011101000110110001100101011001000010000001100001011001100111010001100101011100100010000001110010011001010111001101100101011101000010000001110010011001010010110101100011011000010111000001110100011101010111001001100101 ,
0+
