iverilog_demo/tb_fir_lowpass.vcd
$date
	Thu Jun 18 19:31:05 2026
$end
$version
	Icarus Verilog
$end
$timescale
	1ps
$end
$scope module tb_fir_lowpass $end
$var wire 1 ! fir_ready $end
$var wire 1 " filter_overflow $end
$var wire 1 # data_out_valid $end
$var wire 18 $ data_out [17:0] $end
$var real 1 % CLK_PERIOD $end
$var reg 1 & clk $end
$var reg 18 ' data_in [17:0] $end
$var reg 1 ( data_valid $end
$var reg 18 ) last_output [17:0] $end
$var reg 18 * out_max [17:0] $end
$var reg 18 + out_min [17:0] $end
$var reg 1 , reset_n $end
$var reg 1 - saw_nonzero $end
$var integer 32 . csv_file [31:0] $end
$var integer 32 / fail_count [31:0] $end
$var integer 32 0 output_count [31:0] $end
$var integer 32 1 pass_count [31:0] $end
$var integer 32 2 sample_count [31:0] $end
$var integer 32 3 test_num [31:0] $end
$scope module uut $end
$var wire 1 & clk $end
$var wire 18 4 data_in [17:0] $end
$var wire 1 ( data_valid $end
$var wire 1 " filter_overflow $end
$var wire 1 ! fir_ready $end
$var wire 1 , reset_n $end
$var parameter 32 5 ACCUM_WIDTH $end
$var parameter 32 6 COEFF_WIDTH $end
$var parameter 32 7 DATA_WIDTH $end
$var parameter 32 8 TAPS $end
$var reg 36 9 accumulator_reg [35:0] $end
$var reg 18 : data_out [17:0] $end
$var reg 1 # data_out_valid $end
$var reg 9 ; valid_pipe [8:0] $end
$var integer 32 < i [31:0] $end
$scope begin mult_alias[0] $end
$var parameter 2 = m $end
$upscope $end
$scope begin mult_alias[1] $end
$var parameter 2 > m $end
$upscope $end
$scope begin mult_alias[2] $end
$var parameter 3 ? m $end
$upscope $end
$scope begin mult_alias[3] $end
$var parameter 3 @ m $end
$upscope $end
$scope begin mult_alias[4] $end
$var parameter 4 A m $end
$upscope $end
$scope begin mult_alias[5] $end
$var parameter 4 B m $end
$upscope $end
$scope begin mult_alias[6] $end
$var parameter 4 C m $end
$upscope $end
$scope begin mult_alias[7] $end
$var parameter 4 D m $end
$upscope $end
$scope begin mult_alias[8] $end
$var parameter 5 E m $end
$upscope $end
$scope begin mult_alias[9] $end
$var parameter 5 F m $end
$upscope $end
$scope begin mult_alias[10] $end
$var parameter 5 G m $end
$upscope $end
$scope begin mult_alias[11] $end
$var parameter 5 H m $end
$upscope $end
$scope begin mult_alias[12] $end
$var parameter 5 I m $end
$upscope $end
$scope begin mult_alias[13] $end
$var parameter 5 J m $end
$upscope $end
$scope begin mult_alias[14] $end
$var parameter 5 K m $end
$upscope $end
$scope begin mult_alias[15] $end
$var parameter 5 L m $end
$upscope $end
$scope begin mult_alias[16] $end
$var parameter 6 M m $end
$upscope $end
$scope begin mult_alias[17] $end
$var parameter 6 N m $end
$upscope $end
$scope begin mult_alias[18] $end
$var parameter 6 O m $end
$upscope $end
$scope begin mult_alias[19] $end
$var parameter 6 P m $end
$upscope $end
$scope begin mult_alias[20] $end
$var parameter 6 Q m $end
$upscope $end
$scope begin mult_alias[21] $end
$var parameter 6 R m $end
$upscope $end
$scope begin mult_alias[22] $end
$var parameter 6 S m $end
$upscope $end
$scope begin mult_alias[23] $end
$var parameter 6 T m $end
$upscope $end
$scope begin mult_alias[24] $end
$var parameter 6 U m $end
$upscope $end
$scope begin mult_alias[25] $end
$var parameter 6 V m $end
$upscope $end
$scope begin mult_alias[26] $end
$var parameter 6 W m $end
$upscope $end
$scope begin mult_alias[27] $end
$var parameter 6 X m $end
$upscope $end
$scope begin mult_alias[28] $end
$var parameter 6 Y m $end
$upscope $end
$scope begin mult_alias[29] $end
$var parameter 6 Z m $end
$upscope $end
$scope begin mult_alias[30] $end
$var parameter 6 [ m $end
$upscope $end
$scope begin mult_alias[31] $end
$var parameter 6 \ m $end
$upscope $end
$scope begin mult_gen[0] $end
$var parameter 2 ] k $end
$upscope $end
$scope begin mult_gen[1] $end
$var parameter 2 ^ k $end
$upscope $end
$scope begin mult_gen[2] $end
$var parameter 3 _ k $end
$upscope $end
$scope begin mult_gen[3] $end
$var parameter 3 ` k $end
$upscope $end
$scope begin mult_gen[4] $end
$var parameter 4 a k $end
$upscope $end
$scope begin mult_gen[5] $end
$var parameter 4 b k $end
$upscope $end
$scope begin mult_gen[6] $end
$var parameter 4 c k $end
$upscope $end
$scope begin mult_gen[7] $end
$var parameter 4 d k $end
$upscope $end
$scope begin mult_gen[8] $end
$var parameter 5 e k $end
$upscope $end
$scope begin mult_gen[9] $end
$var parameter 5 f k $end
$upscope $end
$scope begin mult_gen[10] $end
$var parameter 5 g k $end
$upscope $end
$scope begin mult_gen[11] $end
$var parameter 5 h k $end
$upscope $end
$scope begin mult_gen[12] $end
$var parameter 5 i k $end
$upscope $end
$scope begin mult_gen[13] $end
$var parameter 5 j k $end
$upscope $end
$scope begin mult_gen[14] $end
$var parameter 5 k k $end
$upscope $end
$scope begin mult_gen[15] $end
$var parameter 5 l k $end
$upscope $end
$scope begin mult_gen[16] $end
$var parameter 6 m k $end
$upscope $end
$scope begin mult_gen[17] $end
$var parameter 6 n k $end
$upscope $end
$scope begin mult_gen[18] $end
$var parameter 6 o k $end
$upscope $end
$scope begin mult_gen[19] $end
$var parameter 6 p k $end
$upscope $end
$scope begin mult_gen[20] $end
$var parameter 6 q k $end
$upscope $end
$scope begin mult_gen[21] $end
$var parameter 6 r k $end
$upscope $end
$scope begin mult_gen[22] $end
$var parameter 6 s k $end
$upscope $end
$scope begin mult_gen[23] $end
$var parameter 6 t k $end
$upscope $end
$scope begin mult_gen[24] $end
$var parameter 6 u k $end
$upscope $end
$scope begin mult_gen[25] $end
$var parameter 6 v k $end
$upscope $end
$scope begin mult_gen[26] $end
$var parameter 6 w k $end
$upscope $end
$scope begin mult_gen[27] $end
$var parameter 6 x k $end
$upscope $end
$scope begin mult_gen[28] $end
$var parameter 6 y k $end
$upscope $end
$scope begin mult_gen[29] $end
$var parameter 6 z k $end
$upscope $end
$scope begin mult_gen[30] $end
$var parameter 6 { k $end
$upscope $end
$scope begin mult_gen[31] $end
$var parameter 6 | k $end
$upscope $end
$upscope $end
$scope task check $end
$var reg 1 } cond $end
$var reg 512 ~ label [511:0] $end
$upscope $end
$upscope $end
$enddefinitions $end
$comment Show the parameter values. $end
$dumpall
b11111 |
b11110 {
b11101 z
b11100 y
b11011 x
b11010 w
b11001 v
b11000 u
b10111 t
b10110 s
b10101 r
b10100 q
b10011 p
b10010 o
b10001 n
b10000 m
b1111 l
b1110 k
b1101 j
b1100 i
b1011 h
b1010 g
b1001 f
b1000 e
b111 d
b110 c
b101 b
b100 a
b11 `
b10 _
b1 ^
b0 ]
b11111 \
b11110 [
b11101 Z
b11100 Y
b11011 X
b11010 W
b11001 V
b11000 U
b10111 T
b10110 S
b10101 R
b10100 Q
b10011 P
b10010 O
b10001 N
b10000 M
b1111 L
b1110 K
b1101 J
b1100 I
b1011 H
b1010 G
b1001 F
b1000 E
b111 D
b110 C
b101 B
b100 A
b11 @
b10 ?
b1 >
b0 =
b100000 8
b10010 7
b10010 6
b100100 5
r10 %
$end
#0
$dumpvars
bx ~
x}
bx <
bx ;
bx :
bx 9
b0 4
b0 3
bx 2
b0 1
bx 0
b0 /
bx .
x-
0,
bx +
bx *
bx )
0(
b0 '
0&
bx $
x#
x"
1!
$end
#5000
0"
b0 9
0#
b0 $
b0 :
b0 ;
b100000 <
1&
#10000
0&
#15000
b100 <
1&
#20000
0&
#25000
b100000 <
1&
#30000
0&
#35000
b100 <
1&
#36000
1,
b11 1
b11 3
b1100110011010010111001001011111011100100110010101100001011001000111100100100000011000010110110001110111011000010111100101110011001000000110000101110011011100110110010101110010011101000110010101100100 ~
1}
#40000
0&
#45000
1&
#46000
0,
#50000
0&
#55000
b100 <
1&
#60000
0&
#65000
b100000 <
1&
#70000
0&
#75000
b100 <
1&
#80000
0&
#85000
1,
b100000 <
1&
#90000
0&
#95000
b1 ;
b100000 <
1(
b1111101000 '
b1111101000 4
1&
#100000
0&
#105000
b11 ;
b0 2
b0 0
0-
b10000000000000000000000000000011 .
b0 '
b0 4
b0 <
1&
#110000
0&
#115000
b111 ;
b10000 <
1&
#116000
b1 2
#120000
0&
#125000
b1111 ;
b0 <
1&
#126000
b10 2
#130000
0&
#135000
b11111 ;
b100 <
1&
#136000
b11 2
#140000
0&
#145000
b111111 ;
b0 <
1&
#146000
b100 2
#150000
0&
#155000
b1111111 ;
b101010001111001000 9
b100 <
1&
#156000
b101 2
#160000
0&
#165000
b1011100100001111000 9
b1 $
b1 :
1#
b11111111 ;
b0 <
1&
#166000
b110 2
b1 0
1-
#170000
0&
#175000
b111111111 ;
b10 $
b10 :
b111111111111111110010111110000001000 9
b100 <
1&
#176000
b111 2
b10 0
#180000
0&
#185000
b1010111111001000 9
b111111111111111100 $
b111111111111111100 :
b0 <
1&
#186000
b1000 2
b11 0
#190000
0&
#195000
b0 $
b0 :
b11011100001101110000 9
b100 <
1&
#196000
b1001 2
b100 0
#200000
0&
#205000
b111111111111111001110001100100000000 9
b110 $
b110 :
b0 <
1&
#206000
b1010 2
b101 0
#210000
0&
#215000
b111111111111110011 $
b111111111111110011 :
b10111100101110001000 9
b100 <
1&
#216000
b1011 2
b110 0
#220000
0&
#225000
b111100110000101011000 9
b101 $
b101 :
b0 <
1&
#226000
b1100 2
b111 0
#230000
0&
#235000
b1111 $
b1111 :
b111111111111101110101000011011011000 9
b100 <
1&
#236000
b1101 2
b1000 0
#240000
0&
#245000
b1101000100011011010000 9
b111111111111011101 $
b111111111111011101 :
b0 <
1&
#246000
b1110 2
b1001 0
#250000
0&
#255000
b11010 $
b11010 :
b1010110000111101110000 9
b100 <
1&
#256000
b1111 2
b1010 0
#260000
0&
#265000
b111111111111010111011100110010010000 9
b10101 $
b10101 :
b0 <
1&
#266000
b10000 2
b1011 0
#270000
0&
#275000
b111111111110101110 $
b111111111110101110 :
b101111001111111011010000 9
b100 <
1&
#276000
b10001 2
b1100 0
#280000
0&
#285000
b111111111111111011100110111111101000 9
b1011110 $
b1011110 :
b0 <
1&
#286000
b10010 2
b1101 0
#290000
0&
#295000
b111111111111110111 $
b111111111111110111 :
b111111111110011000010101011110101000 9
b100 <
1&
#296000
b10011 2
b1110 0
#300000
0&
#305000
b111010111010010000111000000 9
b111111111100110000 $
b111111111100110000 :
b0 <
1&
#306000
b10100 2
b1111 0
#310000
0&
#315000
b1110101110 $
b1110101110 :
b1111100111111111100000110000 9
b100 <
1&
#316000
b10101 2
b10000 0
#320000
0&
#325000
b111010111010010000111000000 9
b11111001111 $
b11111001111 :
b0 <
1&
#326000
b10110 2
b10001 0
#330000
0&
#335000
b1110101110 $
b1110101110 :
b111111111110011000010101011110101000 9
b100 <
1&
#336000
b10111 2
b10010 0
#340000
0&
#345000
b111111111111111011100110111111101000 9
b111111111100110000 $
b111111111100110000 :
b0 <
1&
#346000
b11000 2
b10011 0
#350000
0&
#355000
b111111111111110111 $
b111111111111110111 :
b101111001111111011010000 9
b100 <
1&
#356000
b11001 2
b10100 0
#360000
0&
#365000
b111111111111010111011100110010010000 9
b1011110 $
b1011110 :
b0 <
1&
#366000
b11010 2
b10101 0
#370000
0&
#375000
b111111111110101110 $
b111111111110101110 :
b1010110000111101110000 9
b100 <
1&
#376000
b11011 2
b10110 0
#380000
0&
#385000
b1101000100011011010000 9
b10101 $
b10101 :
b0 <
1&
#386000
b11100 2
b10111 0
#390000
0&
#395000
b11010 $
b11010 :
b111111111111101110101000011011011000 9
b100 <
1&
#396000
b11101 2
b11000 0
#400000
0&
#405000
b111100110000101011000 9
b111111111111011101 $
b111111111111011101 :
b0 <
1&
#406000
b11110 2
b11001 0
#410000
0&
#415000
b1111 $
b1111 :
b10111100101110001000 9
b100 <
1&
#416000
b11111 2
b11010 0
#420000
0&
#425000
b111111111111111001110001100100000000 9
b101 $
b101 :
b0 <
1&
#426000
b100000 2
b11011 0
#430000
0&
#435000
b111111111111110011 $
b111111111111110011 :
b11011100001101110000 9
b100 <
1&
#436000
b100001 2
b11100 0
#440000
0&
#445000
b1010111111001000 9
b110 $
b110 :
b0 <
1&
#446000
b100010 2
b11101 0
#450000
0&
#455000
b0 $
b0 :
b111111111111111110010111110000001000 9
b100 <
1&
#456000
b100011 2
b11110 0
#460000
0&
#465000
b1011100100001111000 9
b111111111111111100 $
b111111111111111100 :
b0 <
1&
#466000
b100100 2
b11111 0
#470000
0&
#475000
b10 $
b10 :
b101010001111001000 9
b100 <
1&
#476000
b100101 2
b100000 0
#480000
0&
#485000
b0 9
b1 $
b1 :
b0 <
1&
#486000
b100110 2
b100001 0
#490000
0&
#495000
b0 $
b0 :
b100 <
1&
#496000
b100111 2
b100010 0
#500000
0&
#505000
b0 <
1&
#506000
b101000 2
b100011 0
#510000
0&
#515000
b100 <
1&
#516000
b101001 2
b100100 0
#520000
0&
#525000
b0 <
1&
#526000
b101010 2
b100101 0
#530000
0&
#535000
b100 <
1&
#536000
b101011 2
b100110 0
#540000
0&
#545000
b0 <
1&
#546000
0(
0,
b101 1
b101 3
b10000010111010000100000011011000110010101100001011100110111010000100000001100110011001000100000011011110111010101110100011100000111010101110100001000000111001101100001011011010111000001101100011001010111001100100000011001100111001001101111011011010010000001101001011011010111000001110101011011000111001101100101 ~
b101100 2
b100111 0
#550000
0&
#555000
b0 ;
0#
b100 <
1&
#560000
0&
#565000
b100000 <
1&
#570000
0&
#575000
b100 <
1&
#580000
0&
#585000
1,
b100000 <
1&
#590000
0&
#595000
b1 ;
b100000 <
b0 2
b0 0
1(
b1001110001000 '
b1001110001000 4
1&
#600000
0&
#605000
b11 ;
b0 <
1&
#606000
b1 2
#610000
0&
#615000
b111 ;
b10000 <
1&
#616000
b10 2
#620000
0&
#625000
b1111 ;
b0 <
1&
#626000
b11 2
#630000
0&
#635000
b11111 ;
b100 <
1&
#636000
b100 2
#640000
0&
#645000
b111111 ;
b0 <
1&
#646000
b101 2
#650000
0&
#655000
b1111111 ;
b11010011001011101000 9
b100 <
1&
#656000
b110 2
#660000
0&
#665000
b111001110101001011000 9
b110 $
b110 :
1#
b11111111 ;
b0 <
1&
#666000
b111 2
b1 0
b110 )
#670000
0&
#675000
b111111111 ;
b1110 $
b1110 :
b111111111111111011001001111100010000 9
b100 <
1&
#676000
b1000 2
b10 0
b1110 )
#680000
0&
#685000
b1000000101100101000000 9
b111111111111110110 $
b111111111111110110 :
b0 <
1&
#686000
b1001 2
b11 0
b111111111111110110 )
#690000
0&
#695000
b10000 $
b10000 :
b1100010111000001000000 9
b100 <
1&
#696000
b1010 2
b100 0
b10000 )
#700000
0&
#705000
b111111111111101000111101011001000000 9
b11000 $
b11000 :
b0 <
1&
#706000
b1011 2
b101 0
b11000 )
#710000
0&
#715000
b111111111111010001 $
b111111111111010001 :
b11011000110100111101000 9
b100 <
1&
#716000
b1100 2
b110 0
b111111111111010001 )
#720000
0&
#725000
b1110111011110011111000 9
b110110 $
b110110 :
b0 <
1&
#726000
b1101 2
b111 0
b110110 )
#730000
0&
#735000
b11101 $
b11101 :
b111111111111000100010000110000100000 9
b100 <
1&
#736000
b1110 2
b1000 0
b11101 )
#740000
0&
#745000
b1010000010001111100001000 9
b111111111110001000 $
b111111111110001000 :
b0 <
1&
#746000
b1111 2
b1001 0
b111111111110001000 )
#750000
0&
#755000
b10100000 $
b10100000 :
b111111111111111010000101100101010000 9
b100 <
1&
#756000
b10000 2
b1010 0
b10100000 )
#760000
0&
#765000
b111111111110000101100001110111011000 9
b111111111111110100 $
b111111111111110100 :
b0 <
1&
#766000
b10001 2
b1011 0
b111111111111110100 )
#770000
0&
#775000
b111111111100001011 $
b111111111100001011 :
b11100110010101001101100000 9
b100 <
1&
#776000
b10010 2
b1100 0
b111111111100001011 )
#780000
0&
#785000
b111111111101101111100100110101100000 9
b111001100 $
b111001100 :
b0 <
1&
#786000
b10011 2
b1101 0
b111001100 )
#790000
0&
#795000
b111111111011011111 $
b111111111011011111 :
b111111111011100000000000100110101000 9
b100 <
1&
#796000
b10100 2
b1110 0
b111111111011011111 )
#800000
0&
#805000
b100010100011111111011000100000 9
b111111110111000000 $
b111111110111000000 :
b0 <
1&
#806000
b10101 2
b1111 0
b111111110111000000 )
#810000
0&
#815000
b1000101000111 $
b1000101000111 :
b1001001100111111110001010011000 9
b100 <
1&
#816000
b10110 2
b10000 0
b1000101000111 )
#820000
0&
#825000
b1000111011000011001111011100000 9
b10010011001111 $
b10010011001111 :
b0 <
1&
#826000
b10111 2
b10001 0
b10010011001111 )
#830000
0&
#835000
b10001110110000 $
b10001110110000 :
b1000001100001101001100011100000 9
b100 <
1&
#836000
b11000 2
b10010 0
b10001110110000 )
#840000
0&
#845000
b1000111000010011100111001101000 9
b10000011000011 $
b10000011000011 :
b0 <
1&
#846000
b11001 2
b10011 0
b10000011000011 )
#850000
0&
#855000
b10001110000100 $
b10001110000100 :
b1000101001101111001001011110000 9
b100 <
1&
#856000
b11010 2
b10100 0
b10001110000100 )
#860000
0&
#865000
b1000011110111101100110100111000 9
b10001010011011 $
b10001010011011 :
b0 <
1&
#866000
b11011 2
b10101 0
b10001010011011 )
#870000
0&
#875000
b10000111101111 $
b10000111101111 :
b1000110000011101110000000100000 9
b100 <
1&
#876000
b11100 2
b10110 0
b10000111101111 )
#880000
0&
#885000
b1000100111001000010111101001000 9
b10001100000111 $
b10001100000111 :
b0 <
1&
#886000
b11101 2
b10111 0
b10001100000111 )
#890000
0&
#895000
b10001001110010 $
b10001001110010 :
b1000100101100111000001001011000 9
b100 <
1&
#896000
b11110 2
b11000 0
b10001001110010 )
#900000
0&
#905000
b1000101011111000001011000000000 9
b10001001011001 $
b10001001011001 :
b0 <
1&
#906000
b11111 2
b11001 0
b10001001011001 )
#910000
0&
#915000
b10001010111110 $
b10001010111110 :
b1000100111011100111110000000000 9
b100 <
1&
#916000
b100000 2
b11010 0
b10001010111110 )
#920000
0&
#925000
b1000100111111111001001100000000 9
b10001001110111 $
b10001001110111 :
b0 <
1&
#926000
b100001 2
b11011 0
b10001001110111 )
#930000
0&
#935000
b10001001111111 $
b10001001111111 :
b1000101001100110100110100110000 9
b100 <
1&
#936000
b100010 2
b11100 0
b10001001111111 )
#940000
0&
#945000
b1000101000000110000000111101000 9
b10001010011001 $
b10001010011001 :
b0 <
1&
#946000
b100011 2
b11101 0
b10001010011001 )
#950000
0&
#955000
b10001010000001 $
b10001010000001 :
b1000101000100101011100101011000 9
b100 <
1&
#956000
b100100 2
b11110 0
b10001010000001 )
#960000
0&
#965000
b1000101000111111110110001000000 9
b10001010001001 $
b10001010001001 :
b0 <
1&
#966000
b100101 2
b11111 0
b10001010001001 )
#970000
0&
#975000
b10001010001111 $
b10001010001111 :
b100 <
1&
#976000
b100110 2
b100000 0
b10001010001111 )
#980000
0&
#985000
b0 <
1&
#986000
b100111 2
b100001 0
#990000
0&
#995000
b100 <
1&
#996000
b101000 2
b100010 0
#1000000
0&
#1005000
b0 <
1&
#1006000
b101001 2
b100011 0
#1010000
0&
#1015000
b100 <
1&
#1016000
b101010 2
b100100 0
#1020000
0&
#1025000
b0 <
1&
#1026000
b101011 2
b100101 0
#1030000
0&
#1035000
b100 <
1&
#1036000
b101100 2
b100110 0
#1040000
0&
#1045000
b0 <
1&
#1046000
b101101 2
b100111 0
#1050000
0&
#1055000
b100 <
1&
#1056000
b101110 2
b101000 0
#1060000
0&
#1065000
b0 <
1&
#1066000
b101111 2
b101001 0
#1070000
0&
#1075000
b100 <
1&
#1076000
b110000 2
b101010 0
#1080000
0&
#1085000
b0 <
1&
#1086000
b110001 2
b101011 0
#1090000
0&
#1095000
b100 <
1&
#1096000
b110010 2
b101100 0
#1100000
0&
#1105000
b0 <
1&
#1106000
b110011 2
b101101 0
#1110000
0&
#1115000
b100 <
1&
#1116000
b110100 2
b101110 0
#1120000
0&
#1125000
b0 <
1&
#1126000
b110101 2
b101111 0
#1130000
0&
#1135000
b100 <
1&
#1136000
b110110 2
b110000 0
#1140000
0&
#1145000
b0 <
1&
#1146000
b110111 2
b110001 0
#1150000
0&
#1155000
b100 <
1&
#1156000
b111000 2
b110010 0
#1160000
0&
#1165000
b0 <
1&
#1166000
b111001 2
b110011 0
#1170000
0&
#1175000
b100 <
1&
#1176000
b111010 2
b110100 0
#1180000
0&
#1185000
b0 <
1&
#1186000
b111011 2
b110101 0
#1190000
0&
#1195000
b100 <
1&
#1196000
b111100 2
b110110 0
#1200000
0&
#1205000
b0 <
1&
#1206000
b111101 2
b110111 0
#1210000
0&
#1215000
b100 <
1&
#1216000
b111110 2
b111000 0
#1220000
0&
#1225000
b0 <
1&
#1226000
b111111 2
b111001 0
#1230000
0&
#1235000
b100 <
1&
#1236000
b1000000 2
b111010 0
#1240000
0&
#1245000
b0 <
1&
#1246000
b1000001 2
b111011 0
#1250000
0&
#1255000
b100 <
1&
#1256000
b1000010 2
b111100 0
#1260000
0&
#1265000
b0 <
1&
#1266000
b1000011 2
b111101 0
#1270000
0&
#1275000
b100 <
1&
#1276000
b1000100 2
b111110 0
#1280000
0&
#1285000
b0 <
1&
#1286000
b1000101 2
b111111 0
#1290000
0&
#1295000
b100 <
1&
#1296000
b1000110 2
b1000000 0
#1300000
0&
#1305000
b0 <
1&
#1306000
b1000111 2
b1000001 0
#1310000
0&
#1315000
b100 <
1&
#1316000
b1001000 2
b1000010 0
#1320000
0&
#1325000
b0 <
1&
#1326000
b1001001 2
b1000011 0
#1330000
0&
#1335000
b100 <
1&
#1336000
b1001010 2
b1000100 0
#1340000
0&
#1345000
b0 <
1&
#1346000
b1001011 2
b1000101 0
#1350000
0&
#1355000
b100 <
1&
#1356000
b1001100 2
b1000110 0
#1360000
0&
#1365000
b0 <
1&
#1366000
b1001101 2
b1000111 0
#1370000
0&
#1375000
b100 <
1&
#1376000
b1001110 2
b1001000 0
#1380000
0&
#1385000
b0 <
1&
#1386000
b1001111 2
b1001001 0
#1390000
0&
#1395000
b100 <
1&
#1396000
b1010000 2
b1001010 0
#1400000
0&
#1405000
b0 <
1&
#1406000
b1010001 2
b1001011 0
#1410000
0&
#1415000
b100 <
1&
#1416000
b1010010 2
b1001100 0
#1420000
0&
#1425000
b0 <
1&
#1426000
b1010011 2
b1001101 0
#1430000
0&
#1435000
b100 <
1&
#1436000
b1010100 2
b1001110 0
#1440000
0&
#1445000
b0 <
1&
#1446000
b1010101 2
b1001111 0
#1450000
0&
#1455000
b100 <
1&
#1456000
b1010110 2
b1010000 0
#1460000
0&
#1465000
b0 <
1&
#1466000
b1010111 2
b1010001 0
#1470000
0&
#1475000
b100 <
1&
#1476000
b1011000 2
b1010010 0
#1480000
0&
#1485000
b0 <
1&
#1486000
b1011001 2
b1010011 0
#1490000
0&
#1495000
b100 <
1&
#1496000
b1011010 2
b1010100 0
#1500000
0&
#1505000
b0 <
1&
#1506000
b1011011 2
b1010101 0
#1510000
0&
#1515000
b100 <
1&
#1516000
b1011100 2
b1010110 0
#1520000
0&
#1525000
b0 <
1&
#1526000
b1011101 2
b1010111 0
#1530000
0&
#1535000
b100 <
1&
#1536000
b1011110 2
b1011000 0
#1540000
0&
#1545000
b0 <
1&
#1546000
b1011111 2
b1011001 0
#1550000
0&
#1555000
b100 <
1&
#1556000
b1100000 2
b1011010 0
#1560000
0&
#1565000
b0 <
1&
#1566000
b1100001 2
b1011011 0
#1570000
0&
#1575000
b100 <
1&
#1576000
b1100010 2
b1011100 0
#1580000
0&
#1585000
b0 <
1&
#1586000
b1100011 2
b1011101 0
#1590000
0&
#1595000
b100 <
1&
#1596000
0(
0,
b110 1
b110 3
b100010001000011001000000110100101101110011100000111010101110100001000000111000001110010011011110110010001110101011000110110010101110011001000000110111001101111011011100010110101111010011001010111001001101111001000000111001101100101011101000111010001101100011001010110010000100000011011110111010101110100011100000111010101110100 ~
b1100100 2
b1011110 0
#1600000
0&
#1605000
b0 9
0#
b0 $
b0 :
b0 ;
b100000 <
1&
#1610000
0&
#1615000
b100 <
1&
#1620000
0&
#1625000
b100000 <
1&
#1630000
0&
#1635000
1,
b100 <
1&
#1640000
0&
#1645000
b1 ;
b0 <
1(
b10011100010000 '
b10011100010000 4
1&
#1650000
0&
#1655000
b11 ;
b0 2
b0 0
b0 '
b0 4
b100000 <
1&
#1660000
0&
#1665000
b111 ;
b0 <
1&
#1666000
b1 2
#1670000
0&
#1675000
b1111 ;
b1000 <
1&
#1676000
b10 2
#1680000
0&
#1685000
b11111 ;
b0 <
1&
#1686000
b11 2
#1690000
0&
#1695000
b111111 ;
b100 <
1&
#1696000
b100 2
#1700000
0&
#1705000
b110100110010111010000 9
b1111111 ;
b0 <
1&
#1706000
b101 2
#1710000
0&
#1715000
b11111111 ;
b1101 $
b1101 :
1#
b1110011101010010110000 9
b100 <
1&
#1716000
b110 2
b1 0
#1720000
0&
#1725000
b111111111111101111101101100001010000 9
b11100 $
b11100 :
b111111111 ;
b0 <
1&
#1726000
b111 2
b10 0
#1730000
0&
#1735000
b111111111111011111 $
b111111111111011111 :
b1101101110111010000 9
b100 <
1&
#1736000
b1000 2
b11 0
#1740000
0&
#1745000
b100010011010001001100000 9
b11 $
b11 :
b0 <
1&
#1746000
b1001 2
b100 0
#1750000
0&
#1755000
b1000100 $
b1000100 :
b111111111111000001101111101000000000 9
b100 <
1&
#1756000
b1010 2
b101 0
#1760000
0&
#1765000
b11101011111001101010000 9
b111111111110000011 $
b111111111110000011 :
b0 <
1&
#1766000
b1011 2
b110 0
#1770000
0&
#1775000
b111010 $
b111010 :
b1001011111100110101110000 9
b100 <
1&
#1776000
b1100 2
b111 0
#1780000
0&
#1785000
b111111111101010010010100010001110000 9
b10010111 $
b10010111 :
b0 <
1&
#1786000
b1101 2
b1000 0
#1790000
0&
#1795000
b111111111010100100 $
b111111111010100100 :
b10000010101100010000100000 9
b100 <
1&
#1796000
b1110 2
b1001 0
#1800000
0&
#1805000
b1101011101001101001100000 9
b100000101 $
b100000101 :
b0 <
1&
#1806000
b1111 2
b1010 0
#1810000
0&
#1815000
b11010111 $
b11010111 :
b111111111001101010011111110110100000 9
b100 <
1&
#1816000
b10000 2
b1011 0
#1820000
0&
#1825000
b111011000011111010000100000 9
b111111110011010100 $
b111111110011010100 :
b0 <
1&
#1826000
b10001 2
b1100 0
#1830000
0&
#1835000
b1110110000 $
b1110110000 :
b111111111111010100000101111100010000 9
b100 <
1&
#1836000
b10010 2
b1101 0
#1840000
0&
#1845000
b111111101111110011010110110010010000 9
b111111111110101000 $
b111111111110101000 :
b0 <
1&
#1846000
b10011 2
b1110 0
#1850000
0&
#1855000
b111111011111100110 $
b111111011111100110 :
b1001001101000110101000110000000 9
b100 <
1&
#1856000
b10100 2
b1111 0
#1860000
0&
#1865000
b10011100001111111011000111100000 9
b10010011010001 $
b10010011010001 :
b0 <
1&
#1866000
b10101 2
b10000 0
#1870000
0&
#1875000
b100111000011111 $
b100111000011111 :
b1001001101000110101000110000000 9
b100 <
1&
#1876000
b10110 2
b10001 0
#1880000
0&
#1885000
b111111101111110011010110110010010000 9
b10010011010001 $
b10010011010001 :
b0 <
1&
#1886000
b10111 2
b10010 0
#1890000
0&
#1895000
b111111011111100110 $
b111111011111100110 :
b111111111111010100000101111100010000 9
b100 <
1&
#1896000
b11000 2
b10011 0
#1900000
0&
#1905000
b111011000011111010000100000 9
b111111111110101000 $
b111111111110101000 :
b0 <
1&
#1906000
b11001 2
b10100 0
#1910000
0&
#1915000
b1110110000 $
b1110110000 :
b111111111001101010011111110110100000 9
b100 <
1&
#1916000
b11010 2
b10101 0
#1920000
0&
#1925000
b1101011101001101001100000 9
b111111110011010100 $
b111111110011010100 :
b0 <
1&
#1926000
b11011 2
b10110 0
#1930000
0&
#1935000
b11010111 $
b11010111 :
b10000010101100010000100000 9
b100 <
1&
#1936000
b11100 2
b10111 0
#1940000
0&
#1945000
b111111111101010010010100010001110000 9
b100000101 $
b100000101 :
b0 <
1&
#1946000
b11101 2
b11000 0
#1950000
0&
#1955000
b111111111010100100 $
b111111111010100100 :
b1001011111100110101110000 9
b100 <
1&
#1956000
b11110 2
b11001 0
#1960000
0&
#1965000
b11101011111001101010000 9
b10010111 $
b10010111 :
b0 <
1&
#1966000
b11111 2
b11010 0
#1970000
0&
#1975000
b111010 $
b111010 :
b111111111111000001101111101000000000 9
b100 <
1&
#1976000
b100000 2
b11011 0
#1980000
0&
#1985000
b100010011010001001100000 9
b111111111110000011 $
b111111111110000011 :
b0 <
1&
#1986000
b100001 2
b11100 0
#1990000
0&
#1995000
b1000100 $
b1000100 :
b1101101110111010000 9
b100 <
1&
#1996000
b100010 2
b11101 0
#2000000
0&
#2005000
b111111111111101111101101100001010000 9
b11 $
b11 :
b0 <
1&
#2006000
b100011 2
b11110 0
#2010000
0&
#2015000
b111111111111011111 $
b111111111111011111 :
b1110011101010010110000 9
b100 <
1&
#2016000
b100100 2
b11111 0
#2020000
0&
#2025000
b110100110010111010000 9
b11100 $
b11100 :
b0 <
1&
#2026000
b100101 2
b100000 0
#2030000
0&
#2035000
b1101 $
b1101 :
b0 9
b100 <
1&
#2036000
b100110 2
b100001 0
#2040000
0&
#2045000
b0 $
b0 :
b0 <
1&
#2046000
b100111 2
b100010 0
#2050000
0&
#2055000
b100 <
1&
#2056000
0(
0,
b111 1
b111 3
b100001101101111011001010110011001100110011010010110001101101001011001010110111001110100011100110010000001100001011100100110010100100000011100110111100101101101011011010110010101110100011100100110100101100011001000000010100001110110011001010111001001101001011001100110100101100101011001000010000001100110011100100110111101101101001000000101001001010100010011000010000001110011011011110111010101110010011000110110010100101001 ~
b101000 2
b100011 0
#2060000
0&
#2065000
0#
b0 ;
b100000 <
1&
#2070000
0&
#2075000
b100 <
1&
#2080000
0&
#2085000
b100000 <
1&
#2090000
0&
#2095000
1,
b100 <
1&
