iverilog_demo/tb_fpga_self_test.vcd
$date
	Thu Jun 18 19:31:05 2026
$end
$version
	Icarus Verilog
$end
$timescale
	1ps
$end
$scope module tb_fpga_self_test $end
$var wire 1 ! result_valid $end
$var wire 5 " result_flags [4:0] $end
$var wire 8 # result_detail [7:0] $end
$var wire 1 $ capture_valid $end
$var wire 16 % capture_data [15:0] $end
$var wire 1 & capture_active $end
$var wire 1 ' busy $end
$var reg 16 ( adc_data_in [15:0] $end
$var reg 16 ) adc_sample_cnt [15:0] $end
$var reg 1 * adc_valid_in $end
$var reg 1 + clk $end
$var reg 1 , reset_n $end
$var reg 1 - trigger $end
$var integer 32 . captured_count [31:0] $end
$var integer 32 / fail_count [31:0] $end
$var integer 32 0 pass_count [31:0] $end
$var integer 32 1 test_num [31:0] $end
$scope module dut $end
$var wire 16 2 adc_data_in [15:0] $end
$var wire 1 * adc_valid_in $end
$var wire 1 + clk $end
$var wire 1 , reset_n $end
$var wire 1 - trigger $end
$var parameter 32 3 ADC_CAP_SAMPLES $end
$var parameter 32 4 BRAM_AW $end
$var parameter 32 5 BRAM_DEPTH $end
$var parameter 4 6 ST_ADC_CAP $end
$var parameter 4 7 ST_ARITH $end
$var parameter 4 8 ST_BRAM_CHK $end
$var parameter 4 9 ST_BRAM_GAP $end
$var parameter 4 : ST_BRAM_RD $end
$var parameter 4 ; ST_BRAM_WR $end
$var parameter 4 < ST_CIC_CHECK $end
$var parameter 4 = ST_CIC_SETUP $end
$var parameter 4 > ST_DONE $end
$var parameter 4 ? ST_FFT_CHECK $end
$var parameter 4 @ ST_FFT_SETUP $end
$var parameter 4 A ST_IDLE $end
$var reg 10 B adc_cap_cnt [9:0] $end
$var reg 1 C arith_pass $end
$var reg 6 D bram_addr [5:0] $end
$var reg 1 E bram_pass $end
$var reg 6 F bram_rd_addr_d [5:0] $end
$var reg 16 G bram_rd_data [15:0] $end
$var reg 1 H bram_rd_valid $end
$var reg 16 I bram_wr_data [15:0] $end
$var reg 1 ' busy $end
$var reg 1 & capture_active $end
$var reg 16 J capture_data [15:0] $end
$var reg 1 $ capture_valid $end
$var reg 8 K result_detail [7:0] $end
$var reg 5 L result_flags [4:0] $end
$var reg 1 ! result_valid $end
$var reg 4 M state [3:0] $end
$var reg 10 N step_cnt [9:0] $end
$scope function sat_add $end
$var reg 16 O a [15:0] $end
$var reg 16 P b [15:0] $end
$var reg 17 Q sum_full [16:0] $end
$upscope $end
$scope function walking_one $end
$var reg 6 R addr [5:0] $end
$upscope $end
$upscope $end
$scope begin wait_for_done $end
$var integer 32 S i [31:0] $end
$upscope $end
$scope begin wait_for_done2 $end
$var integer 32 T i [31:0] $end
$upscope $end
$scope task check $end
$var reg 1 U condition $end
$var reg 256 V test_name [255:0] $end
$upscope $end
$upscope $end
$enddefinitions $end
$comment Show the parameter values. $end
$dumpall
b0 A
b111 @
b1000 ?
b1011 >
b101 =
b110 <
b1 ;
b11 :
b10 9
b100 8
b1001 7
b1010 6
b1000000 5
b110 4
b100000000 3
$end
#0
$dumpvars
bx V
xU
bx T
bx S
bx R
bx Q
bx P
bx O
b0 N
b0 M
b0 L
b0 K
b0 J
b0 I
0H
bx G
b0 F
1E
b0 D
1C
b0 B
b0 2
b0 1
b0 0
b0 /
b0 .
0-
0,
0+
0*
b0 )
b0 (
0'
0&
b0 %
0$
b0 #
b0 "
0!
$end
#5000
1+
#10000
0+
#15000
1+
#20000
0+
#25000
1+
#30000
0+
#35000
1+
#40000
0+
#45000
1+
#50000
0+
#55000
1+
#60000
0+
#65000
1+
#70000
0+
#75000
1+
#80000
0+
#85000
1+
#90000
0+
#95000
1,
1+
#100000
0+
#105000
1+
#110000
0+
#115000
1+
#120000
0+
#125000
1+
#130000
0+
#135000
1+
#140000
0+
#145000
b11 0
b11 1
1U
b1000110011011000110000101100111011100110010000001111010011001010111001001101111 V
1+
#150000
0+
#155000
b1 M
1'
1-
1+
#160000
0+
#165000
b1 D
0-
b0 R
1+
#170000
0+
#175000
b10 D
b1 R
1+
#180000
0+
#185000
b11 D
b0 S
b100 0
b100 1
b10000100111010101110011011110010010000001100001011001100111010001100101011100100010000001110100011100100110100101100111011001110110010101110010 V
b10 R
1+
#190000
0+
#195000
b100 D
b11 R
b1 S
1+
#200000
0+
#205000
b101 D
b10 S
b100 R
1+
#210000
0+
#215000
b110 D
b101 R
b11 S
1+
#220000
0+
#225000
b111 D
b100 S
b110 R
1+
#230000
0+
#235000
b1000 D
b111 R
b101 S
1+
#240000
0+
#245000
b1001 D
b110 S
b1000 R
1+
#250000
0+
#255000
b1010 D
b1001 R
b111 S
1+
#260000
0+
#265000
b1011 D
b1000 S
b1010 R
1+
#270000
0+
#275000
b1100 D
b1011 R
b1001 S
1+
#280000
0+
#285000
b1101 D
b1010 S
b1100 R
1+
#290000
0+
#295000
b1110 D
b1101 R
b1011 S
1+
#300000
0+
#305000
b1111 D
b1100 S
b1110 R
1+
#310000
0+
#315000
b10000 D
b1111 R
b1101 S
1+
#320000
0+
#325000
b10001 D
b1110 S
b10000 R
1+
#330000
0+
#335000
b10010 D
b10001 R
b1111 S
1+
#340000
0+
#345000
b10011 D
b10000 S
b10010 R
1+
#350000
0+
#355000
b10100 D
b10011 R
b10001 S
1+
#360000
0+
#365000
b10101 D
b10010 S
b10100 R
1+
#370000
0+
#375000
b10110 D
b10101 R
b10011 S
1+
#380000
0+
#385000
b10111 D
b10100 S
b10110 R
1+
#390000
0+
#395000
b11000 D
b10111 R
b10101 S
1+
#400000
0+
#405000
b11001 D
b10110 S
b11000 R
1+
#410000
0+
#415000
b11010 D
b11001 R
b10111 S
1+
#420000
0+
#425000
b11011 D
b11000 S
b11010 R
1+
#430000
0+
#435000
b11100 D
b11011 R
b11001 S
1+
#440000
0+
#445000
b11101 D
b11010 S
b11100 R
1+
#450000
0+
#455000
b11110 D
b11101 R
b11011 S
1+
#460000
0+
#465000
b11111 D
b11100 S
b11110 R
1+
#470000
0+
#475000
b100000 D
b11111 R
b11101 S
1+
#480000
0+
#485000
b100001 D
b11110 S
b100000 R
1+
#490000
0+
#495000
b100010 D
b100001 R
b11111 S
1+
#500000
0+
#505000
b100011 D
b100000 S
b100010 R
1+
#510000
0+
#515000
b100100 D
b100011 R
b100001 S
1+
#520000
0+
#525000
b100101 D
b100010 S
b100100 R
1+
#530000
0+
#535000
b100110 D
b100101 R
b100011 S
1+
#540000
0+
#545000
b100111 D
b100100 S
b100110 R
1+
#550000
0+
#555000
b101000 D
b100111 R
b100101 S
1+
#560000
0+
#565000
b101001 D
b100110 S
b101000 R
1+
#570000
0+
#575000
b101010 D
b101001 R
b100111 S
1+
#580000
0+
#585000
b101011 D
b101000 S
b101010 R
1+
#590000
0+
#595000
b101100 D
b101011 R
b101001 S
1+
#600000
0+
#605000
b101101 D
b101010 S
b101100 R
1+
#610000
0+
#615000
b101110 D
b101101 R
b101011 S
1+
#620000
0+
#625000
b101111 D
b101100 S
b101110 R
1+
#630000
0+
#635000
b110000 D
b101111 R
b101101 S
1+
#640000
0+
#645000
b110001 D
b101110 S
b110000 R
1+
#650000
0+
#655000
b110010 D
b110001 R
b101111 S
1+
#660000
0+
#665000
b110011 D
b110000 S
b110010 R
1+
#670000
0+
#675000
b110100 D
b110011 R
b110001 S
1+
#680000
0+
#685000
b110101 D
b110010 S
b110100 R
1+
#690000
0+
#695000
b110110 D
b110101 R
b110011 S
1+
#700000
0+
#705000
b110111 D
b110100 S
b110110 R
1+
#710000
0+
#715000
b111000 D
b110111 R
b110101 S
1+
#720000
0+
#725000
b111001 D
b110110 S
b111000 R
1+
#730000
0+
#735000
b111010 D
b111001 R
b110111 S
1+
#740000
0+
#745000
b111011 D
b111000 S
b111010 R
1+
#750000
0+
#755000
b111100 D
b111011 R
b111001 S
1+
#760000
0+
#765000
b111101 D
b111010 S
b111100 R
1+
#770000
0+
#775000
b111110 D
b111101 R
b111011 S
1+
#780000
0+
#785000
b111111 D
b111100 S
b111110 R
1+
#790000
0+
#795000
b10 M
b0 D
b111111 R
b111101 S
1+
#800000
0+
#805000
b11 M
b1 G
b111110 S
1+
#810000
0+
#815000
b1 D
1H
b111111 S
1+
#820000
0+
#825000
b10 D
b1 F
1H
b10 G
b0 R
b1000000 S
1+
#830000
0+
#835000
b11 D
b10 F
1H
b100 G
b1 R
b1000001 S
1+
#840000
0+
#845000
b100 D
b11 F
1H
b1000 G
b10 R
b1000010 S
1+
#850000
0+
#855000
b101 D
b100 F
1H
b10000 G
b11 R
b1000011 S
1+
#860000
0+
#865000
b110 D
b101 F
1H
b100000 G
b100 R
b1000100 S
1+
#870000
0+
#875000
b111 D
b110 F
1H
b1000000 G
b101 R
b1000101 S
1+
#880000
0+
#885000
b1000 D
b111 F
1H
b10000000 G
b110 R
b1000110 S
1+
#890000
0+
#895000
b1001 D
b1000 F
1H
b100000000 G
b111 R
b1000111 S
1+
#900000
0+
#905000
b1010 D
b1001 F
1H
b1000000000 G
b1000 R
b1001000 S
1+
#910000
0+
#915000
b1011 D
b1010 F
1H
b10000000000 G
b1001 R
b1001001 S
1+
#920000
0+
#925000
b1100 D
b1011 F
1H
b100000000000 G
b1010 R
b1001010 S
1+
#930000
0+
#935000
b1101 D
b1100 F
1H
b1000000000000 G
b1011 R
b1001011 S
1+
#940000
0+
#945000
b1110 D
b1101 F
1H
b10000000000000 G
b1100 R
b1001100 S
1+
#950000
0+
#955000
b1111 D
b1110 F
1H
b100000000000000 G
b1101 R
b1001101 S
1+
#960000
0+
#965000
b10000 D
b1111 F
1H
b1000000000000000 G
b1110 R
b1001110 S
1+
#970000
0+
#975000
b10001 D
b10000 F
1H
b1 G
b1111 R
b1001111 S
1+
#980000
0+
#985000
b10010 D
b10001 F
1H
b10 G
b10000 R
b1010000 S
1+
#990000
0+
#995000
b10011 D
b10010 F
1H
b100 G
b10001 R
b1010001 S
1+
#1000000
0+
#1005000
b10100 D
b10011 F
1H
b1000 G
b10010 R
b1010010 S
1+
#1010000
0+
#1015000
b10101 D
b10100 F
1H
b10000 G
b10011 R
b1010011 S
1+
#1020000
0+
#1025000
b10110 D
b10101 F
1H
b100000 G
b10100 R
b1010100 S
1+
#1030000
0+
#1035000
b10111 D
b10110 F
1H
b1000000 G
b10101 R
b1010101 S
1+
#1040000
0+
#1045000
b11000 D
b10111 F
1H
b10000000 G
b10110 R
b1010110 S
1+
#1050000
0+
#1055000
b11001 D
b11000 F
1H
b100000000 G
b10111 R
b1010111 S
1+
#1060000
0+
#1065000
b11010 D
b11001 F
1H
b1000000000 G
b11000 R
b1011000 S
1+
#1070000
0+
#1075000
b11011 D
b11010 F
1H
b10000000000 G
b11001 R
b1011001 S
1+
#1080000
0+
#1085000
b11100 D
b11011 F
1H
b100000000000 G
b11010 R
b1011010 S
1+
#1090000
0+
#1095000
b11101 D
b11100 F
1H
b1000000000000 G
b11011 R
b1011011 S
1+
#1100000
0+
#1105000
b11110 D
b11101 F
1H
b10000000000000 G
b11100 R
b1011100 S
1+
#1110000
0+
#1115000
b11111 D
b11110 F
1H
b100000000000000 G
b11101 R
b1011101 S
1+
#1120000
0+
#1125000
b100000 D
b11111 F
1H
b1000000000000000 G
b11110 R
b1011110 S
1+
#1130000
0+
#1135000
b100001 D
b100000 F
1H
b1 G
b11111 R
b1011111 S
1+
#1140000
0+
#1145000
b100010 D
b100001 F
1H
b10 G
b100000 R
b1100000 S
1+
#1150000
0+
#1155000
b100011 D
b100010 F
1H
b100 G
b100001 R
b1100001 S
1+
#1160000
0+
#1165000
b100100 D
b100011 F
1H
b1000 G
b100010 R
b1100010 S
1+
#1170000
0+
#1175000
b100101 D
b100100 F
1H
b10000 G
b100011 R
b1100011 S
1+
#1180000
0+
#1185000
b100110 D
b100101 F
1H
b100000 G
b100100 R
b1100100 S
1+
#1190000
0+
#1195000
b100111 D
b100110 F
1H
b1000000 G
b100101 R
b1100101 S
1+
#1200000
0+
#1205000
b101000 D
b100111 F
1H
b10000000 G
b100110 R
b1100110 S
1+
#1210000
0+
#1215000
b101001 D
b101000 F
1H
b100000000 G
b100111 R
b1100111 S
1+
#1220000
0+
#1225000
b101010 D
b101001 F
1H
b1000000000 G
b101000 R
b1101000 S
1+
#1230000
0+
#1235000
b101011 D
b101010 F
1H
b10000000000 G
b101001 R
b1101001 S
1+
#1240000
0+
#1245000
b101100 D
b101011 F
1H
b100000000000 G
b101010 R
b1101010 S
1+
#1250000
0+
#1255000
b101101 D
b101100 F
1H
b1000000000000 G
b101011 R
b1101011 S
1+
#1260000
0+
#1265000
b101110 D
b101101 F
1H
b10000000000000 G
b101100 R
b1101100 S
1+
#1270000
0+
#1275000
b101111 D
b101110 F
1H
b100000000000000 G
b101101 R
b1101101 S
1+
#1280000
0+
#1285000
b110000 D
b101111 F
1H
b1000000000000000 G
b101110 R
b1101110 S
1+
#1290000
0+
#1295000
b110001 D
b110000 F
1H
b1 G
b101111 R
b1101111 S
1+
#1300000
0+
#1305000
b110010 D
b110001 F
1H
b10 G
b110000 R
b1110000 S
1+
#1310000
0+
#1315000
b110011 D
b110010 F
1H
b100 G
b110001 R
b1110001 S
1+
#1320000
0+
#1325000
b110100 D
b110011 F
1H
b1000 G
b110010 R
b1110010 S
1+
#1330000
0+
#1335000
b110101 D
b110100 F
1H
b10000 G
b110011 R
b1110011 S
1+
#1340000
0+
#1345000
b110110 D
b110101 F
1H
b100000 G
b110100 R
b1110100 S
1+
#1350000
0+
#1355000
b110111 D
b110110 F
1H
b1000000 G
b110101 R
b1110101 S
1+
#1360000
0+
#1365000
b111000 D
b110111 F
1H
b10000000 G
b110110 R
b1110110 S
1+
#1370000
0+
#1375000
b111001 D
b111000 F
1H
b100000000 G
b110111 R
b1110111 S
1+
#1380000
0+
#1385000
b111010 D
b111001 F
1H
b1000000000 G
b111000 R
b1111000 S
1+
#1390000
0+
#1395000
b111011 D
b111010 F
1H
b10000000000 G
b111001 R
b1111001 S
1+
#1400000
0+
#1405000
b111100 D
b111011 F
1H
b100000000000 G
b111010 R
b1111010 S
1+
#1410000
0+
#1415000
b111101 D
b111100 F
1H
b1000000000000 G
b111011 R
b1111011 S
1+
#1420000
0+
#1425000
b111110 D
b111101 F
1H
b10000000000000 G
b111100 R
b1111100 S
1+
#1430000
0+
#1435000
b111111 D
b111110 F
1H
b100000000000000 G
b111101 R
b1111101 S
1+
#1440000
0+
#1445000
b100 M
b111111 F
1H
b1000000000000000 G
b111110 R
b1111110 S
1+
#1450000
0+
#1455000
b101 M
b1 "
b1 L
0H
b111111 R
b1111111 S
1+
#1460000
0+
#1465000
b1 N
b10000000 S
1+
#1470000
0+
#1475000
b10 N
b10000001 S
1+
#1480000
0+
#1485000
b11 N
b10000010 S
1+
#1490000
0+
#1495000
b100 N
b10000011 S
1+
#1500000
0+
#1505000
b101 N
b10000100 S
1+
#1510000
0+
#1515000
b110 N
b10000101 S
1+
#1520000
0+
#1525000
b111 N
b10000110 S
1+
#1530000
0+
#1535000
b1000 N
b10000111 S
1+
#1540000
0+
#1545000
b0 N
b111 M
b11 "
b11 L
b10001000 S
1+
#1550000
0+
#1555000
b1 N
b10001001 S
1+
#1560000
0+
#1565000
b10 N
b10001010 S
1+
#1570000
0+
#1575000
b11 N
b10001011 S
1+
#1580000
0+
#1585000
b100 N
b10001100 S
1+
#1590000
0+
#1595000
b0 N
b1001 M
b111 "
b111 L
b10001101 S
1+
#1600000
0+
#1605000
b1 N
b1000000000000000 Q
b111111111111111 O
b1 P
b10001110 S
1+
#1610000
0+
#1615000
b10 N
b10111111111111111 Q
b1000000000000000 O
b1111111111111111 P
b10001111 S
1+
#1620000
0+
#1625000
b11 N
b100101100 Q
b1100100 O
b11001000 P
b10010000 S
1+
#1630000
0+
#1635000
b0 N
b1010 M
b1111 "
b1111 L
b10010001 S
1+
#1640000
0+
#1645000
b1 N
1&
b10010010 S
1+
#1650000
0+
#1655000
b10 N
b1 )
b10010011 S
1+
#1660000
0+
#1665000
b10 )
b11 N
b10010100 S
1+
#1670000
0+
#1675000
b100 N
b11 )
b10010101 S
1+
#1680000
0+
#1685000
1*
b11 (
b11 2
b100 )
b101 N
b10010110 S
1+
#1690000
0+
#1695000
b110 N
b1 B
1$
b11 %
b11 J
0*
b101 )
b10010111 S
1+
#1700000
0+
#1705000
b1 .
b110 )
b111 N
0$
b10011000 S
1+
#1710000
0+
#1715000
b1000 N
b111 )
b10011001 S
1+
#1720000
0+
#1725000
1*
b111 (
b111 2
b1000 )
b1001 N
b10011010 S
1+
#1730000
0+
#1735000
b1010 N
b10 B
1$
b111 %
b111 J
0*
b1001 )
b10011011 S
1+
#1740000
0+
#1745000
b10 .
b1010 )
b1011 N
0$
b10011100 S
1+
#1750000
0+
#1755000
b1100 N
b1011 )
b10011101 S
1+
#1760000
0+
#1765000
1*
b1011 (
b1011 2
b1100 )
b1101 N
b10011110 S
1+
#1770000
0+
#1775000
b1110 N
b11 B
1$
b1011 %
b1011 J
0*
b1101 )
b10011111 S
1+
#1780000
0+
#1785000
b11 .
b1110 )
b1111 N
0$
b10100000 S
1+
#1790000
0+
#1795000
b10000 N
b1111 )
b10100001 S
1+
#1800000
0+
#1805000
1*
b1111 (
b1111 2
b10000 )
b10001 N
b10100010 S
1+
#1810000
0+
#1815000
b10010 N
b100 B
1$
b1111 %
b1111 J
0*
b10001 )
b10100011 S
1+
#1820000
0+
#1825000
b100 .
b10010 )
b10011 N
0$
b10100100 S
1+
#1830000
0+
#1835000
b10100 N
b10011 )
b10100101 S
1+
#1840000
0+
#1845000
1*
b10011 (
b10011 2
b10100 )
b10101 N
b10100110 S
1+
#1850000
0+
#1855000
b10110 N
b101 B
1$
b10011 %
b10011 J
0*
b10101 )
b10100111 S
1+
#1860000
0+
#1865000
b101 .
b10110 )
b10111 N
0$
b10101000 S
1+
#1870000
0+
#1875000
b11000 N
b10111 )
b10101001 S
1+
#1880000
0+
#1885000
1*
b10111 (
b10111 2
b11000 )
b11001 N
b10101010 S
1+
#1890000
0+
#1895000
b11010 N
b110 B
1$
b10111 %
b10111 J
0*
b11001 )
b10101011 S
1+
#1900000
0+
#1905000
b110 .
b11010 )
b11011 N
0$
b10101100 S
1+
#1910000
0+
#1915000
b11100 N
b11011 )
b10101101 S
1+
#1920000
0+
#1925000
1*
b11011 (
b11011 2
b11100 )
b11101 N
b10101110 S
1+
#1930000
0+
#1935000
b11110 N
b111 B
1$
b11011 %
b11011 J
0*
b11101 )
b10101111 S
1+
#1940000
0+
#1945000
b111 .
b11110 )
b11111 N
0$
b10110000 S
1+
#1950000
0+
#1955000
b100000 N
b11111 )
b10110001 S
1+
#1960000
0+
#1965000
1*
b11111 (
b11111 2
b100000 )
b100001 N
b10110010 S
1+
#1970000
0+
#1975000
b100010 N
b1000 B
1$
b11111 %
b11111 J
0*
b100001 )
b10110011 S
1+
#1980000
0+
#1985000
b1000 .
b100010 )
b100011 N
0$
b10110100 S
1+
#1990000
0+
#1995000
b100100 N
b100011 )
b10110101 S
1+
#2000000
0+
#2005000
1*
b100011 (
b100011 2
b100100 )
b100101 N
b10110110 S
1+
#2010000
0+
#2015000
b100110 N
b1001 B
1$
b100011 %
b100011 J
0*
b100101 )
b10110111 S
1+
#2020000
0+
#2025000
b1001 .
b100110 )
b100111 N
0$
b10111000 S
1+
#2030000
0+
#2035000
b101000 N
b100111 )
b10111001 S
1+
#2040000
0+
#2045000
1*
b100111 (
b100111 2
b101000 )
b101001 N
b10111010 S
1+
#2050000
0+
#2055000
b101010 N
b1010 B
1$
b100111 %
b100111 J
0*
b101001 )
b10111011 S
1+
#2060000
0+
#2065000
b1010 .
b101010 )
b101011 N
0$
b10111100 S
1+
#2070000
0+
#2075000
b101100 N
b101011 )
b10111101 S
1+
#2080000
0+
#2085000
1*
b101011 (
b101011 2
b101100 )
b101101 N
b10111110 S
1+
#2090000
0+
#2095000
b101110 N
b1011 B
1$
b101011 %
b101011 J
0*
b101101 )
b10111111 S
1+
#2100000
0+
#2105000
b1011 .
b101110 )
b101111 N
0$
b11000000 S
1+
#2110000
0+
#2115000
b110000 N
b101111 )
b11000001 S
1+
#2120000
0+
#2125000
1*
b101111 (
b101111 2
b110000 )
b110001 N
b11000010 S
1+
#2130000
0+
#2135000
b110010 N
b1100 B
1$
b101111 %
b101111 J
0*
b110001 )
b11000011 S
1+
#2140000
0+
#2145000
b1100 .
b110010 )
b110011 N
0$
b11000100 S
1+
#2150000
0+
#2155000
b110100 N
b110011 )
b11000101 S
1+
#2160000
0+
#2165000
1*
b110011 (
b110011 2
b110100 )
b110101 N
b11000110 S
1+
#2170000
0+
#2175000
b110110 N
b1101 B
1$
b110011 %
b110011 J
0*
b110101 )
b11000111 S
1+
#2180000
0+
#2185000
b1101 .
b110110 )
b110111 N
0$
b11001000 S
1+
#2190000
0+
#2195000
b111000 N
b110111 )
b11001001 S
1+
#2200000
0+
#2205000
1*
b110111 (
b110111 2
b111000 )
b111001 N
b11001010 S
1+
#2210000
0+
#2215000
b111010 N
b1110 B
1$
b110111 %
b110111 J
0*
b111001 )
b11001011 S
1+
#2220000
0+
#2225000
b1110 .
b111010 )
b111011 N
0$
b11001100 S
1+
#2230000
0+
#2235000
b111100 N
b111011 )
b11001101 S
1+
#2240000
0+
#2245000
1*
b111011 (
b111011 2
b111100 )
b111101 N
b11001110 S
1+
#2250000
0+
#2255000
b111110 N
b1111 B
1$
b111011 %
b111011 J
0*
b111101 )
b11001111 S
1+
#2260000
0+
#2265000
b1111 .
b111110 )
b111111 N
0$
b11010000 S
1+
#2270000
0+
#2275000
b1000000 N
b111111 )
b11010001 S
1+
#2280000
0+
#2285000
1*
b111111 (
b111111 2
b1000000 )
b1000001 N
b11010010 S
1+
#2290000
0+
#2295000
b1000010 N
b10000 B
1$
b111111 %
b111111 J
0*
b1000001 )
b11010011 S
1+
#2300000
0+
#2305000
b10000 .
b1000010 )
b1000011 N
0$
b11010100 S
1+
#2310000
0+
#2315000
b1000100 N
b1000011 )
b11010101 S
1+
#2320000
0+
#2325000
1*
b1000011 (
b1000011 2
b1000100 )
b1000101 N
b11010110 S
1+
#2330000
0+
#2335000
b1000110 N
b10001 B
1$
b1000011 %
b1000011 J
0*
b1000101 )
b11010111 S
1+
#2340000
0+
#2345000
b10001 .
b1000110 )
b1000111 N
0$
b11011000 S
1+
#2350000
0+
#2355000
b1001000 N
b1000111 )
b11011001 S
1+
#2360000
0+
#2365000
1*
b1000111 (
b1000111 2
b1001000 )
b1001001 N
b11011010 S
1+
#2370000
0+
#2375000
b1001010 N
b10010 B
1$
b1000111 %
b1000111 J
0*
b1001001 )
b11011011 S
1+
#2380000
0+
#2385000
b10010 .
b1001010 )
b1001011 N
0$
b11011100 S
1+
#2390000
0+
#2395000
b1001100 N
b1001011 )
b11011101 S
1+
#2400000
0+
#2405000
1*
b1001011 (
b1001011 2
b1001100 )
b1001101 N
b11011110 S
1+
#2410000
0+
#2415000
b1001110 N
b10011 B
1$
b1001011 %
b1001011 J
0*
b1001101 )
b11011111 S
1+
#2420000
0+
#2425000
b10011 .
b1001110 )
b1001111 N
0$
b11100000 S
1+
#2430000
0+
#2435000
b1010000 N
b1001111 )
b11100001 S
1+
#2440000
0+
#2445000
1*
b1001111 (
b1001111 2
b1010000 )
b1010001 N
b11100010 S
1+
#2450000
0+
#2455000
b1010010 N
b10100 B
1$
b1001111 %
b1001111 J
0*
b1010001 )
b11100011 S
1+
#2460000
0+
#2465000
b10100 .
b1010010 )
b1010011 N
0$
b11100100 S
1+
#2470000
0+
#2475000
b1010100 N
b1010011 )
b11100101 S
1+
#2480000
0+
#2485000
1*
b1010011 (
b1010011 2
b1010100 )
b1010101 N
b11100110 S
1+
#2490000
0+
#2495000
b1010110 N
b10101 B
1$
b1010011 %
b1010011 J
0*
b1010101 )
b11100111 S
1+
#2500000
0+
#2505000
b10101 .
b1010110 )
b1010111 N
0$
b11101000 S
1+
#2510000
0+
#2515000
b1011000 N
b1010111 )
b11101001 S
1+
#2520000
0+
#2525000
1*
b1010111 (
b1010111 2
b1011000 )
b1011001 N
b11101010 S
1+
#2530000
0+
#2535000
b1011010 N
b10110 B
1$
b1010111 %
b1010111 J
0*
b1011001 )
b11101011 S
1+
#2540000
0+
#2545000
b10110 .
b1011010 )
b1011011 N
0$
b11101100 S
1+
#2550000
0+
#2555000
b1011100 N
b1011011 )
b11101101 S
1+
#2560000
0+
#2565000
1*
b1011011 (
b1011011 2
b1011100 )
b1011101 N
b11101110 S
1+
#2570000
0+
#2575000
b1011110 N
b10111 B
1$
b1011011 %
b1011011 J
0*
b1011101 )
b11101111 S
1+
#2580000
0+
#2585000
b10111 .
b1011110 )
b1011111 N
0$
b11110000 S
1+
#2590000
0+
#2595000
b1100000 N
b1011111 )
b11110001 S
1+
#2600000
0+
#2605000
1*
b1011111 (
b1011111 2
b1100000 )
b1100001 N
b11110010 S
1+
#2610000
0+
#2615000
b1100010 N
b11000 B
1$
b1011111 %
b1011111 J
0*
b1100001 )
b11110011 S
1+
#2620000
0+
#2625000
b11000 .
b1100010 )
b1100011 N
0$
b11110100 S
1+
#2630000
0+
#2635000
b1100100 N
b1100011 )
b11110101 S
1+
#2640000
0+
#2645000
1*
b1100011 (
b1100011 2
b1100100 )
b1100101 N
b11110110 S
1+
#2650000
0+
#2655000
b1100110 N
b11001 B
1$
b1100011 %
b1100011 J
0*
b1100101 )
b11110111 S
1+
#2660000
0+
#2665000
b11001 .
b1100110 )
b1100111 N
0$
b11111000 S
1+
#2670000
0+
#2675000
b1101000 N
b1100111 )
b11111001 S
1+
#2680000
0+
#2685000
1*
b1100111 (
b1100111 2
b1101000 )
b1101001 N
b11111010 S
1+
#2690000
0+
#2695000
b1101010 N
b11010 B
1$
b1100111 %
b1100111 J
0*
b1101001 )
b11111011 S
1+
#2700000
0+
#2705000
b11010 .
b1101010 )
b1101011 N
0$
b11111100 S
1+
#2710000
0+
#2715000
b1101100 N
b1101011 )
b11111101 S
1+
#2720000
0+
#2725000
1*
b1101011 (
b1101011 2
b1101100 )
b1101101 N
b11111110 S
1+
#2730000
0+
#2735000
b1101110 N
b11011 B
1$
b1101011 %
b1101011 J
0*
b1101101 )
b11111111 S
1+
#2740000
0+
#2745000
b11011 .
b1101110 )
b1101111 N
0$
b100000000 S
1+
#2750000
0+
#2755000
b1110000 N
b1101111 )
b100000001 S
1+
#2760000
0+
#2765000
1*
b1101111 (
b1101111 2
b1110000 )
b1110001 N
b100000010 S
1+
#2770000
0+
#2775000
b1110010 N
b11100 B
1$
b1101111 %
b1101111 J
0*
b1110001 )
b100000011 S
1+
#2780000
0+
#2785000
b11100 .
b1110010 )
b1110011 N
0$
b100000100 S
1+
#2790000
0+
#2795000
b1110100 N
b1110011 )
b100000101 S
1+
#2800000
0+
#2805000
1*
b1110011 (
b1110011 2
b1110100 )
b1110101 N
b100000110 S
1+
#2810000
0+
#2815000
b1110110 N
b11101 B
1$
b1110011 %
b1110011 J
0*
b1110101 )
b100000111 S
1+
#2820000
0+
#2825000
b11101 .
b1110110 )
b1110111 N
0$
b100001000 S
1+
#2830000
0+
#2835000
b1111000 N
b1110111 )
b100001001 S
1+
#2840000
0+
#2845000
1*
b1110111 (
b1110111 2
b1111000 )
b1111001 N
b100001010 S
1+
#2850000
0+
#2855000
b1111010 N
b11110 B
1$
b1110111 %
b1110111 J
0*
b1111001 )
b100001011 S
1+
#2860000
0+
#2865000
b11110 .
b1111010 )
b1111011 N
0$
b100001100 S
1+
#2870000
0+
#2875000
b1111100 N
b1111011 )
b100001101 S
1+
#2880000
0+
#2885000
1*
b1111011 (
b1111011 2
b1111100 )
b1111101 N
b100001110 S
1+
#2890000
0+
#2895000
b1111110 N
b11111 B
1$
b1111011 %
b1111011 J
0*
b1111101 )
b100001111 S
1+
#2900000
0+
#2905000
b11111 .
b1111110 )
b1111111 N
0$
b100010000 S
1+
#2910000
0+
#2915000
b10000000 N
b1111111 )
b100010001 S
1+
#2920000
0+
#2925000
1*
b1111111 (
b1111111 2
b10000000 )
b10000001 N
b100010010 S
1+
#2930000
0+
#2935000
b10000010 N
b100000 B
1$
b1111111 %
b1111111 J
0*
b10000001 )
b100010011 S
1+
#2940000
0+
#2945000
b100000 .
b10000010 )
b10000011 N
0$
b100010100 S
1+
#2950000
0+
#2955000
b10000100 N
b10000011 )
b100010101 S
1+
#2960000
0+
#2965000
1*
b10000011 (
b10000011 2
b10000100 )
b10000101 N
b100010110 S
1+
#2970000
0+
#2975000
b10000110 N
b100001 B
1$
b10000011 %
b10000011 J
0*
b10000101 )
b100010111 S
1+
#2980000
0+
#2985000
b100001 .
b10000110 )
b10000111 N
0$
b100011000 S
1+
#2990000
0+
#2995000
b10001000 N
b10000111 )
b100011001 S
1+
#3000000
0+
#3005000
1*
b10000111 (
b10000111 2
b10001000 )
b10001001 N
b100011010 S
1+
#3010000
0+
#3015000
b10001010 N
b100010 B
1$
b10000111 %
b10000111 J
0*
b10001001 )
b100011011 S
1+
#3020000
0+
#3025000
b100010 .
b10001010 )
b10001011 N
0$
b100011100 S
1+
#3030000
0+
#3035000
b10001100 N
b10001011 )
b100011101 S
1+
#3040000
0+
#3045000
1*
b10001011 (
b10001011 2
b10001100 )
b10001101 N
b100011110 S
1+
#3050000
0+
#3055000
b10001110 N
b100011 B
1$
b10001011 %
b10001011 J
0*
b10001101 )
b100011111 S
1+
#3060000
0+
#3065000
b100011 .
b10001110 )
b10001111 N
0$
b100100000 S
1+
#3070000
0+
#3075000
b10010000 N
b10001111 )
b100100001 S
1+
#3080000
0+
#3085000
1*
b10001111 (
b10001111 2
b10010000 )
b10010001 N
b100100010 S
1+
#3090000
0+
