iverilog_demo/tb_latency_buffer.vcd
$date
	Thu Jun 18 19:31:05 2026
$end
$version
	Icarus Verilog
$end
$timescale
	1ps
$end
$scope module tb_latency_buffer $end
$var wire 1 ! valid_out $end
$var wire 32 " data_out [31:0] $end
$var real 1 # CLK_PERIOD $end
$var parameter 32 $ DATA_WIDTH $end
$var parameter 32 % LATENCY $end
$var reg 1 & clk $end
$var reg 32 ' data_in [31:0] $end
$var reg 32 ( expected [31:0] $end
$var reg 1 ) reset_n $end
$var reg 1 * saw_valid $end
$var reg 1 + valid_in $end
$var integer 32 , fail_count [31:0] $end
$var integer 32 - first_valid_cycle [31:0] $end
$var integer 32 . i [31:0] $end
$var integer 32 / pass_count [31:0] $end
$var integer 32 0 test_num [31:0] $end
$var integer 32 1 valid_output_count [31:0] $end
$scope module uut $end
$var wire 1 & clk $end
$var wire 32 2 data_in [31:0] $end
$var wire 32 3 data_out [31:0] $end
$var wire 1 ) reset_n $end
$var wire 1 + valid_in $end
$var wire 1 ! valid_out $end
$var parameter 32 4 ADDR_WIDTH $end
$var parameter 32 5 DATA_WIDTH $end
$var parameter 32 6 LATENCY $end
$var reg 1 7 buffer_has_data $end
$var reg 32 8 data_out_reg [31:0] $end
$var reg 12 9 delay_counter [11:0] $end
$var reg 12 : read_ptr [11:0] $end
$var reg 1 ; valid_out_pipe $end
$var reg 1 < valid_out_reg $end
$var reg 12 = write_ptr [11:0] $end
$var integer 32 > k [31:0] $end
$upscope $end
$scope begin data_check_block $end
$var reg 1 ? all_match $end
$var integer 32 @ match_count [31:0] $end
$var integer 32 A out_idx [31:0] $end
$scope begin find_idx $end
$var integer 32 B j [31:0] $end
$upscope $end
$upscope $end
$scope begin intermittent_block $end
$var integer 32 C valid_in_count [31:0] $end
$upscope $end
$scope begin wrap_block $end
$var reg 1 D wrap_all_match $end
$var integer 32 E total_samples [31:0] $end
$var integer 32 F wrap_match_count [31:0] $end
$var integer 32 G wrap_out_idx [31:0] $end
$scope begin find_wrap_idx $end
$var integer 32 H j [31:0] $end
$upscope $end
$upscope $end
$scope task check $end
$var reg 1 I cond $end
$var reg 512 J label [511:0] $end
$upscope $end
$scope task do_reset $end
$upscope $end
$upscope $end
$enddefinitions $end
$comment Show the parameter values. $end
$dumpall
b10001 6
b100000 5
b1100 4
b10001 %
b100000 $
r10 #
$end
#0
$dumpvars
bx J
xI
bx H
bx G
bx F
bx E
xD
bx C
bx B
bx A
bx @
x?
b1000000000000 >
b0 =
0<
0;
b0 :
b0 9
bx 8
07
bx 3
b0 2
bx 1
b0 0
b0 /
bx .
bx -
b0 ,
0+
x*
0)
bx (
b0 '
0&
bx "
0!
$end
#5000
b0 "
b0 3
b0 8
1&
#10000
0&
#15000
1&
#20000
0&
#25000
1&
#30000
0&
#35000
1&
#36000
b10 /
b10 0
b1100100011000010111010001100001010111110110111101110101011101000010000000111101001000000011000000100000011001000111010101110010011010010110111001100111001000000111001001100101011100110110010101110100 J
1I
#40000
0&
#45000
1&
#50000
0&
#55000
1&
#60000
0&
#65000
1&
#70000
0&
#75000
1)
1&
#80000
0&
#85000
1&
#86000
1+
b1 '
b1 2
b0 .
0*
#90000
0&
#95000
b1 9
b1 =
1&
#96000
b10 '
b10 2
b1 .
#100000
0&
#105000
b10 9
b10 =
b1 "
b1 3
b1 8
1&
#106000
b11 '
b11 2
b10 .
#110000
0&
#115000
b11 9
b11 =
1&
#116000
b100 '
b100 2
b11 .
#120000
0&
#125000
b100 9
b100 =
1&
#126000
b101 '
b101 2
b100 .
#130000
0&
#135000
b101 9
b101 =
1&
#136000
b110 '
b110 2
b101 .
#140000
0&
#145000
b110 9
b110 =
1&
#146000
b111 '
b111 2
b110 .
#150000
0&
#155000
b111 9
b111 =
1&
#156000
b1000 '
b1000 2
b111 .
#160000
0&
#165000
b1000 9
b1000 =
1&
#166000
b1001 '
b1001 2
b1000 .
#170000
0&
#175000
b1001 9
b1001 =
1&
#176000
b1010 '
b1010 2
b1001 .
#180000
0&
#185000
b1010 9
b1010 =
1&
#186000
b1011 '
b1011 2
b1010 .
#190000
0&
#195000
b1011 9
b1011 =
1&
#196000
b1100 '
b1100 2
b1011 .
#200000
0&
#205000
b1100 9
b1100 =
1&
#206000
b1101 '
b1101 2
b1100 .
#210000
0&
#215000
b1101 9
b1101 =
1&
#216000
b1110 '
b1110 2
b1101 .
#220000
0&
#225000
b1110 9
b1110 =
1&
#226000
b1111 '
b1111 2
b1110 .
#230000
0&
#235000
b1111 9
b1111 =
1&
#236000
b10000 '
b10000 2
b1111 .
#240000
0&
#245000
b10000 9
b10000 =
1&
#246000
b10001 '
b10001 2
b10000 .
#250000
0&
#255000
17
b10001 9
b10001 =
1&
#256000
07
b0 9
b0 =
b0 '
b0 2
0+
0)
b11 /
b11 0
b100111001101111001000000111011001100001011011000110100101100100001000000110111101110101011101000111000001110101011101000010000001100100011101010111001001101001011011100110011100100000011001100110100101110010011100110111010000100000010011000100000101010100010001010100111001000011010110010010000001101001011011100111000001110101011101000010000001110011011000010110110101110000011011000110010101110011 J
b10001 .
#260000
0&
#265000
1&
#270000
0&
#275000
1&
#280000
0&
#285000
1&
#290000
0&
#295000
1)
1&
#300000
0&
#305000
1&
#306000
1+
b1 '
b1 2
b0 .
b11111111111111111111111111111111 -
b0 1
#310000
0&
#315000
b1 9
b1 =
1&
#316000
b10 '
b10 2
b1 .
#320000
0&
#325000
b10 9
b10 =
1&
#326000
b11 '
b11 2
b10 .
#330000
0&
#335000
b11 9
b11 =
1&
#336000
b100 '
b100 2
b11 .
#340000
0&
#345000
b100 9
b100 =
1&
#346000
b101 '
b101 2
b100 .
#350000
0&
#355000
b101 9
b101 =
1&
#356000
b110 '
b110 2
b101 .
#360000
0&
#365000
b110 9
b110 =
1&
#366000
b111 '
b111 2
b110 .
#370000
0&
#375000
b111 9
b111 =
1&
#376000
b1000 '
b1000 2
b111 .
#380000
0&
#385000
b1000 9
b1000 =
1&
#386000
b1001 '
b1001 2
b1000 .
#390000
0&
#395000
b1001 9
b1001 =
1&
#396000
b1010 '
b1010 2
b1001 .
#400000
0&
#405000
b1010 9
b1010 =
1&
#406000
b1011 '
b1011 2
b1010 .
#410000
0&
#415000
b1011 9
b1011 =
1&
#416000
b1100 '
b1100 2
b1011 .
#420000
0&
#425000
b1100 9
b1100 =
1&
#426000
b1101 '
b1101 2
b1100 .
#430000
0&
#435000
b1101 9
b1101 =
1&
#436000
b1110 '
b1110 2
b1101 .
#440000
0&
#445000
b1110 9
b1110 =
1&
#446000
b1111 '
b1111 2
b1110 .
#450000
0&
#455000
b1111 9
b1111 =
1&
#456000
b10000 '
b10000 2
b1111 .
#460000
0&
#465000
b10000 9
b10000 =
1&
#466000
b10001 '
b10001 2
b10000 .
#470000
0&
#475000
17
b10001 9
b10001 =
1&
#476000
b10010 '
b10010 2
b10001 .
#480000
0&
#485000
1<
b10010 =
1&
#486000
b10011 '
b10011 2
b10010 .
#490000
0&
#495000
1!
1;
b1 :
b10011 =
1<
1&
#496000
b10100 '
b10100 2
b10011 .
b1 1
b10010 -
#500000
0&
#505000
b10 :
b10100 =
1<
b10 "
b10 3
b10 8
1&
#506000
b10101 '
b10101 2
b10100 .
b10 1
#510000
0&
#515000
b11 :
b10101 =
1<
b11 "
b11 3
b11 8
1&
#516000
b10110 '
b10110 2
b10101 .
b11 1
#520000
0&
#525000
b100 :
b10110 =
1<
b100 "
b100 3
b100 8
1&
#526000
b10111 '
b10111 2
b10110 .
b100 1
#530000
0&
#535000
b101 :
b10111 =
1<
b101 "
b101 3
b101 8
1&
#536000
b11000 '
b11000 2
b10111 .
b101 1
#540000
0&
#545000
b110 :
b11000 =
1<
b110 "
b110 3
b110 8
1&
#546000
b11001 '
b11001 2
b11000 .
b110 1
#550000
0&
#555000
b111 :
b11001 =
1<
b111 "
b111 3
b111 8
1&
#556000
b11010 '
b11010 2
b11001 .
b111 1
#560000
0&
#565000
b1000 :
b11010 =
1<
b1000 "
b1000 3
b1000 8
1&
#566000
b11011 '
b11011 2
b11010 .
b1000 1
#570000
0&
#575000
b1001 :
b11011 =
1<
b1001 "
b1001 3
b1001 8
1&
#576000
b11100 '
b11100 2
b11011 .
b1001 1
#580000
0&
#585000
b1010 :
b11100 =
1<
b1010 "
b1010 3
b1010 8
1&
#586000
b11101 '
b11101 2
b11100 .
b1010 1
#590000
0&
#595000
b1011 :
b11101 =
1<
b1011 "
b1011 3
b1011 8
1&
#596000
b11110 '
b11110 2
b11101 .
b1011 1
#600000
0&
#605000
b1100 :
b11110 =
1<
b1100 "
b1100 3
b1100 8
1&
#606000
b11111 '
b11111 2
b11110 .
b1100 1
#610000
0&
#615000
b1101 :
b11111 =
1<
b1101 "
b1101 3
b1101 8
1&
#616000
b100000 '
b100000 2
b11111 .
b1101 1
#620000
0&
#625000
b1110 :
b100000 =
1<
b1110 "
b1110 3
b1110 8
1&
#626000
b100001 '
b100001 2
b100000 .
b1110 1
#630000
0&
#635000
b1111 :
b100001 =
1<
b1111 "
b1111 3
b1111 8
1&
#636000
b100010 '
b100010 2
b100001 .
b1111 1
#640000
0&
#645000
b10000 :
b100010 =
1<
b10000 "
b10000 3
b10000 8
1&
#646000
b100011 '
b100011 2
b100010 .
b10000 1
#650000
0&
#655000
b10001 :
b100011 =
1<
b10001 "
b10001 3
b10001 8
1&
#656000
b100100 '
b100100 2
b100011 .
b10001 1
#660000
0&
#665000
b10010 :
b100100 =
1<
b10010 "
b10010 3
b10010 8
1&
#666000
b100101 '
b100101 2
b100100 .
b10010 1
#670000
0&
#675000
b10011 :
b100101 =
1<
b10011 "
b10011 3
b10011 8
1&
#676000
07
b0 9
0<
b0 :
b0 =
0!
0;
b0 '
b0 2
0+
0)
b100 /
b100 0
b1110011011101000010000001110110011000010110110001101001011001000010000001101111011101010111010001110000011101010111010000100000011000010111000001110000011001010110000101110010011100110010000001100001011101000010000001110011011000010110110101110000011011000110010100100000010011000100000101010100010001010100111001000011010110010010101100110001001000000010100001000010010100100100000101001101001000000111001001100101011000010110010000100000011100000110100101110000011001010110110001101001011011100110010100101001 J
b100101 .
b10011 1
#680000
0&
#685000
b1 "
b1 3
b1 8
1&
#690000
0&
#695000
1&
#700000
0&
#705000
1&
#710000
0&
#715000
1)
1&
#720000
0&
#725000
1&
#726000
1+
b1100100 '
b1100100 2
b0 .
b0 A
b0 @
1?
#730000
0&
#735000
b1 9
b1 =
1&
#736000
b1100101 '
b1100101 2
b1 .
#740000
0&
#745000
b10 9
b10 =
b1100100 "
b1100100 3
b1100100 8
1&
#746000
b1100110 '
b1100110 2
b10 .
#750000
0&
#755000
b11 9
b11 =
1&
#756000
b1100111 '
b1100111 2
b11 .
#760000
0&
#765000
b100 9
b100 =
1&
#766000
b1101000 '
b1101000 2
b100 .
#770000
0&
#775000
b101 9
b101 =
1&
#776000
b1101001 '
b1101001 2
b101 .
#780000
0&
#785000
b110 9
b110 =
1&
#786000
b1101010 '
b1101010 2
b110 .
#790000
0&
#795000
b111 9
b111 =
1&
#796000
b1101011 '
b1101011 2
b111 .
#800000
0&
#805000
b1000 9
b1000 =
1&
#806000
b1101100 '
b1101100 2
b1000 .
#810000
0&
#815000
b1001 9
b1001 =
1&
#816000
b1101101 '
b1101101 2
b1001 .
#820000
0&
#825000
b1010 9
b1010 =
1&
#826000
b1101110 '
b1101110 2
b1010 .
#830000
0&
#835000
b1011 9
b1011 =
1&
#836000
b1101111 '
b1101111 2
b1011 .
#840000
0&
#845000
b1100 9
b1100 =
1&
#846000
b1110000 '
b1110000 2
b1100 .
#850000
0&
#855000
b1101 9
b1101 =
1&
#856000
b1110001 '
b1110001 2
b1101 .
#860000
0&
#865000
b1110 9
b1110 =
1&
#866000
b1110010 '
b1110010 2
b1110 .
#870000
0&
#875000
b1111 9
b1111 =
1&
#876000
b1110011 '
b1110011 2
b1111 .
#880000
0&
#885000
b10000 9
b10000 =
1&
#886000
b1110100 '
b1110100 2
b10000 .
#890000
0&
#895000
17
b10001 9
b10001 =
1&
#896000
b1110101 '
b1110101 2
b10001 .
#900000
0&
#905000
1<
b10010 =
1&
#906000
b1110110 '
b1110110 2
b10010 .
#910000
0&
#915000
b1 :
b10011 =
1<
1!
1;
1&
#916000
b1110111 '
b1110111 2
b10011 .
b1 A
b1 @
b1100100 (
#920000
0&
#925000
b10 :
b10100 =
1<
b1100101 "
b1100101 3
b1100101 8
1&
#926000
b1111000 '
b1111000 2
b10100 .
b10 A
b10 @
b1100101 (
#930000
0&
#935000
b11 :
b10101 =
1<
b1100110 "
b1100110 3
b1100110 8
1&
#936000
b1111001 '
b1111001 2
b10101 .
b11 A
b11 @
b1100110 (
#940000
0&
#945000
b100 :
b10110 =
1<
b1100111 "
b1100111 3
b1100111 8
1&
#946000
b1111010 '
b1111010 2
b10110 .
b100 A
b100 @
b1100111 (
#950000
0&
#955000
b101 :
b10111 =
1<
b1101000 "
b1101000 3
b1101000 8
1&
#956000
b1111011 '
b1111011 2
b10111 .
b101 A
b101 @
b1101000 (
#960000
0&
#965000
b110 :
b11000 =
1<
b1101001 "
b1101001 3
b1101001 8
1&
#966000
b1111100 '
b1111100 2
b11000 .
b110 A
b110 @
b1101001 (
#970000
0&
#975000
b111 :
b11001 =
1<
b1101010 "
b1101010 3
b1101010 8
1&
#976000
b1111101 '
b1111101 2
b11001 .
b111 A
b111 @
b1101010 (
#980000
0&
#985000
b1000 :
b11010 =
1<
b1101011 "
b1101011 3
b1101011 8
1&
#986000
b1111110 '
b1111110 2
b11010 .
b1000 A
b1000 @
b1101011 (
#990000
0&
#995000
b1001 :
b11011 =
1<
b1101100 "
b1101100 3
b1101100 8
1&
#996000
b1111111 '
b1111111 2
b11011 .
b1001 A
b1001 @
b1101100 (
#1000000
0&
#1005000
b1010 :
b11100 =
1<
b1101101 "
b1101101 3
b1101101 8
1&
#1006000
b10000000 '
b10000000 2
b11100 .
b1010 A
b1010 @
b1101101 (
#1010000
0&
#1015000
b1011 :
b11101 =
1<
b1101110 "
b1101110 3
b1101110 8
1&
#1016000
b10000001 '
b10000001 2
b11101 .
b1011 A
b1011 @
b1101110 (
#1020000
0&
#1025000
b1100 :
b11110 =
1<
b1101111 "
b1101111 3
b1101111 8
1&
#1026000
b10000010 '
b10000010 2
b11110 .
b1100 A
b1100 @
b1101111 (
#1030000
0&
#1035000
b1101 :
b11111 =
1<
b1110000 "
b1110000 3
b1110000 8
1&
#1036000
b10000011 '
b10000011 2
b11111 .
b1101 A
b1101 @
b1110000 (
#1040000
0&
#1045000
b1110 :
b100000 =
1<
b1110001 "
b1110001 3
b1110001 8
1&
#1046000
b10000100 '
b10000100 2
b100000 .
b1110 A
b1110 @
b1110001 (
#1050000
0&
#1055000
b1111 :
b100001 =
1<
b1110010 "
b1110010 3
b1110010 8
1&
#1056000
b10000101 '
b10000101 2
b100001 .
b1111 A
b1111 @
b1110010 (
#1060000
0&
#1065000
b10000 :
b100010 =
1<
b1110011 "
b1110011 3
b1110011 8
1&
#1066000
b10000110 '
b10000110 2
b100010 .
b10000 A
b10000 @
b1110011 (
#1070000
0&
#1075000
b10001 :
b100011 =
1<
b1110100 "
b1110100 3
b1110100 8
1&
#1076000
b10000111 '
b10000111 2
b100011 .
b10001 A
b10001 @
b1110100 (
#1080000
0&
#1085000
b10010 :
b100100 =
1<
b1110101 "
b1110101 3
b1110101 8
1&
#1086000
b10001000 '
b10001000 2
b100100 .
b10010 A
b10010 @
b1110101 (
#1090000
0&
#1095000
b10011 :
b100101 =
1<
b1110110 "
b1110110 3
b1110110 8
1&
#1096000
b10001001 '
b10001001 2
b100101 .
b10011 A
b10011 @
b1110110 (
#1100000
0&
#1105000
b10100 :
b100110 =
1<
b1110111 "
b1110111 3
b1110111 8
1&
#1106000
b10001010 '
b10001010 2
b100110 .
b10100 A
b10100 @
b1110111 (
#1110000
0&
#1115000
b10101 :
b100111 =
1<
b1111000 "
b1111000 3
b1111000 8
1&
#1116000
b10001011 '
b10001011 2
b100111 .
b10101 A
b10101 @
b1111000 (
#1120000
0&
#1125000
b10110 :
b101000 =
1<
b1111001 "
b1111001 3
b1111001 8
1&
#1126000
b10001100 '
b10001100 2
b101000 .
b10110 A
b10110 @
b1111001 (
#1130000
0&
#1135000
b10111 :
b101001 =
1<
b1111010 "
b1111010 3
b1111010 8
1&
#1136000
b10001101 '
b10001101 2
b101001 .
b10111 A
b10111 @
b1111010 (
#1140000
0&
#1145000
b11000 :
b101010 =
1<
b1111011 "
b1111011 3
b1111011 8
1&
#1146000
b10001110 '
b10001110 2
b101010 .
b11000 A
b11000 @
b1111011 (
#1150000
0&
#1155000
b11001 :
b101011 =
1<
b1111100 "
b1111100 3
b1111100 8
1&
#1156000
b10001111 '
b10001111 2
b101011 .
b11001 A
b11001 @
b1111100 (
#1160000
0&
#1165000
b11010 :
b101100 =
1<
b1111101 "
b1111101 3
b1111101 8
1&
#1166000
b10010000 '
b10010000 2
b101100 .
b11010 A
b11010 @
b1111101 (
#1170000
0&
#1175000
b11011 :
b101101 =
1<
b1111110 "
b1111110 3
b1111110 8
1&
#1176000
b10010001 '
b10010001 2
b101101 .
b11011 A
b11011 @
b1111110 (
#1180000
0&
#1185000
b11100 :
b101110 =
1<
b1111111 "
b1111111 3
b1111111 8
1&
#1186000
b10010010 '
b10010010 2
b101110 .
b11100 A
b11100 @
b1111111 (
#1190000
0&
#1195000
b11101 :
b101111 =
1<
b10000000 "
b10000000 3
b10000000 8
1&
#1196000
b10010011 '
b10010011 2
b101111 .
b11101 A
b11101 @
b10000000 (
#1200000
0&
#1205000
b11110 :
b110000 =
1<
b10000001 "
b10000001 3
b10000001 8
1&
#1206000
b10010100 '
b10010100 2
b110000 .
b11110 A
b11110 @
b10000001 (
#1210000
0&
#1215000
b11111 :
b110001 =
1<
b10000010 "
b10000010 3
b10000010 8
1&
#1216000
b10010101 '
b10010101 2
b110001 .
b11111 A
b11111 @
b10000010 (
#1220000
0&
#1225000
b100000 :
b110010 =
1<
b10000011 "
b10000011 3
b10000011 8
1&
#1226000
b10010110 '
b10010110 2
b110010 .
b100000 A
b100000 @
b10000011 (
#1230000
0&
#1235000
b100001 :
b110011 =
1<
b10000100 "
b10000100 3
b10000100 8
1&
#1236000
b10010111 '
b10010111 2
b110011 .
b100001 A
b100001 @
b10000100 (
#1240000
0&
#1245000
b100010 :
b110100 =
1<
b10000101 "
b10000101 3
b10000101 8
1&
#1246000
b10011000 '
b10011000 2
b110100 .
b100010 A
b100010 @
b10000101 (
#1250000
0&
#1255000
b100011 :
b110101 =
1<
b10000110 "
b10000110 3
b10000110 8
1&
#1256000
b10011001 '
b10011001 2
b110101 .
b100011 A
b100011 @
b10000110 (
#1260000
0&
#1265000
b100100 :
b110110 =
1<
b10000111 "
b10000111 3
b10000111 8
1&
#1266000
b10011010 '
b10011010 2
b110110 .
b100100 A
b100100 @
b10000111 (
#1270000
0&
#1275000
b100101 :
b110111 =
1<
b10001000 "
b10001000 3
b10001000 8
1&
#1276000
b10011011 '
b10011011 2
b110111 .
b100101 A
b100101 @
b10001000 (
#1280000
0&
#1285000
b100110 :
b111000 =
1<
b10001001 "
b10001001 3
b10001001 8
1&
#1286000
b10011100 '
b10011100 2
b111000 .
b100110 A
b100110 @
b10001001 (
#1290000
0&
#1295000
b100111 :
b111001 =
1<
b10001010 "
b10001010 3
b10001010 8
1&
#1296000
b10011101 '
b10011101 2
b111001 .
b100111 A
b100111 @
b10001010 (
#1300000
0&
#1305000
b101000 :
b111010 =
1<
b10001011 "
b10001011 3
b10001011 8
1&
#1306000
b10011110 '
b10011110 2
b111010 .
b101000 A
b101000 @
b10001011 (
#1310000
0&
#1315000
b101001 :
b111011 =
1<
b10001100 "
b10001100 3
b10001100 8
1&
#1316000
b10011111 '
b10011111 2
b111011 .
b101001 A
b101001 @
b10001100 (
#1320000
0&
#1325000
b101010 :
b111100 =
1<
b10001101 "
b10001101 3
b10001101 8
1&
#1326000
b10100000 '
b10100000 2
b111100 .
b101010 A
b101010 @
b10001101 (
#1330000
0&
#1335000
b101011 :
b111101 =
1<
b10001110 "
b10001110 3
b10001110 8
1&
#1336000
b10100001 '
b10100001 2
b111101 .
b101011 A
b101011 @
b10001110 (
#1340000
0&
#1345000
b101100 :
b111110 =
1<
b10001111 "
b10001111 3
b10001111 8
1&
#1346000
b10100010 '
b10100010 2
b111110 .
b101100 A
b101100 @
b10001111 (
#1350000
0&
#1355000
b101101 :
b111111 =
1<
b10010000 "
b10010000 3
b10010000 8
1&
#1356000
b10100011 '
b10100011 2
b111111 .
b101101 A
b101101 @
b10010000 (
#1360000
0&
#1365000
b101110 :
b1000000 =
1<
b10010001 "
b10010001 3
b10010001 8
1&
#1366000
b10100100 '
b10100100 2
b1000000 .
b101110 A
b101110 @
b10010001 (
#1370000
0&
#1375000
b101111 :
b1000001 =
1<
b10010010 "
b10010010 3
b10010010 8
1&
#1376000
b10100101 '
b10100101 2
b1000001 .
b101111 A
b101111 @
b10010010 (
#1380000
0&
#1385000
b110000 :
b1000010 =
1<
b10010011 "
b10010011 3
b10010011 8
1&
#1386000
b10100110 '
b10100110 2
b1000010 .
b110000 A
b110000 @
b10010011 (
#1390000
0&
#1395000
b110001 :
b1000011 =
1<
b10010100 "
b10010100 3
b10010100 8
1&
#1396000
b10100111 '
b10100111 2
b1000011 .
b110001 A
b110001 @
b10010100 (
#1400000
0&
#1405000
b110010 :
b1000100 =
1<
b10010101 "
b10010101 3
b10010101 8
1&
#1406000
b10101000 '
b10101000 2
b1000100 .
b110010 A
b110010 @
b10010101 (
#1410000
0&
#1415000
b110011 :
b1000101 =
1<
b10010110 "
b10010110 3
b10010110 8
1&
#1416000
b10101001 '
b10101001 2
b1000101 .
b110011 A
b110011 @
b10010110 (
#1420000
0&
#1425000
b110100 :
b1000110 =
1<
b10010111 "
b10010111 3
b10010111 8
1&
#1426000
b10101010 '
b10101010 2
b1000110 .
b110100 A
b110100 @
b10010111 (
#1430000
0&
#1435000
b110101 :
b1000111 =
1<
b10011000 "
b10011000 3
b10011000 8
1&
#1436000
b10101011 '
b10101011 2
b1000111 .
b110101 A
b110101 @
b10011000 (
#1440000
0&
#1445000
b110110 :
b1001000 =
1<
b10011001 "
b10011001 3
b10011001 8
1&
#1446000
b10101100 '
b10101100 2
b1001000 .
b110110 A
b110110 @
b10011001 (
#1450000
0&
#1455000
b110111 :
b1001001 =
1<
b10011010 "
b10011010 3
b10011010 8
1&
#1456000
b10101101 '
b10101101 2
b1001001 .
b110111 A
b110111 @
b10011010 (
#1460000
0&
#1465000
b111000 :
b1001010 =
1<
b10011011 "
b10011011 3
b10011011 8
1&
#1466000
b10101110 '
b10101110 2
b1001010 .
b111000 A
b111000 @
b10011011 (
#1470000
0&
#1475000
b111001 :
b1001011 =
1<
b10011100 "
b10011100 3
b10011100 8
1&
#1476000
b10101111 '
b10101111 2
b1001011 .
b111001 A
b111001 @
b10011100 (
#1480000
0&
#1485000
b111010 :
b1001100 =
1<
b10011101 "
b10011101 3
b10011101 8
1&
#1486000
b10110000 '
b10110000 2
b1001100 .
b111010 A
b111010 @
b10011101 (
#1490000
0&
#1495000
b111011 :
b1001101 =
1<
b10011110 "
b10011110 3
b10011110 8
1&
#1496000
b10110001 '
b10110001 2
b1001101 .
b111011 A
b111011 @
b10011110 (
#1500000
0&
#1505000
b111100 :
b1001110 =
1<
b10011111 "
b10011111 3
b10011111 8
1&
#1506000
b10110010 '
b10110010 2
b1001110 .
b111100 A
b111100 @
b10011111 (
#1510000
0&
#1515000
b111101 :
b1001111 =
1<
b10100000 "
b10100000 3
b10100000 8
1&
#1516000
b10110011 '
b10110011 2
b1001111 .
b111101 A
b111101 @
b10100000 (
#1520000
0&
#1525000
b111110 :
b1010000 =
1<
b10100001 "
b10100001 3
b10100001 8
1&
#1526000
b10110100 '
b10110100 2
b1010000 .
b111110 A
b111110 @
b10100001 (
#1530000
0&
#1535000
b111111 :
b1010001 =
1<
b10100010 "
b10100010 3
b10100010 8
1&
#1536000
b10110101 '
b10110101 2
b1010001 .
b111111 A
b111111 @
b10100010 (
#1540000
0&
#1545000
b1000000 :
b1010010 =
1<
b10100011 "
b10100011 3
b10100011 8
1&
#1546000
b10110110 '
b10110110 2
b1010010 .
b1000000 A
b1000000 @
b10100011 (
#1550000
0&
#1555000
b1000001 :
b1010011 =
1<
b10100100 "
b10100100 3
b10100100 8
1&
#1556000
b10110111 '
b10110111 2
b1010011 .
b1000001 A
b1000001 @
b10100100 (
#1560000
0&
#1565000
b1000010 :
b1010100 =
1<
b10100101 "
b10100101 3
b10100101 8
1&
#1566000
b10111000 '
b10111000 2
b1010100 .
b1000010 A
b1000010 @
b10100101 (
#1570000
0&
#1575000
b1000011 :
b1010101 =
1<
b10100110 "
b10100110 3
b10100110 8
1&
#1576000
b10111001 '
b10111001 2
b1010101 .
b1000011 A
b1000011 @
b10100110 (
#1580000
0&
#1585000
b1000100 :
b1010110 =
1<
b10100111 "
b10100111 3
b10100111 8
1&
#1586000
b10111010 '
b10111010 2
b1010110 .
b1000100 A
b1000100 @
b10100111 (
#1590000
0&
#1595000
b1000101 :
b1010111 =
1<
b10101000 "
b10101000 3
b10101000 8
1&
#1596000
b10111011 '
b10111011 2
b1010111 .
b1000101 A
b1000101 @
b10101000 (
#1600000
0&
#1605000
b1000110 :
b1011000 =
1<
b10101001 "
b10101001 3
b10101001 8
1&
#1606000
b10111100 '
b10111100 2
b1011000 .
b1000110 A
b1000110 @
b10101001 (
#1610000
0&
#1615000
b1000111 :
b1011001 =
1<
b10101010 "
b10101010 3
b10101010 8
1&
#1616000
b10111101 '
b10111101 2
b1011001 .
b1000111 A
b1000111 @
b10101010 (
#1620000
0&
#1625000
b1001000 :
b1011010 =
1<
b10101011 "
b10101011 3
b10101011 8
1&
#1626000
b10111110 '
b10111110 2
b1011010 .
b1001000 A
b1001000 @
b10101011 (
#1630000
0&
#1635000
b1001001 :
b1011011 =
1<
b10101100 "
b10101100 3
b10101100 8
1&
#1636000
b10111111 '
b10111111 2
b1011011 .
b1001001 A
b1001001 @
b10101100 (
#1640000
0&
#1645000
b1001010 :
b1011100 =
1<
b10101101 "
b10101101 3
b10101101 8
1&
#1646000
b11000000 '
b11000000 2
b1011100 .
b1001010 A
b1001010 @
b10101101 (
#1650000
0&
#1655000
b1001011 :
b1011101 =
1<
b10101110 "
b10101110 3
b10101110 8
1&
#1656000
b11000001 '
b11000001 2
b1011101 .
b1001011 A
b1001011 @
b10101110 (
#1660000
0&
#1665000
b1001100 :
b1011110 =
1<
b10101111 "
b10101111 3
b10101111 8
1&
#1666000
b11000010 '
b11000010 2
b1011110 .
b1001100 A
b1001100 @
b10101111 (
#1670000
0&
#1675000
b1001101 :
b1011111 =
1<
b10110000 "
b10110000 3
b10110000 8
1&
#1676000
b11000011 '
b11000011 2
b1011111 .
b1001101 A
b1001101 @
b10110000 (
#1680000
0&
#1685000
b1001110 :
b1100000 =
1<
b10110001 "
b10110001 3
b10110001 8
1&
#1686000
b11000100 '
b11000100 2
b1100000 .
b1001110 A
b1001110 @
b10110001 (
#1690000
0&
#1695000
b1001111 :
b1100001 =
1<
b10110010 "
b10110010 3
b10110010 8
1&
#1696000
b11000101 '
b11000101 2
b1100001 .
b1001111 A
b1001111 @
b10110010 (
#1700000
0&
#1705000
b1010000 :
b1100010 =
1<
b10110011 "
b10110011 3
b10110011 8
1&
#1706000
b11000110 '
b11000110 2
b1100010 .
b1010000 A
b1010000 @
b10110011 (
#1710000
0&
#1715000
b1010001 :
b1100011 =
1<
b10110100 "
b10110100 3
b10110100 8
1&
#1716000
b11000111 '
b11000111 2
b1100011 .
b1010001 A
b1010001 @
b10110100 (
#1720000
0&
#1725000
b1010010 :
b1100100 =
1<
b10110101 "
b10110101 3
b10110101 8
1&
#1726000
b11001000 '
b11001000 2
b1100100 .
b1010010 A
b1010010 @
b10110101 (
#1730000
0&
#1735000
b1010011 :
b1100101 =
1<
b10110110 "
b10110110 3
b10110110 8
1&
#1736000
b11001001 '
b11001001 2
b1100101 .
b1010011 A
b1010011 @
b10110110 (
#1740000
0&
#1745000
b1010100 :
b1100110 =
1<
b10110111 "
b10110111 3
b10110111 8
1&
#1746000
b11001010 '
b11001010 2
b1100110 .
b1010100 A
b1010100 @
b10110111 (
#1750000
0&
#1755000
b1010101 :
b1100111 =
1<
b10111000 "
b10111000 3
b10111000 8
1&
#1756000
b11001011 '
b11001011 2
b1100111 .
b1010101 A
b1010101 @
b10111000 (
#1760000
0&
#1765000
b1010110 :
b1101000 =
1<
b10111001 "
b10111001 3
b10111001 8
1&
#1766000
b11001100 '
b11001100 2
b1101000 .
b1010110 A
b1010110 @
b10111001 (
#1770000
0&
#1775000
b1010111 :
b1101001 =
1<
b10111010 "
b10111010 3
b10111010 8
1&
#1776000
b11001101 '
b11001101 2
b1101001 .
b1010111 A
b1010111 @
b10111010 (
#1780000
0&
#1785000
b1011000 :
b1101010 =
1<
b10111011 "
b10111011 3
b10111011 8
1&
#1786000
b11001110 '
b11001110 2
b1101010 .
b1011000 A
b1011000 @
b10111011 (
#1790000
0&
#1795000
b1011001 :
b1101011 =
1<
b10111100 "
b10111100 3
b10111100 8
1&
#1796000
b11001111 '
b11001111 2
b1101011 .
b1011001 A
b1011001 @
b10111100 (
#1800000
0&
#1805000
b1011010 :
b1101100 =
1<
b10111101 "
b10111101 3
b10111101 8
1&
#1806000
b11010000 '
b11010000 2
b1101100 .
b1011010 A
b1011010 @
b10111101 (
#1810000
0&
#1815000
b1011011 :
b1101101 =
1<
b10111110 "
b10111110 3
b10111110 8
1&
#1816000
b11010001 '
b11010001 2
b1101101 .
b1011011 A
b1011011 @
b10111110 (
#1820000
0&
