iverilog_demo/tb_mti_canceller.vcd
$date
	Thu Jun 18 19:31:08 2026
$end
$version
	Icarus Verilog
$end
$timescale
	1ps
$end
$scope module tb_mti_canceller $end
$var wire 1 ! range_valid_out $end
$var wire 16 " range_q_out [15:0] $end
$var wire 16 # range_i_out [15:0] $end
$var wire 6 $ range_bin_out [5:0] $end
$var wire 1 % mti_first_chirp $end
$var parameter 32 & CLK_PERIOD $end
$var parameter 32 ' DATA_W $end
$var parameter 32 ( NUM_BINS $end
$var reg 1 ) all_match $end
$var reg 1 * all_zero $end
$var reg 1 + clk $end
$var reg 1 , mti_enable $end
$var reg 6 - range_bin_in [5:0] $end
$var reg 16 . range_i_in [15:0] $end
$var reg 16 / range_q_in [15:0] $end
$var reg 1 0 range_valid_in $end
$var reg 1 1 reset_n $end
$var integer 32 2 cap_count [31:0] $end
$var integer 32 3 fail_count [31:0] $end
$var integer 32 4 i [31:0] $end
$var integer 32 5 pass_count [31:0] $end
$scope module dut $end
$var wire 1 + clk $end
$var wire 1 , mti_enable $end
$var wire 16 6 prev_i_rd [15:0] $end
$var wire 16 7 prev_q_rd [15:0] $end
$var wire 6 8 range_bin_in [5:0] $end
$var wire 16 9 range_i_in [15:0] $end
$var wire 16 : range_q_in [15:0] $end
$var wire 1 0 range_valid_in $end
$var wire 1 1 reset_n $end
$var wire 16 ; diff_q_sat [15:0] $end
$var wire 17 < diff_q_full [16:0] $end
$var wire 16 = diff_i_sat [15:0] $end
$var wire 17 > diff_i_full [16:0] $end
$var parameter 32 ? DATA_WIDTH $end
$var parameter 32 @ NUM_RANGE_BINS $end
$var reg 1 A has_previous $end
$var reg 1 % mti_first_chirp $end
$var reg 6 B range_bin_out [5:0] $end
$var reg 16 C range_i_out [15:0] $end
$var reg 16 D range_q_out [15:0] $end
$var reg 1 ! range_valid_out $end
$upscope $end
$scope begin t5_block $end
$var integer 32 E r [31:0] $end
$upscope $end
$scope begin t5_feed $end
$var integer 32 F r [31:0] $end
$upscope $end
$scope begin t5_feed2 $end
$var integer 32 G r [31:0] $end
$upscope $end
$scope task capture_chirp $end
$var integer 32 H timeout [31:0] $end
$upscope $end
$scope task check $end
$var reg 1 I condition $end
$var reg 256 J desc [255:0] $end
$var integer 32 K tnum [31:0] $end
$upscope $end
$scope task do_reset $end
$upscope $end
$scope task feed_chirp_const $end
$var reg 16 L i_val [15:0] $end
$var reg 16 M q_val [15:0] $end
$var integer 32 N r [31:0] $end
$upscope $end
$scope task feed_chirp_ramp $end
$var reg 16 O i_base [15:0] $end
$var reg 16 P i_step [15:0] $end
$var reg 16 Q q_val [15:0] $end
$var integer 32 R r [31:0] $end
$upscope $end
$scope task feed_sample $end
$var reg 6 S bin [5:0] $end
$var reg 16 T i_val [15:0] $end
$var reg 16 U q_val [15:0] $end
$upscope $end
$upscope $end
$enddefinitions $end
$comment Show the parameter values. $end
$dumpall
b1000000 @
b10000 ?
b1000000 (
b10000 '
b1010 &
$end
#0
$dumpvars
bx U
bx T
bx S
bx R
bx Q
bx P
bx O
bx N
bx M
bx L
bx K
bx J
xI
bx H
bx G
bx F
bx E
b0 D
b0 C
b0 B
0A
bx >
bx =
bx <
bx ;
b0 :
b0 9
b0 8
bx 7
bx 6
b0 5
bx 4
b0 3
bx 2
01
00
b0 /
b0 .
b0 -
x,
0+
x*
x)
1%
b0 $
b0 #
b0 "
0!
$end
#5000
1+
#10000
0+
#15000
1+
#20000
0+
#25000
1+
#30000
0+
#35000
1+
#40000
0+
#45000
11
1+
#50000
0+
#55000
1+
#60000
0+
#65000
b111110100 U
b1111101000 T
b0 S
b0 N
b111110100 M
b1111101000 L
b101100100 H
b0 2
0,
1+
#70000
0+
#75000
10
b111110100 /
b111110100 :
b1111101000 .
b1111101000 9
b101100011 H
1+
#80000
0+
#85000
b0 ;
b0 =
b0 <
b0 >
1!
b111110100 "
b111110100 D
b1111101000 #
b1111101000 C
b111110100 7
b1111101000 6
00
b1 S
b1 N
b101100010 H
1+
#90000
0+
#95000
bx =
bx ;
0!
bx >
bx 6
bx <
bx 7
b1 -
b1 8
10
b1 2
b101100001 H
1+
#100000
0+
#105000
b0 ;
b0 =
b0 <
b0 >
1!
b1 $
b1 B
b111110100 7
b1111101000 6
00
b10 S
b10 N
b101100000 H
1+
#110000
0+
#115000
bx =
bx ;
0!
bx >
bx 6
bx <
bx 7
b10 -
b10 8
10
b10 2
b101011111 H
1+
#120000
0+
#125000
b0 ;
b0 =
b0 <
b0 >
1!
b10 $
b10 B
b111110100 7
b1111101000 6
00
b11 S
b11 N
b101011110 H
1+
#130000
0+
#135000
bx =
bx ;
0!
bx >
bx 6
bx <
bx 7
b11 -
b11 8
10
b11 2
b101011101 H
1+
#140000
0+
#145000
b0 ;
b0 =
b0 <
b0 >
1!
b11 $
b11 B
b111110100 7
b1111101000 6
00
b100 S
b100 N
b101011100 H
1+
#150000
0+
#155000
bx =
bx ;
0!
bx >
bx 6
bx <
bx 7
b100 -
b100 8
10
b100 2
b101011011 H
1+
#160000
0+
#165000
b0 ;
b0 =
b0 <
b0 >
1!
b100 $
b100 B
b111110100 7
b1111101000 6
00
b101 S
b101 N
b101011010 H
1+
#170000
0+
#175000
bx =
bx ;
0!
bx >
bx 6
bx <
bx 7
b101 -
b101 8
10
b101 2
b101011001 H
1+
#180000
0+
#185000
b0 ;
b0 =
b0 <
b0 >
1!
b101 $
b101 B
b111110100 7
b1111101000 6
00
b110 S
b110 N
b101011000 H
1+
#190000
0+
#195000
bx =
bx ;
0!
bx >
bx 6
bx <
bx 7
b110 -
b110 8
10
b110 2
b101010111 H
1+
#200000
0+
#205000
b0 ;
b0 =
b0 <
b0 >
1!
b110 $
b110 B
b111110100 7
b1111101000 6
00
b111 S
b111 N
b101010110 H
1+
#210000
0+
#215000
bx =
bx ;
0!
bx >
bx 6
bx <
bx 7
b111 -
b111 8
10
b111 2
b101010101 H
1+
#220000
0+
#225000
b0 ;
b0 =
b0 <
b0 >
1!
b111 $
b111 B
b111110100 7
b1111101000 6
00
b1000 S
b1000 N
b101010100 H
1+
#230000
0+
#235000
bx =
bx ;
0!
bx >
bx 6
bx <
bx 7
b1000 -
b1000 8
10
b1000 2
b101010011 H
1+
#240000
0+
#245000
b0 ;
b0 =
b0 <
b0 >
1!
b1000 $
b1000 B
b111110100 7
b1111101000 6
00
b1001 S
b1001 N
b101010010 H
1+
#250000
0+
#255000
bx =
bx ;
0!
bx >
bx 6
bx <
bx 7
b1001 -
b1001 8
10
b1001 2
b101010001 H
1+
#260000
0+
#265000
b0 ;
b0 =
b0 <
b0 >
1!
b1001 $
b1001 B
b111110100 7
b1111101000 6
00
b1010 S
b1010 N
b101010000 H
1+
#270000
0+
#275000
bx =
bx ;
0!
bx >
bx 6
bx <
bx 7
b1010 -
b1010 8
10
b1010 2
b101001111 H
1+
#280000
0+
#285000
b0 ;
b0 =
b0 <
b0 >
1!
b1010 $
b1010 B
b111110100 7
b1111101000 6
00
b1011 S
b1011 N
b101001110 H
1+
#290000
0+
#295000
bx =
bx ;
0!
bx >
bx 6
bx <
bx 7
b1011 -
b1011 8
10
b1011 2
b101001101 H
1+
#300000
0+
#305000
b0 ;
b0 =
b0 <
b0 >
1!
b1011 $
b1011 B
b111110100 7
b1111101000 6
00
b1100 S
b1100 N
b101001100 H
1+
#310000
0+
#315000
bx =
bx ;
0!
bx >
bx 6
bx <
bx 7
b1100 -
b1100 8
10
b1100 2
b101001011 H
1+
#320000
0+
#325000
b0 ;
b0 =
b0 <
b0 >
1!
b1100 $
b1100 B
b111110100 7
b1111101000 6
00
b1101 S
b1101 N
b101001010 H
1+
#330000
0+
#335000
bx =
bx ;
0!
bx >
bx 6
bx <
bx 7
b1101 -
b1101 8
10
b1101 2
b101001001 H
1+
#340000
0+
#345000
b0 ;
b0 =
b0 <
b0 >
1!
b1101 $
b1101 B
b111110100 7
b1111101000 6
00
b1110 S
b1110 N
b101001000 H
1+
#350000
0+
#355000
bx =
bx ;
0!
bx >
bx 6
bx <
bx 7
b1110 -
b1110 8
10
b1110 2
b101000111 H
1+
#360000
0+
#365000
b0 ;
b0 =
b0 <
b0 >
1!
b1110 $
b1110 B
b111110100 7
b1111101000 6
00
b1111 S
b1111 N
b101000110 H
1+
#370000
0+
#375000
bx =
bx ;
0!
bx >
bx 6
bx <
bx 7
b1111 -
b1111 8
10
b1111 2
b101000101 H
1+
#380000
0+
#385000
b0 ;
b0 =
b0 <
b0 >
1!
b1111 $
b1111 B
b111110100 7
b1111101000 6
00
b10000 S
b10000 N
b101000100 H
1+
#390000
0+
#395000
bx =
bx ;
0!
bx >
bx 6
bx <
bx 7
b10000 -
b10000 8
10
b10000 2
b101000011 H
1+
#400000
0+
#405000
b0 ;
b0 =
b0 <
b0 >
1!
b10000 $
b10000 B
b111110100 7
b1111101000 6
00
b10001 S
b10001 N
b101000010 H
1+
#410000
0+
#415000
bx =
bx ;
0!
bx >
bx 6
bx <
bx 7
b10001 -
b10001 8
10
b10001 2
b101000001 H
1+
#420000
0+
#425000
b0 ;
b0 =
b0 <
b0 >
1!
b10001 $
b10001 B
b111110100 7
b1111101000 6
00
b10010 S
b10010 N
b101000000 H
1+
#430000
0+
#435000
bx =
bx ;
0!
bx >
bx 6
bx <
bx 7
b10010 -
b10010 8
10
b10010 2
b100111111 H
1+
#440000
0+
#445000
b0 ;
b0 =
b0 <
b0 >
1!
b10010 $
b10010 B
b111110100 7
b1111101000 6
00
b10011 S
b10011 N
b100111110 H
1+
#450000
0+
#455000
bx =
bx ;
0!
bx >
bx 6
bx <
bx 7
b10011 -
b10011 8
10
b10011 2
b100111101 H
1+
#460000
0+
#465000
b0 ;
b0 =
b0 <
b0 >
1!
b10011 $
b10011 B
b111110100 7
b1111101000 6
00
b10100 S
b10100 N
b100111100 H
1+
#470000
0+
#475000
bx =
bx ;
0!
bx >
bx 6
bx <
bx 7
b10100 -
b10100 8
10
b10100 2
b100111011 H
1+
#480000
0+
#485000
b0 ;
b0 =
b0 <
b0 >
1!
b10100 $
b10100 B
b111110100 7
b1111101000 6
00
b10101 S
b10101 N
b100111010 H
1+
#490000
0+
#495000
bx =
bx ;
0!
bx >
bx 6
bx <
bx 7
b10101 -
b10101 8
10
b10101 2
b100111001 H
1+
#500000
0+
#505000
b0 ;
b0 =
b0 <
b0 >
1!
b10101 $
b10101 B
b111110100 7
b1111101000 6
00
b10110 S
b10110 N
b100111000 H
1+
#510000
0+
#515000
bx =
bx ;
0!
bx >
bx 6
bx <
bx 7
b10110 -
b10110 8
10
b10110 2
b100110111 H
1+
#520000
0+
#525000
b0 ;
b0 =
b0 <
b0 >
1!
b10110 $
b10110 B
b111110100 7
b1111101000 6
00
b10111 S
b10111 N
b100110110 H
1+
#530000
0+
#535000
bx =
bx ;
0!
bx >
bx 6
bx <
bx 7
b10111 -
b10111 8
10
b10111 2
b100110101 H
1+
#540000
0+
#545000
b0 ;
b0 =
b0 <
b0 >
1!
b10111 $
b10111 B
b111110100 7
b1111101000 6
00
b11000 S
b11000 N
b100110100 H
1+
#550000
0+
#555000
bx =
bx ;
0!
bx >
bx 6
bx <
bx 7
b11000 -
b11000 8
10
b11000 2
b100110011 H
1+
#560000
0+
#565000
b0 ;
b0 =
b0 <
b0 >
1!
b11000 $
b11000 B
b111110100 7
b1111101000 6
00
b11001 S
b11001 N
b100110010 H
1+
#570000
0+
#575000
bx =
bx ;
0!
bx >
bx 6
bx <
bx 7
b11001 -
b11001 8
10
b11001 2
b100110001 H
1+
#580000
0+
#585000
b0 ;
b0 =
b0 <
b0 >
1!
b11001 $
b11001 B
b111110100 7
b1111101000 6
00
b11010 S
b11010 N
b100110000 H
1+
#590000
0+
#595000
bx =
bx ;
0!
bx >
bx 6
bx <
bx 7
b11010 -
b11010 8
10
b11010 2
b100101111 H
1+
#600000
0+
#605000
b0 ;
b0 =
b0 <
b0 >
1!
b11010 $
b11010 B
b111110100 7
b1111101000 6
00
b11011 S
b11011 N
b100101110 H
1+
#610000
0+
#615000
bx =
bx ;
0!
bx >
bx 6
bx <
bx 7
b11011 -
b11011 8
10
b11011 2
b100101101 H
1+
#620000
0+
#625000
b0 ;
b0 =
b0 <
b0 >
1!
b11011 $
b11011 B
b111110100 7
b1111101000 6
00
b11100 S
b11100 N
b100101100 H
1+
#630000
0+
#635000
bx =
bx ;
0!
bx >
bx 6
bx <
bx 7
b11100 -
b11100 8
10
b11100 2
b100101011 H
1+
#640000
0+
#645000
b0 ;
b0 =
b0 <
b0 >
1!
b11100 $
b11100 B
b111110100 7
b1111101000 6
00
b11101 S
b11101 N
b100101010 H
1+
#650000
0+
#655000
bx =
bx ;
0!
bx >
bx 6
bx <
bx 7
b11101 -
b11101 8
10
b11101 2
b100101001 H
1+
#660000
0+
#665000
b0 ;
b0 =
b0 <
b0 >
1!
b11101 $
b11101 B
b111110100 7
b1111101000 6
00
b11110 S
b11110 N
b100101000 H
1+
#670000
0+
#675000
bx =
bx ;
0!
bx >
bx 6
bx <
bx 7
b11110 -
b11110 8
10
b11110 2
b100100111 H
1+
#680000
0+
#685000
b0 ;
b0 =
b0 <
b0 >
1!
b11110 $
b11110 B
b111110100 7
b1111101000 6
00
b11111 S
b11111 N
b100100110 H
1+
#690000
0+
#695000
bx =
bx ;
0!
bx >
bx 6
bx <
bx 7
b11111 -
b11111 8
10
b11111 2
b100100101 H
1+
#700000
0+
#705000
b0 ;
b0 =
b0 <
b0 >
1!
b11111 $
b11111 B
b111110100 7
b1111101000 6
00
b100000 S
b100000 N
b100100100 H
1+
#710000
0+
#715000
bx =
bx ;
0!
bx >
bx 6
bx <
bx 7
b100000 -
b100000 8
10
b100000 2
b100100011 H
1+
#720000
0+
#725000
b0 ;
b0 =
b0 <
b0 >
1!
b100000 $
b100000 B
b111110100 7
b1111101000 6
00
b100001 S
b100001 N
b100100010 H
1+
#730000
0+
#735000
bx =
bx ;
0!
bx >
bx 6
bx <
bx 7
b100001 -
b100001 8
10
b100001 2
b100100001 H
1+
#740000
0+
#745000
b0 ;
b0 =
b0 <
b0 >
1!
b100001 $
b100001 B
b111110100 7
b1111101000 6
00
b100010 S
b100010 N
b100100000 H
1+
#750000
0+
#755000
bx =
bx ;
0!
bx >
bx 6
bx <
bx 7
b100010 -
b100010 8
10
b100010 2
b100011111 H
1+
#760000
0+
#765000
b0 ;
b0 =
b0 <
b0 >
1!
b100010 $
b100010 B
b111110100 7
b1111101000 6
00
b100011 S
b100011 N
b100011110 H
1+
#770000
0+
#775000
bx =
bx ;
0!
bx >
bx 6
bx <
bx 7
b100011 -
b100011 8
10
b100011 2
b100011101 H
1+
#780000
0+
#785000
b0 ;
b0 =
b0 <
b0 >
1!
b100011 $
b100011 B
b111110100 7
b1111101000 6
00
b100100 S
b100100 N
b100011100 H
1+
#790000
0+
#795000
bx =
bx ;
0!
bx >
bx 6
bx <
bx 7
b100100 -
b100100 8
10
b100100 2
b100011011 H
1+
#800000
0+
#805000
b0 ;
b0 =
b0 <
b0 >
1!
b100100 $
b100100 B
b111110100 7
b1111101000 6
00
b100101 S
b100101 N
b100011010 H
1+
#810000
0+
#815000
bx =
bx ;
0!
bx >
bx 6
bx <
bx 7
b100101 -
b100101 8
10
b100101 2
b100011001 H
1+
#820000
0+
#825000
b0 ;
b0 =
b0 <
b0 >
1!
b100101 $
b100101 B
b111110100 7
b1111101000 6
00
b100110 S
b100110 N
b100011000 H
1+
#830000
0+
#835000
bx =
bx ;
0!
bx >
bx 6
bx <
bx 7
b100110 -
b100110 8
10
b100110 2
b100010111 H
1+
#840000
0+
#845000
b0 ;
b0 =
b0 <
b0 >
1!
b100110 $
b100110 B
b111110100 7
b1111101000 6
00
b100111 S
b100111 N
b100010110 H
1+
#850000
0+
#855000
bx =
bx ;
0!
bx >
bx 6
bx <
bx 7
b100111 -
b100111 8
10
b100111 2
b100010101 H
1+
#860000
0+
#865000
b0 ;
b0 =
b0 <
b0 >
1!
b100111 $
b100111 B
b111110100 7
b1111101000 6
00
b101000 S
b101000 N
b100010100 H
1+
#870000
0+
#875000
bx =
bx ;
0!
bx >
bx 6
bx <
bx 7
b101000 -
b101000 8
10
b101000 2
b100010011 H
1+
#880000
0+
#885000
b0 ;
b0 =
b0 <
b0 >
1!
b101000 $
b101000 B
b111110100 7
b1111101000 6
00
b101001 S
b101001 N
b100010010 H
1+
#890000
0+
#895000
bx =
bx ;
0!
bx >
bx 6
bx <
bx 7
b101001 -
b101001 8
10
b101001 2
b100010001 H
1+
#900000
0+
#905000
b0 ;
b0 =
b0 <
b0 >
1!
b101001 $
b101001 B
b111110100 7
b1111101000 6
00
b101010 S
b101010 N
b100010000 H
1+
#910000
0+
#915000
bx =
bx ;
0!
bx >
bx 6
bx <
bx 7
b101010 -
b101010 8
10
b101010 2
b100001111 H
1+
#920000
0+
#925000
b0 ;
b0 =
b0 <
b0 >
1!
b101010 $
b101010 B
b111110100 7
b1111101000 6
00
b101011 S
b101011 N
b100001110 H
1+
#930000
0+
#935000
bx =
bx ;
0!
bx >
bx 6
bx <
bx 7
b101011 -
b101011 8
10
b101011 2
b100001101 H
1+
#940000
0+
#945000
b0 ;
b0 =
b0 <
b0 >
1!
b101011 $
b101011 B
b111110100 7
b1111101000 6
00
b101100 S
b101100 N
b100001100 H
1+
#950000
0+
#955000
bx =
bx ;
0!
bx >
bx 6
bx <
bx 7
b101100 -
b101100 8
10
b101100 2
b100001011 H
1+
#960000
0+
#965000
b0 ;
b0 =
b0 <
b0 >
1!
b101100 $
b101100 B
b111110100 7
b1111101000 6
00
b101101 S
b101101 N
b100001010 H
1+
#970000
0+
#975000
bx =
bx ;
0!
bx >
bx 6
bx <
bx 7
b101101 -
b101101 8
10
b101101 2
b100001001 H
1+
#980000
0+
#985000
b0 ;
b0 =
b0 <
b0 >
1!
b101101 $
b101101 B
b111110100 7
b1111101000 6
00
b101110 S
b101110 N
b100001000 H
1+
#990000
0+
#995000
bx =
bx ;
0!
bx >
bx 6
bx <
bx 7
b101110 -
b101110 8
10
b101110 2
b100000111 H
1+
#1000000
0+
#1005000
b0 ;
b0 =
b0 <
b0 >
1!
b101110 $
b101110 B
b111110100 7
b1111101000 6
00
b101111 S
b101111 N
b100000110 H
1+
#1010000
0+
#1015000
bx =
bx ;
0!
bx >
bx 6
bx <
bx 7
b101111 -
b101111 8
10
b101111 2
b100000101 H
1+
#1020000
0+
#1025000
b0 ;
b0 =
b0 <
b0 >
1!
b101111 $
b101111 B
b111110100 7
b1111101000 6
00
b110000 S
b110000 N
b100000100 H
1+
#1030000
0+
#1035000
bx =
bx ;
0!
bx >
bx 6
bx <
bx 7
b110000 -
b110000 8
10
b110000 2
b100000011 H
1+
#1040000
0+
#1045000
b0 ;
b0 =
b0 <
b0 >
1!
b110000 $
b110000 B
b111110100 7
b1111101000 6
00
b110001 S
b110001 N
b100000010 H
1+
#1050000
0+
#1055000
bx =
bx ;
0!
bx >
bx 6
bx <
bx 7
b110001 -
b110001 8
10
b110001 2
b100000001 H
1+
#1060000
0+
#1065000
b0 ;
b0 =
b0 <
b0 >
1!
b110001 $
b110001 B
b111110100 7
b1111101000 6
00
b110010 S
b110010 N
b100000000 H
1+
#1070000
0+
#1075000
bx =
bx ;
0!
bx >
bx 6
bx <
bx 7
b110010 -
b110010 8
10
b110010 2
b11111111 H
1+
#1080000
0+
#1085000
b0 ;
b0 =
b0 <
b0 >
1!
b110010 $
b110010 B
b111110100 7
b1111101000 6
00
b110011 S
b110011 N
b11111110 H
1+
#1090000
0+
#1095000
bx =
bx ;
0!
bx >
bx 6
bx <
bx 7
b110011 -
b110011 8
10
b110011 2
b11111101 H
1+
#1100000
0+
#1105000
b0 ;
b0 =
b0 <
b0 >
1!
b110011 $
b110011 B
b111110100 7
b1111101000 6
00
b110100 S
b110100 N
b11111100 H
1+
#1110000
0+
#1115000
bx =
bx ;
0!
bx >
bx 6
bx <
bx 7
b110100 -
b110100 8
10
b110100 2
b11111011 H
1+
#1120000
0+
#1125000
b0 ;
b0 =
b0 <
b0 >
1!
b110100 $
b110100 B
b111110100 7
b1111101000 6
00
b110101 S
b110101 N
b11111010 H
1+
#1130000
0+
#1135000
bx =
bx ;
0!
bx >
bx 6
bx <
bx 7
b110101 -
b110101 8
10
b110101 2
b11111001 H
1+
#1140000
0+
#1145000
b0 ;
b0 =
b0 <
b0 >
1!
b110101 $
b110101 B
b111110100 7
b1111101000 6
00
b110110 S
b110110 N
b11111000 H
1+
#1150000
0+
#1155000
bx =
bx ;
0!
bx >
bx 6
bx <
bx 7
b110110 -
b110110 8
10
b110110 2
b11110111 H
1+
#1160000
0+
#1165000
b0 ;
b0 =
b0 <
b0 >
1!
b110110 $
b110110 B
b111110100 7
b1111101000 6
00
b110111 S
b110111 N
b11110110 H
1+
#1170000
0+
#1175000
bx =
bx ;
0!
bx >
bx 6
bx <
bx 7
b110111 -
b110111 8
10
b110111 2
b11110101 H
1+
#1180000
0+
#1185000
b0 ;
b0 =
b0 <
b0 >
1!
b110111 $
b110111 B
b111110100 7
b1111101000 6
00
b111000 S
b111000 N
b11110100 H
1+
#1190000
0+
#1195000
bx =
bx ;
0!
bx >
bx 6
bx <
bx 7
b111000 -
b111000 8
10
b111000 2
b11110011 H
1+
#1200000
0+
#1205000
b0 ;
b0 =
b0 <
b0 >
1!
b111000 $
b111000 B
b111110100 7
b1111101000 6
00
b111001 S
b111001 N
b11110010 H
1+
#1210000
0+
#1215000
bx =
bx ;
0!
bx >
bx 6
bx <
bx 7
b111001 -
b111001 8
10
b111001 2
b11110001 H
1+
#1220000
0+
#1225000
b0 ;
b0 =
b0 <
b0 >
1!
b111001 $
b111001 B
b111110100 7
b1111101000 6
00
b111010 S
b111010 N
b11110000 H
1+
#1230000
0+
#1235000
bx =
bx ;
0!
bx >
bx 6
bx <
bx 7
b111010 -
b111010 8
10
b111010 2
b11101111 H
1+
#1240000
0+
#1245000
b0 ;
b0 =
b0 <
b0 >
1!
b111010 $
b111010 B
b111110100 7
b1111101000 6
00
b111011 S
b111011 N
b11101110 H
1+
#1250000
0+
#1255000
bx =
bx ;
0!
bx >
bx 6
bx <
bx 7
b111011 -
b111011 8
10
b111011 2
b11101101 H
1+
#1260000
0+
#1265000
b0 ;
b0 =
b0 <
b0 >
1!
b111011 $
b111011 B
b111110100 7
b1111101000 6
00
b111100 S
b111100 N
b11101100 H
1+
#1270000
0+
#1275000
bx =
bx ;
0!
bx >
bx 6
bx <
bx 7
b111100 -
b111100 8
10
b111100 2
b11101011 H
1+
#1280000
0+
#1285000
b0 ;
b0 =
b0 <
b0 >
1!
b111100 $
b111100 B
b111110100 7
b1111101000 6
00
b111101 S
b111101 N
b11101010 H
1+
#1290000
0+
#1295000
bx =
bx ;
0!
bx >
bx 6
bx <
bx 7
b111101 -
b111101 8
10
b111101 2
b11101001 H
1+
#1300000
0+
#1305000
b0 ;
b0 =
b0 <
b0 >
1!
b111101 $
b111101 B
b111110100 7
b1111101000 6
00
b111110 S
b111110 N
b11101000 H
1+
#1310000
0+
#1315000
bx =
bx ;
0!
bx >
bx 6
bx <
bx 7
b111110 -
b111110 8
10
b111110 2
b11100111 H
1+
#1320000
0+
#1325000
b0 ;
b0 =
b0 <
b0 >
1!
b111110 $
b111110 B
b111110100 7
b1111101000 6
00
b111111 S
b111111 N
b11100110 H
1+
#1330000
0+
#1335000
bx =
bx ;
0!
bx >
bx 6
bx <
bx 7
b111111 -
b111111 8
10
b111111 2
b11100101 H
1+
#1340000
0+
#1345000
b0 ;
b0 =
b0 <
b0 >
1!
b111111 $
b111111 B
b111110100 7
b1111101000 6
00
b1000000 N
b11100100 H
1+
#1350000
0+
#1355000
b0 $
b0 B
0!
b0 "
b0 D
b0 #
b0 C
b1111111000001100 ;
b1111110000011000 =
b0 -
b0 8
b11111111000001100 <
b0 /
b0 :
b11111110000011000 >
b0 .
b0 9
01
b100 5
1I
b10101000011000100101110001101000011101000100000010100000110000101110011011100110010110101110100011010000111001001101111011101010110011101101000001110100010000001001001010110110011011000110011010111010011110100110001001100000011000000110000 J
b1 K
b1000000 2
b11100011 H
1+
#1360000
0+
#1365000
1+
#1370000
0+
#1375000
1+
#1380000
0+
#1385000
1+
#1390000
0+
#1395000
1+
#1400000
0+
#1405000
11
1+
#1410000
0+
#1415000
1+
#1420000
0+
#1425000
b101110111000 U
b1001110001000 T
b0 S
b0 N
b101110111000 M
b1001110001000 L
b101100100 H
b0 2
1,
1+
#1430000
0+
#1435000
b100111000100 ;
b111110100000 =
10
b100111000100 <
b101110111000 /
b101110111000 :
b111110100000 >
b1001110001000 .
b1001110001000 9
b101100011 H
1+
#1440000
0+
#1445000
b0 ;
b0 =
1!
b0 <
b101110111000 7
b0 >
b1001110001000 6
00
b1 S
b1 N
b101100010 H
1+
#1450000
0+
#1455000
b111110100000 =
b100111000100 ;
0!
b111110100000 >
b1111101000 6
b100111000100 <
b111110100 7
b1 -
b1 8
10
b1 2
b101100001 H
1+
#1460000
0+
#1465000
b0 ;
b0 =
1!
b1 $
b1 B
b0 <
b101110111000 7
b0 >
b1001110001000 6
00
b10 S
b10 N
b101100000 H
1+
#1470000
0+
#1475000
b111110100000 =
b100111000100 ;
0!
b111110100000 >
b1111101000 6
b100111000100 <
b111110100 7
b10 -
b10 8
10
b10 2
b101011111 H
1+
#1480000
0+
#1485000
b0 ;
b0 =
1!
b10 $
b10 B
b0 <
b101110111000 7
b0 >
b1001110001000 6
00
b11 S
b11 N
b101011110 H
1+
#1490000
0+
#1495000
b111110100000 =
b100111000100 ;
0!
b111110100000 >
b1111101000 6
b100111000100 <
b111110100 7
b11 -
b11 8
10
b11 2
b101011101 H
1+
#1500000
0+
#1505000
b0 ;
b0 =
1!
b11 $
b11 B
b0 <
b101110111000 7
b0 >
b1001110001000 6
00
b100 S
b100 N
b101011100 H
1+
#1510000
0+
#1515000
b111110100000 =
b100111000100 ;
0!
b111110100000 >
b1111101000 6
b100111000100 <
b111110100 7
b100 -
b100 8
10
b100 2
b101011011 H
1+
#1520000
0+
#1525000
b0 ;
b0 =
1!
b100 $
b100 B
b0 <
b101110111000 7
b0 >
b1001110001000 6
00
b101 S
b101 N
b101011010 H
1+
#1530000
0+
#1535000
b111110100000 =
b100111000100 ;
0!
b111110100000 >
b1111101000 6
b100111000100 <
b111110100 7
b101 -
b101 8
10
b101 2
b101011001 H
1+
#1540000
0+
#1545000
b0 ;
b0 =
1!
b101 $
b101 B
b0 <
b101110111000 7
b0 >
b1001110001000 6
00
b110 S
b110 N
b101011000 H
1+
#1550000
0+
#1555000
b111110100000 =
b100111000100 ;
0!
b111110100000 >
b1111101000 6
b100111000100 <
b111110100 7
b110 -
b110 8
10
b110 2
b101010111 H
1+
#1560000
0+
#1565000
b0 ;
b0 =
1!
b110 $
b110 B
b0 <
b101110111000 7
b0 >
b1001110001000 6
00
b111 S
b111 N
b101010110 H
1+
#1570000
0+
#1575000
b111110100000 =
b100111000100 ;
0!
b111110100000 >
b1111101000 6
b100111000100 <
b111110100 7
b111 -
b111 8
10
b111 2
b101010101 H
1+
#1580000
0+
#1585000
b0 ;
b0 =
1!
b111 $
b111 B
b0 <
b101110111000 7
b0 >
b1001110001000 6
00
b1000 S
b1000 N
b101010100 H
1+
#1590000
0+
#1595000
b111110100000 =
b100111000100 ;
0!
b111110100000 >
b1111101000 6
b100111000100 <
b111110100 7
b1000 -
b1000 8
10
b1000 2
b101010011 H
1+
#1600000
0+
#1605000
b0 ;
b0 =
1!
b1000 $
b1000 B
b0 <
b101110111000 7
b0 >
b1001110001000 6
00
b1001 S
b1001 N
b101010010 H
1+
#1610000
0+
#1615000
b111110100000 =
b100111000100 ;
0!
b111110100000 >
b1111101000 6
b100111000100 <
b111110100 7
b1001 -
b1001 8
10
b1001 2
b101010001 H
1+
#1620000
0+
#1625000
b0 ;
b0 =
1!
b1001 $
b1001 B
b0 <
b101110111000 7
b0 >
b1001110001000 6
00
b1010 S
b1010 N
b101010000 H
1+
#1630000
0+
#1635000
b111110100000 =
b100111000100 ;
0!
b111110100000 >
b1111101000 6
b100111000100 <
b111110100 7
b1010 -
b1010 8
10
b1010 2
b101001111 H
1+
#1640000
0+
#1645000
b0 ;
b0 =
1!
b1010 $
b1010 B
b0 <
b101110111000 7
b0 >
b1001110001000 6
00
b1011 S
b1011 N
b101001110 H
1+
#1650000
0+
#1655000
b111110100000 =
b100111000100 ;
0!
b111110100000 >
b1111101000 6
b100111000100 <
b111110100 7
b1011 -
b1011 8
10
b1011 2
b101001101 H
1+
#1660000
0+
#1665000
b0 ;
b0 =
1!
b1011 $
b1011 B
b0 <
b101110111000 7
b0 >
b1001110001000 6
00
b1100 S
b1100 N
b101001100 H
1+
#1670000
0+
#1675000
b111110100000 =
b100111000100 ;
0!
b111110100000 >
b1111101000 6
b100111000100 <
b111110100 7
b1100 -
b1100 8
10
b1100 2
b101001011 H
1+
#1680000
0+
#1685000
b0 ;
b0 =
1!
b1100 $
b1100 B
b0 <
b101110111000 7
b0 >
b1001110001000 6
00
b1101 S
b1101 N
b101001010 H
1+
#1690000
0+
#1695000
b111110100000 =
b100111000100 ;
0!
b111110100000 >
b1111101000 6
b100111000100 <
b111110100 7
b1101 -
b1101 8
10
b1101 2
b101001001 H
1+
#1700000
0+
#1705000
b0 ;
b0 =
1!
b1101 $
b1101 B
b0 <
b101110111000 7
b0 >
b1001110001000 6
00
b1110 S
b1110 N
b101001000 H
1+
#1710000
0+
#1715000
b111110100000 =
b100111000100 ;
0!
b111110100000 >
b1111101000 6
b100111000100 <
b111110100 7
b1110 -
b1110 8
10
b1110 2
b101000111 H
1+
#1720000
0+
