iverilog_demo/tb_radar_mode_controller.vcd
$date
	Thu Jun 18 19:31:09 2026
$end
$version
	Icarus Verilog
$end
$timescale
	1ps
$end
$scope module tb_radar_mode_controller $end
$var wire 1 ! use_long_chirp $end
$var wire 1 " scanning $end
$var wire 1 # scan_complete $end
$var wire 1 $ mc_new_elevation $end
$var wire 1 % mc_new_chirp $end
$var wire 1 & mc_new_azimuth $end
$var wire 6 ' elevation_count [5:0] $end
$var wire 6 ( chirp_count [5:0] $end
$var wire 6 ) azimuth_count [5:0] $end
$var real 1 * CLK_PERIOD $end
$var parameter 32 + SIM_AZIMUTHS $end
$var parameter 32 , SIM_CHIRPS $end
$var parameter 32 - SIM_ELEVATIONS $end
$var parameter 32 . SIM_GUARD $end
$var parameter 32 / SIM_LONG_CHIRP $end
$var parameter 32 0 SIM_LONG_LISTEN $end
$var parameter 32 1 SIM_SHORT_CHIRP $end
$var parameter 32 2 SIM_SHORT_LISTEN $end
$var reg 6 3 cfg_chirps_per_elev [5:0] $end
$var reg 16 4 cfg_guard_cycles [15:0] $end
$var reg 16 5 cfg_long_chirp_cycles [15:0] $end
$var reg 16 6 cfg_long_listen_cycles [15:0] $end
$var reg 16 7 cfg_short_chirp_cycles [15:0] $end
$var reg 16 8 cfg_short_listen_cycles [15:0] $end
$var reg 1 9 clk $end
$var reg 1 : mc_new_azimuth_prev $end
$var reg 1 ; mc_new_chirp_prev $end
$var reg 1 < mc_new_elevation_prev $end
$var reg 2 = mode [1:0] $end
$var reg 1 > reset_n $end
$var reg 1 ? saved_mc_new_azimuth $end
$var reg 1 @ saved_mc_new_chirp $end
$var reg 1 A saved_mc_new_elevation $end
$var reg 1 B stm32_new_azimuth $end
$var reg 1 C stm32_new_chirp $end
$var reg 1 D stm32_new_elevation $end
$var reg 1 E trigger $end
$var integer 32 F azimuth_toggles [31:0] $end
$var integer 32 G chirp_toggles [31:0] $end
$var integer 32 H csv_file [31:0] $end
$var integer 32 I elevation_toggles [31:0] $end
$var integer 32 J fail_count [31:0] $end
$var integer 32 K i [31:0] $end
$var integer 32 L pass_count [31:0] $end
$var integer 32 M scan_completes [31:0] $end
$var integer 32 N test_num [31:0] $end
$scope module uut $end
$var wire 6 O cfg_chirps_per_elev [5:0] $end
$var wire 16 P cfg_guard_cycles [15:0] $end
$var wire 16 Q cfg_long_chirp_cycles [15:0] $end
$var wire 16 R cfg_long_listen_cycles [15:0] $end
$var wire 16 S cfg_short_chirp_cycles [15:0] $end
$var wire 16 T cfg_short_listen_cycles [15:0] $end
$var wire 1 9 clk $end
$var wire 2 U mode [1:0] $end
$var wire 1 > reset_n $end
$var wire 1 # scan_complete $end
$var wire 1 V stm32_azimuth_toggle $end
$var wire 1 W stm32_chirp_toggle $end
$var wire 1 X stm32_elevation_toggle $end
$var wire 1 B stm32_new_azimuth $end
$var wire 1 C stm32_new_chirp $end
$var wire 1 D stm32_new_elevation $end
$var wire 1 E trigger $end
$var wire 1 Y trigger_pulse $end
$var wire 1 " scanning $end
$var parameter 32 Z AZIMUTHS_PER_SCAN $end
$var parameter 32 [ CHIRPS_PER_ELEVATION $end
$var parameter 32 \ ELEVATIONS_PER_AZIMUTH $end
$var parameter 32 ] GUARD_CYCLES $end
$var parameter 32 ^ LONG_CHIRP_CYCLES $end
$var parameter 32 _ LONG_LISTEN_CYCLES $end
$var parameter 32 ` SHORT_CHIRP_CYCLES $end
$var parameter 32 a SHORT_LISTEN_CYCLES $end
$var parameter 3 b S_ADVANCE $end
$var parameter 3 c S_GUARD $end
$var parameter 3 d S_IDLE $end
$var parameter 3 e S_LONG_CHIRP $end
$var parameter 3 f S_LONG_LISTEN $end
$var parameter 3 g S_SHORT_CHIRP $end
$var parameter 3 h S_SHORT_LISTEN $end
$var reg 6 i azimuth_count [5:0] $end
$var reg 6 j chirp_count [5:0] $end
$var reg 6 k elevation_count [5:0] $end
$var reg 1 & mc_new_azimuth $end
$var reg 1 % mc_new_chirp $end
$var reg 1 $ mc_new_elevation $end
$var reg 1 l scan_done_pulse $end
$var reg 3 m scan_state [2:0] $end
$var reg 1 n stm32_new_azimuth_prev $end
$var reg 1 o stm32_new_chirp_prev $end
$var reg 1 p stm32_new_elevation_prev $end
$var reg 18 q timer [17:0] $end
$var reg 1 r trigger_prev $end
$var reg 1 ! use_long_chirp $end
$upscope $end
$scope task apply_reset $end
$upscope $end
$scope task check $end
$var reg 1 s cond $end
$var reg 512 t label [511:0] $end
$upscope $end
$upscope $end
$enddefinitions $end
$comment Show the parameter values. $end
$dumpall
b101 h
b100 g
b10 f
b1 e
b0 d
b11 c
b110 b
b10101111 a
b101 `
b10001001 _
b11110 ^
b10101111 ]
b11 \
b100 [
b10 Z
b10101111 2
b101 1
b10001001 0
b11110 /
b10101111 .
b11 -
b100 ,
b10 +
r10 *
$end
#0
$dumpvars
bx t
xs
0r
b0 q
0p
0o
0n
b0 m
0l
b0 k
b0 j
b0 i
0Y
0X
0W
0V
b11 U
b10101111 T
b101 S
b10001001 R
b11110 Q
b10101111 P
b100 O
b0 N
bx M
b0 L
bx K
b0 J
bx I
bx H
bx G
bx F
0E
0D
0C
0B
xA
x@
x?
0>
b11 =
x<
x;
x:
09
b10101111 8
b101 7
b10001001 6
b11110 5
b10101111 4
b100 3
b0 )
b0 (
b0 '
0&
0%
0$
0#
0"
1!
$end
#5000
19
#10000
09
#15000
19
#20000
09
#25000
19
#30000
09
#35000
1>
19
#40000
09
#45000
19
#46000
0>
#50000
09
#55000
19
#60000
09
#65000
19
#70000
09
#75000
19
#80000
09
#85000
19
#86000
1>
b1001 L
b1001 N
b11100110110001101100001011011100101111101100011011011110110110101110000011011000110010101110100011001010011110100110000001000000110000101100110011101000110010101110010001000000111001001100101011100110110010101110100 t
1s
#90000
09
#95000
19
#96000
0>
#100000
09
#105000
19
#110000
09
#115000
19
#120000
09
#125000
19
#130000
09
#135000
1>
19
#140000
09
#145000
19
#146000
b0 =
b0 U
#150000
09
#155000
19
#156000
1W
1C
0@
#160000
09
#165000
0W
b1 (
b1 j
1%
1o
19
#170000
09
#175000
19
#176000
1W
0C
1@
b1011 L
b1011 N
b1100011011010000110100101110010011100000101111101100011011011110111010101101110011101000010000001101001011011100110001101110010011001010110110101100101011011100111010001100101011001000010000001110100011011110010000000110001 t
#180000
09
#185000
0W
b10 (
b10 j
0%
0o
19
#190000
09
#195000
19
#196000
1X
1D
0A
b1101 L
b1101 N
b1100011011010000110100101110010011100000101111101100011011011110111010101101110011101000010000001101001011011100110001101110010011001010110110101100101011011100111010001100101011001000010000001110100011011110010000000110010 t
#200000
09
#205000
0X
b1 '
b1 k
b0 (
b0 j
1$
1p
19
#210000
09
#215000
19
#216000
1V
1B
0?
b10000 L
b10000 N
b110010101101100011001010111011001100001011101000110100101101111011011100101111101100011011011110111010101101110011101000010000001101001011011100110001101110010011001010110110101100101011011100111010001100101011001000010000001110100011011110010000000110001 t
#220000
09
#225000
0V
b1 )
b1 i
b0 '
b0 k
1&
1n
19
#230000
09
#235000
19
#236000
b0 )
b0 i
0&
0$
0n
0p
0V
0X
0B
0D
b11 =
b11 U
0>
b10011 L
b10011 N
b11000010111101001101001011011010111010101110100011010000101111101100011011011110111010101101110011101000010000001101001011011100110001101110010011001010110110101100101011011100111010001100101011001000010000001110100011011110010000000110001 t
#240000
09
#245000
19
#250000
09
#255000
19
#260000
09
#265000
19
#270000
09
#275000
1>
19
#280000
09
#285000
19
#286000
b0 M
b0 F
b0 I
b0 G
0:
0<
0;
b10000000000000000000000000000011 H
b1 =
b1 U
#290000
09
#295000
1%
1"
b1 m
19
#296000
b0 K
b10100 L
b10100 N
b1010011011000110110000101101110011011100110100101101110011001110010000001110011011101000110000101110010011101000111001100100000011010010110110101101101011001010110010001101001011000010111010001100101011011000111100100100000011010010110111000100000011000010111010101110100011011110010000001101101011011110110010001100101 t
#300000
09
#305000
b1 q
19
#306000
b1 K
1;
b1 G
#310000
09
#315000
b10 q
19
#316000
b10 K
#320000
09
#325000
b11 q
19
#326000
b11 K
#330000
09
#335000
b100 q
19
#336000
b100 K
#340000
09
#345000
b101 q
19
#346000
b101 K
#350000
09
#355000
b110 q
19
#356000
b110 K
#360000
09
#365000
b111 q
19
#366000
b111 K
#370000
09
#375000
b1000 q
19
#376000
b1000 K
#380000
09
#385000
b1001 q
19
#386000
b1001 K
#390000
09
#395000
b1010 q
19
#396000
b1010 K
#400000
09
#405000
b1011 q
19
#406000
b1011 K
#410000
09
#415000
b1100 q
19
#416000
b1100 K
#420000
09
#425000
b1101 q
19
#426000
b1101 K
#430000
09
#435000
b1110 q
19
#436000
b1110 K
#440000
09
#445000
b1111 q
19
#446000
b1111 K
#450000
09
#455000
b10000 q
19
#456000
b10000 K
#460000
09
#465000
b10001 q
19
#466000
b10001 K
#470000
09
#475000
b10010 q
19
#476000
b10010 K
#480000
09
#485000
b10011 q
19
#486000
b10011 K
#490000
09
#495000
b10100 q
19
#496000
b10100 K
#500000
09
#505000
b10101 q
19
#506000
b10101 K
#510000
09
#515000
b10110 q
19
#516000
b10110 K
#520000
09
#525000
b10111 q
19
#526000
b10111 K
#530000
09
#535000
b11000 q
19
#536000
b11000 K
#540000
09
#545000
b11001 q
19
#546000
b11001 K
#550000
09
#555000
b11010 q
19
#556000
b11010 K
#560000
09
#565000
b11011 q
19
#566000
b11011 K
#570000
09
#575000
b11100 q
19
#576000
b11100 K
#580000
09
#585000
b11101 q
19
#586000
b11101 K
#590000
09
#595000
b10 m
b0 q
19
#596000
b11110 K
#600000
09
#605000
b1 q
19
#606000
b11111 K
#610000
09
#615000
b10 q
19
#616000
b100000 K
#620000
09
#625000
b11 q
19
#626000
b100001 K
#630000
09
#635000
b100 q
19
#636000
b100010 K
#640000
09
#645000
b101 q
19
#646000
b100011 K
#650000
09
#655000
b110 q
19
#656000
b100100 K
#660000
09
#665000
b111 q
19
#666000
b100101 K
#670000
09
#675000
b1000 q
19
#676000
b100110 K
#680000
09
#685000
b1001 q
19
#686000
b100111 K
#690000
09
#695000
b1010 q
19
#696000
b101000 K
#700000
09
#705000
b1011 q
19
#706000
b101001 K
#710000
09
#715000
b1100 q
19
#716000
b101010 K
#720000
09
#725000
b1101 q
19
#726000
b101011 K
#730000
09
#735000
b1110 q
19
#736000
b101100 K
#740000
09
#745000
b1111 q
19
#746000
b101101 K
#750000
09
#755000
b10000 q
19
#756000
b101110 K
#760000
09
#765000
b10001 q
19
#766000
b101111 K
#770000
09
#775000
b10010 q
19
#776000
b110000 K
#780000
09
#785000
b10011 q
19
#786000
b110001 K
#790000
09
#795000
b10100 q
19
#796000
b110010 K
#800000
09
#805000
b10101 q
19
#806000
b110011 K
#810000
09
#815000
b10110 q
19
#816000
b110100 K
#820000
09
#825000
b10111 q
19
#826000
b110101 K
#830000
09
#835000
b11000 q
19
#836000
b110110 K
#840000
09
#845000
b11001 q
19
#846000
b110111 K
#850000
09
#855000
b11010 q
19
#856000
b111000 K
#860000
09
#865000
b11011 q
19
#866000
b111001 K
#870000
09
#875000
b11100 q
19
#876000
b111010 K
#880000
09
#885000
b11101 q
19
#886000
b111011 K
#890000
09
#895000
b11110 q
19
#896000
b111100 K
#900000
09
#905000
b11111 q
19
#906000
b111101 K
#910000
09
#915000
b100000 q
19
#916000
b111110 K
#920000
09
#925000
b100001 q
19
#926000
b111111 K
#930000
09
#935000
b100010 q
19
#936000
b1000000 K
#940000
09
#945000
b100011 q
19
#946000
b1000001 K
#950000
09
#955000
b100100 q
19
#956000
b1000010 K
#960000
09
#965000
b100101 q
19
#966000
b1000011 K
#970000
09
#975000
b100110 q
19
#976000
b1000100 K
#980000
09
#985000
b100111 q
19
#986000
b1000101 K
#990000
09
#995000
b101000 q
19
#996000
b1000110 K
#1000000
09
#1005000
b101001 q
19
#1006000
b1000111 K
#1010000
09
#1015000
b101010 q
19
#1016000
b1001000 K
#1020000
09
#1025000
b101011 q
19
#1026000
b1001001 K
#1030000
09
#1035000
b101100 q
19
#1036000
b1001010 K
#1040000
09
#1045000
b101101 q
19
#1046000
b1001011 K
#1050000
09
#1055000
b101110 q
19
#1056000
b1001100 K
#1060000
09
#1065000
b101111 q
19
#1066000
b1001101 K
#1070000
09
#1075000
b110000 q
19
#1076000
b1001110 K
#1080000
09
#1085000
b110001 q
19
#1086000
b1001111 K
#1090000
09
#1095000
b110010 q
19
#1096000
b1010000 K
#1100000
09
#1105000
b110011 q
19
#1106000
b1010001 K
#1110000
09
#1115000
b110100 q
19
#1116000
b1010010 K
#1120000
09
#1125000
b110101 q
19
#1126000
b1010011 K
#1130000
09
#1135000
b110110 q
19
#1136000
b1010100 K
#1140000
09
#1145000
b110111 q
19
#1146000
b1010101 K
#1150000
09
#1155000
b111000 q
19
#1156000
b1010110 K
#1160000
09
#1165000
b111001 q
19
#1166000
b1010111 K
#1170000
09
#1175000
b111010 q
19
#1176000
b1011000 K
#1180000
09
#1185000
b111011 q
19
#1186000
b1011001 K
#1190000
09
#1195000
b111100 q
19
#1196000
b1011010 K
#1200000
09
#1205000
b111101 q
19
#1206000
b1011011 K
#1210000
09
#1215000
b111110 q
19
#1216000
b1011100 K
#1220000
09
#1225000
b111111 q
19
#1226000
b1011101 K
#1230000
09
#1235000
b1000000 q
19
#1236000
b1011110 K
#1240000
09
#1245000
b1000001 q
19
#1246000
b1011111 K
#1250000
09
#1255000
b1000010 q
19
#1256000
b1100000 K
#1260000
09
#1265000
b1000011 q
19
#1266000
b1100001 K
#1270000
09
#1275000
b1000100 q
19
#1276000
b1100010 K
#1280000
09
#1285000
b1000101 q
19
#1286000
b1100011 K
#1290000
09
#1295000
b1000110 q
19
#1296000
b1100100 K
#1300000
09
#1305000
b1000111 q
19
#1306000
b1100101 K
#1310000
09
#1315000
b1001000 q
19
#1316000
b1100110 K
#1320000
09
#1325000
b1001001 q
19
#1326000
b1100111 K
#1330000
09
#1335000
b1001010 q
19
#1336000
b1101000 K
#1340000
09
#1345000
b1001011 q
19
#1346000
b1101001 K
#1350000
09
#1355000
b1001100 q
19
#1356000
b1101010 K
#1360000
09
#1365000
b1001101 q
19
#1366000
b1101011 K
#1370000
09
#1375000
b1001110 q
19
#1376000
b1101100 K
#1380000
09
#1385000
b1001111 q
19
#1386000
b1101101 K
#1390000
09
#1395000
b1010000 q
19
#1396000
b1101110 K
#1400000
09
#1405000
b1010001 q
19
#1406000
b1101111 K
#1410000
09
#1415000
b1010010 q
19
#1416000
b1110000 K
#1420000
09
#1425000
b1010011 q
19
#1426000
b1110001 K
#1430000
09
#1435000
b1010100 q
19
#1436000
b1110010 K
#1440000
09
#1445000
b1010101 q
19
#1446000
b1110011 K
#1450000
09
#1455000
b1010110 q
19
#1456000
b1110100 K
#1460000
09
#1465000
b1010111 q
19
#1466000
b1110101 K
#1470000
09
#1475000
b1011000 q
19
#1476000
b1110110 K
#1480000
09
#1485000
b1011001 q
19
#1486000
b1110111 K
#1490000
09
#1495000
b1011010 q
19
#1496000
b1111000 K
#1500000
09
#1505000
b1011011 q
19
#1506000
b1111001 K
#1510000
09
#1515000
b1011100 q
19
#1516000
b1111010 K
#1520000
09
#1525000
b1011101 q
19
#1526000
b1111011 K
#1530000
09
#1535000
b1011110 q
19
#1536000
b1111100 K
#1540000
09
#1545000
b1011111 q
19
#1546000
b1111101 K
#1550000
09
#1555000
b1100000 q
19
#1556000
b1111110 K
#1560000
09
#1565000
b1100001 q
19
#1566000
b1111111 K
#1570000
09
#1575000
b1100010 q
19
#1576000
b10000000 K
#1580000
09
#1585000
b1100011 q
19
#1586000
b10000001 K
#1590000
09
#1595000
b1100100 q
19
#1596000
b10000010 K
#1600000
09
#1605000
b1100101 q
19
#1606000
b10000011 K
#1610000
09
#1615000
b1100110 q
19
#1616000
b10000100 K
#1620000
09
#1625000
b1100111 q
19
#1626000
b10000101 K
#1630000
09
#1635000
b1101000 q
19
#1636000
b10000110 K
#1640000
09
#1645000
b1101001 q
19
#1646000
b10000111 K
#1650000
09
#1655000
b1101010 q
19
#1656000
b10001000 K
#1660000
09
#1665000
b1101011 q
19
#1666000
b10001001 K
#1670000
09
#1675000
b1101100 q
19
#1676000
b10001010 K
#1680000
09
#1685000
b1101101 q
19
#1686000
b10001011 K
#1690000
09
#1695000
b1101110 q
19
#1696000
b10001100 K
#1700000
09
#1705000
b1101111 q
19
#1706000
b10001101 K
#1710000
09
#1715000
b1110000 q
19
#1716000
b10001110 K
#1720000
09
#1725000
b1110001 q
19
#1726000
b10001111 K
#1730000
09
#1735000
b1110010 q
19
#1736000
b10010000 K
#1740000
09
#1745000
b1110011 q
19
#1746000
b10010001 K
#1750000
09
#1755000
b1110100 q
19
#1756000
b10010010 K
#1760000
09
#1765000
b1110101 q
19
#1766000
b10010011 K
#1770000
09
#1775000
b1110110 q
19
#1776000
b10010100 K
#1780000
09
#1785000
b1110111 q
19
#1786000
b10010101 K
#1790000
09
#1795000
b1111000 q
19
#1796000
b10010110 K
#1800000
09
#1805000
b1111001 q
19
#1806000
b10010111 K
#1810000
09
#1815000
b1111010 q
19
#1816000
b10011000 K
#1820000
09
#1825000
b1111011 q
19
#1826000
b10011001 K
#1830000
09
#1835000
b1111100 q
19
#1836000
b10011010 K
#1840000
09
#1845000
b1111101 q
19
#1846000
b10011011 K
#1850000
09
#1855000
b1111110 q
19
#1856000
b10011100 K
#1860000
09
#1865000
b1111111 q
19
#1866000
b10011101 K
#1870000
09
#1875000
b10000000 q
19
#1876000
b10011110 K
#1880000
09
#1885000
b10000001 q
19
#1886000
b10011111 K
#1890000
09
#1895000
b10000010 q
19
#1896000
b10100000 K
#1900000
09
#1905000
b10000011 q
19
#1906000
b10100001 K
#1910000
09
#1915000
b10000100 q
19
#1916000
b10100010 K
#1920000
09
#1925000
b10000101 q
19
#1926000
b10100011 K
#1930000
09
#1935000
b10000110 q
19
#1936000
b10100100 K
#1940000
09
#1945000
b10000111 q
19
#1946000
b10100101 K
#1950000
09
#1955000
b10001000 q
19
#1956000
b10100110 K
#1960000
09
#1965000
b11 m
b0 q
19
#1966000
b10100111 K
#1970000
09
#1975000
b1 q
19
#1976000
b10101000 K
#1980000
09
#1985000
b10 q
19
#1986000
b10101001 K
#1990000
09
#1995000
b11 q
19
#1996000
b10101010 K
#2000000
09
#2005000
b100 q
19
#2006000
b10101011 K
#2010000
09
#2015000
b101 q
19
#2016000
b10101100 K
#2020000
09
#2025000
b110 q
19
#2026000
b10101101 K
#2030000
09
#2035000
b111 q
19
#2036000
b10101110 K
#2040000
09
#2045000
b1000 q
19
#2046000
b10101111 K
#2050000
09
#2055000
b1001 q
19
#2056000
b10110000 K
#2060000
09
#2065000
b1010 q
19
#2066000
b10110001 K
#2070000
09
#2075000
b1011 q
19
#2076000
b10110010 K
#2080000
09
#2085000
b1100 q
19
#2086000
b10110011 K
#2090000
09
#2095000
b1101 q
19
#2096000
b10110100 K
#2100000
09
#2105000
b1110 q
19
#2106000
b10110101 K
#2110000
09
#2115000
b1111 q
19
#2116000
b10110110 K
#2120000
09
#2125000
b10000 q
19
#2126000
b10110111 K
#2130000
09
#2135000
b10001 q
19
#2136000
b10111000 K
#2140000
09
#2145000
b10010 q
19
#2146000
b10111001 K
#2150000
09
#2155000
b10011 q
19
#2156000
b10111010 K
#2160000
09
#2165000
b10100 q
19
#2166000
b10111011 K
#2170000
09
#2175000
b10101 q
19
#2176000
b10111100 K
#2180000
09
#2185000
b10110 q
19
#2186000
b10111101 K
#2190000
09
#2195000
b10111 q
19
#2196000
b10111110 K
#2200000
09
#2205000
b11000 q
19
#2206000
b10111111 K
#2210000
09
#2215000
b11001 q
19
#2216000
b11000000 K
#2220000
09
#2225000
b11010 q
19
#2226000
b11000001 K
#2230000
09
#2235000
b11011 q
19
#2236000
b11000010 K
#2240000
09
#2245000
b11100 q
19
#2246000
b11000011 K
#2250000
09
#2255000
b11101 q
19
#2256000
b11000100 K
#2260000
09
#2265000
b11110 q
19
#2266000
b11000101 K
#2270000
09
#2275000
b11111 q
19
#2276000
b11000110 K
#2280000
09
#2285000
b100000 q
19
#2286000
b11000111 K
#2290000
09
#2295000
b100001 q
19
#2296000
b11001000 K
#2300000
09
#2305000
b100010 q
19
#2306000
b11001001 K
#2310000
09
#2315000
b100011 q
19
#2316000
b11001010 K
#2320000
09
#2325000
b100100 q
19
#2326000
b11001011 K
#2330000
09
#2335000
b100101 q
19
#2336000
b11001100 K
#2340000
09
#2345000
b100110 q
19
#2346000
b11001101 K
#2350000
09
#2355000
b100111 q
19
#2356000
b11001110 K
#2360000
09
#2365000
b101000 q
19
#2366000
b11001111 K
#2370000
09
#2375000
b101001 q
19
#2376000
b11010000 K
#2380000
09
#2385000
b101010 q
19
#2386000
b11010001 K
#2390000
09
#2395000
b101011 q
19
#2396000
b11010010 K
#2400000
09
#2405000
b101100 q
19
#2406000
b11010011 K
#2410000
09
#2415000
b101101 q
19
#2416000
b11010100 K
#2420000
09
#2425000
b101110 q
19
#2426000
b11010101 K
#2430000
09
#2435000
b101111 q
19
#2436000
b11010110 K
#2440000
09
#2445000
b110000 q
19
#2446000
b11010111 K
#2450000
09
#2455000
b110001 q
19
#2456000
b11011000 K
#2460000
09
#2465000
b110010 q
19
#2466000
b11011001 K
#2470000
09
#2475000
b110011 q
19
#2476000
b11011010 K
#2480000
09
#2485000
b110100 q
19
#2486000
b11011011 K
#2490000
09
#2495000
b110101 q
19
#2496000
b11011100 K
#2500000
09
#2505000
b110110 q
19
#2506000
b11011101 K
#2510000
09
#2515000
b110111 q
19
#2516000
b11011110 K
#2520000
09
#2525000
b111000 q
19
#2526000
b11011111 K
#2530000
09
#2535000
b111001 q
19
#2536000
b11100000 K
#2540000
09
#2545000
b111010 q
19
#2546000
b11100001 K
#2550000
09
#2555000
b111011 q
19
#2556000
b11100010 K
#2560000
09
#2565000
b111100 q
19
#2566000
b11100011 K
#2570000
09
#2575000
b111101 q
19
#2576000
b11100100 K
#2580000
09
#2585000
b111110 q
19
#2586000
b11100101 K
#2590000
09
#2595000
b111111 q
19
#2596000
b11100110 K
#2600000
09
#2605000
b1000000 q
19
#2606000
b11100111 K
#2610000
09
#2615000
b1000001 q
19
#2616000
b11101000 K
#2620000
09
#2625000
b1000010 q
19
#2626000
b11101001 K
#2630000
09
#2635000
b1000011 q
19
#2636000
b11101010 K
#2640000
09
#2645000
b1000100 q
19
#2646000
b11101011 K
#2650000
09
#2655000
b1000101 q
19
#2656000
b11101100 K
#2660000
09
#2665000
b1000110 q
19
#2666000
b11101101 K
#2670000
09
#2675000
b1000111 q
19
#2676000
b11101110 K
#2680000
09
#2685000
b1001000 q
19
#2686000
b11101111 K
#2690000
09
#2695000
b1001001 q
19
#2696000
b11110000 K
#2700000
09
#2705000
b1001010 q
19
#2706000
b11110001 K
#2710000
09
#2715000
b1001011 q
19
#2716000
b11110010 K
#2720000
09
#2725000
b1001100 q
19
#2726000
b11110011 K
#2730000
09
#2735000
b1001101 q
19
#2736000
b11110100 K
#2740000
09
#2745000
b1001110 q
19
#2746000
b11110101 K
#2750000
09
#2755000
b1001111 q
19
#2756000
b11110110 K
#2760000
09
#2765000
b1010000 q
19
#2766000
b11110111 K
#2770000
09
#2775000
b1010001 q
19
#2776000
b11111000 K
#2780000
09
#2785000
b1010010 q
19
#2786000
b11111001 K
#2790000
09
#2795000
b1010011 q
19
#2796000
b11111010 K
#2800000
09
#2805000
b1010100 q
19
#2806000
b11111011 K
#2810000
09
#2815000
b1010101 q
19
#2816000
b11111100 K
#2820000
09
#2825000
b1010110 q
19
#2826000
b11111101 K
#2830000
09
#2835000
b1010111 q
19
#2836000
b11111110 K
#2840000
09
#2845000
b1011000 q
19
#2846000
b11111111 K
#2850000
09
#2855000
b1011001 q
19
#2856000
b100000000 K
#2860000
09
#2865000
b1011010 q
19
#2866000
b100000001 K
#2870000
09
#2875000
b1011011 q
19
#2876000
b100000010 K
#2880000
09
#2885000
b1011100 q
19
#2886000
b100000011 K
#2890000
09
#2895000
b1011101 q
19
#2896000
b100000100 K
#2900000
09
#2905000
b1011110 q
19
#2906000
b100000101 K
#2910000
09
#2915000
b1011111 q
19
#2916000
b100000110 K
#2920000
09
#2925000
b1100000 q
19
#2926000
b100000111 K
#2930000
09
#2935000
b1100001 q
19
#2936000
b100001000 K
#2940000
09
#2945000
b1100010 q
19
#2946000
b100001001 K
#2950000
09
#2955000
b1100011 q
19
#2956000
b100001010 K
#2960000
09
#2965000
b1100100 q
19
#2966000
b100001011 K
#2970000
09
#2975000
b1100101 q
19
#2976000
b100001100 K
#2980000
09
#2985000
b1100110 q
19
#2986000
b100001101 K
#2990000
09
#2995000
b1100111 q
19
#2996000
b100001110 K
#3000000
09
#3005000
b1101000 q
19
#3006000
b100001111 K
#3010000
09
#3015000
b1101001 q
19
#3016000
b100010000 K
#3020000
09
#3025000
b1101010 q
19
#3026000
b100010001 K
#3030000
09
#3035000
b1101011 q
19
#3036000
b100010010 K
#3040000
09
#3045000
b1101100 q
19
#3046000
b100010011 K
#3050000
09
#3055000
b1101101 q
19
#3056000
b100010100 K
#3060000
09
#3065000
b1101110 q
19
#3066000
b100010101 K
#3070000
09
#3075000
b1101111 q
19
#3076000
b100010110 K
#3080000
09
#3085000
b1110000 q
19
#3086000
b100010111 K
#3090000
09
#3095000
b1110001 q
19
#3096000
b100011000 K
#3100000
09
#3105000
b1110010 q
19
#3106000
b100011001 K
#3110000
09
#3115000
b1110011 q
19
#3116000
b100011010 K
#3120000
09
#3125000
b1110100 q
19
#3126000
b100011011 K
#3130000
09
#3135000
b1110101 q
19
#3136000
b100011100 K
#3140000
09
#3145000
b1110110 q
19
#3146000
b100011101 K
#3150000
09
#3155000
b1110111 q
19
#3156000
b100011110 K
#3160000
09
#3165000
b1111000 q
19
#3166000
b100011111 K
#3170000
09
#3175000
b1111001 q
19
#3176000
b100100000 K
#3180000
09
#3185000
b1111010 q
19
#3186000
b100100001 K
#3190000
09
#3195000
b1111011 q
19
#3196000
b100100010 K
#3200000
09
#3205000
b1111100 q
19
#3206000
b100100011 K
#3210000
09
#3215000
b1111101 q
19
#3216000
b100100100 K
#3220000
09
#3225000
b1111110 q
19
#3226000
b100100101 K
#3230000
09
#3235000
b1111111 q
19
#3236000
b100100110 K
#3240000
09
#3245000
b10000000 q
19
#3246000
b100100111 K
#3250000
09
#3255000
b10000001 q
19
#3256000
b100101000 K
#3260000
09
#3265000
b10000010 q
19
#3266000
b100101001 K
#3270000
09
#3275000
b10000011 q
19
#3276000
b100101010 K
#3280000
09
#3285000
b10000100 q
19
#3286000
b100101011 K
#3290000
09
#3295000
b10000101 q
19
#3296000
b100101100 K
#3300000
09
#3305000
b10000110 q
19
#3306000
b100101101 K
#3310000
09
#3315000
b10000111 q
19
#3316000
b100101110 K
#3320000
09
#3325000
b10001000 q
19
#3326000
b100101111 K
#3330000
09
#3335000
b10001001 q
19
#3336000
b100110000 K
#3340000
09
#3345000
b10001010 q
19
#3346000
b100110001 K
#3350000
09
#3355000
b10001011 q
19
#3356000
b100110010 K
#3360000
09
#3365000
b10001100 q
19
#3366000
b100110011 K
#3370000
09
#3375000
b10001101 q
19
#3376000
b100110100 K
#3380000
09
#3385000
b10001110 q
19
#3386000
b100110101 K
#3390000
09
#3395000
b10001111 q
19
#3396000
b100110110 K
#3400000
09
#3405000
b10010000 q
19
#3406000
b100110111 K
#3410000
09
#3415000
b10010001 q
19
#3416000
b100111000 K
#3420000
09
#3425000
b10010010 q
19
#3426000
b100111001 K
#3430000
09
#3435000
b10010011 q
19
#3436000
b100111010 K
#3440000
09
#3445000
b10010100 q
19
#3446000
b100111011 K
#3450000
09
#3455000
b10010101 q
19
#3456000
b100111100 K
#3460000
09
#3465000
b10010110 q
19
#3466000
b100111101 K
#3470000
09
#3475000
b10010111 q
19
#3476000
b100111110 K
#3480000
09
#3485000
b10011000 q
19
#3486000
b100111111 K
#3490000
09
#3495000
b10011001 q
19
#3496000
b101000000 K
#3500000
09
#3505000
b10011010 q
19
#3506000
b101000001 K
#3510000
09
#3515000
b10011011 q
19
#3516000
b101000010 K
#3520000
09
#3525000
b10011100 q
19
#3526000
b101000011 K
#3530000
09
#3535000
b10011101 q
19
#3536000
b101000100 K
#3540000
09
#3545000
b10011110 q
19
#3546000
b101000101 K
#3550000
09
#3555000
b10011111 q
19
#3556000
b101000110 K
#3560000
09
#3565000
b10100000 q
19
#3566000
b101000111 K
#3570000
09
#3575000
b10100001 q
19
#3576000
b101001000 K
#3580000
09
#3585000
b10100010 q
19
#3586000
b101001001 K
#3590000
09
#3595000
b10100011 q
19
#3596000
b101001010 K
#3600000
09
#3605000
b10100100 q
19
#3606000
b101001011 K
#3610000
09
#3615000
b10100101 q
19
#3616000
b101001100 K
#3620000
09
#3625000
b10100110 q
19
#3626000
b101001101 K
#3630000
09
#3635000
b10100111 q
19
#3636000
b101001110 K
#3640000
09
#3645000
b10101000 q
19
#3646000
b101001111 K
#3650000
09
#3655000
b10101001 q
19
#3656000
b101010000 K
#3660000
09
#3665000
b10101010 q
19
#3666000
b101010001 K
#3670000
09
#3675000
b10101011 q
19
#3676000
b101010010 K
#3680000
09
#3685000
b10101100 q
19
#3686000
b101010011 K
#3690000
09
#3695000
b10101101 q
19
#3696000
b101010100 K
#3700000
09
#3705000
b10101110 q
19
#3706000
b101010101 K
#3710000
09
#3715000
0!
b100 m
b0 q
19
#3716000
b101010110 K
#3720000
09
#3725000
b1 q
19
#3726000
b101010111 K
#3730000
09
#3735000
b10 q
19
#3736000
b101011000 K
#3740000
09
#3745000
b11 q
19
#3746000
b101011001 K
#3750000
09
#3755000
b100 q
19
#3756000
b101011010 K
#3760000
09
#3765000
b101 m
b0 q
19
#3766000
b101011011 K
#3770000
09
#3775000
b1 q
19
