iverilog_demo/tb_range_bin_decimator.vcd
$date
	Thu Jun 18 19:31:09 2026
$end
$version
	Icarus Verilog
$end
$timescale
	1ps
$end
$scope module tb_range_bin_decimator $end
$var wire 1 ! watchdog_timeout $end
$var wire 1 " range_valid_out $end
$var wire 16 # range_q_out [15:0] $end
$var wire 16 $ range_i_out [15:0] $end
$var wire 6 % range_bin_index [5:0] $end
$var real 1 & CLK_PERIOD $end
$var parameter 32 ' DECIMATION_FACTOR $end
$var parameter 32 ( INPUT_BINS $end
$var parameter 32 ) OUTPUT_BINS $end
$var reg 1 * cap_enable $end
$var reg 1 + clk $end
$var reg 2 , decimation_mode [1:0] $end
$var reg 16 - range_i_in [15:0] $end
$var reg 16 . range_q_in [15:0] $end
$var reg 1 / range_valid_in $end
$var reg 1 0 reset_n $end
$var reg 10 1 start_bin [9:0] $end
$var integer 32 2 cap_count [31:0] $end
$var integer 32 3 csv_file [31:0] $end
$var integer 32 4 fail_count [31:0] $end
$var integer 32 5 i [31:0] $end
$var integer 32 6 k [31:0] $end
$var integer 32 7 pass_count [31:0] $end
$var integer 32 8 test_num [31:0] $end
$var integer 32 9 wd_pulse_count [31:0] $end
$scope module uut $end
$var wire 1 + clk $end
$var wire 2 : decimation_mode [1:0] $end
$var wire 16 ; range_i_in [15:0] $end
$var wire 16 < range_q_in [15:0] $end
$var wire 1 / range_valid_in $end
$var wire 1 0 reset_n $end
$var wire 10 = start_bin [9:0] $end
$var wire 17 > cur_mag [16:0] $end
$var wire 16 ? abs_q [15:0] $end
$var wire 16 @ abs_i [15:0] $end
$var parameter 32 A DECIMATION_FACTOR $end
$var parameter 32 B INPUT_BINS $end
$var parameter 32 C OUTPUT_BINS $end
$var parameter 3 D ST_DONE $end
$var parameter 3 E ST_EMIT $end
$var parameter 3 F ST_IDLE $end
$var parameter 3 G ST_PROCESS $end
$var parameter 3 H ST_SKIP $end
$var parameter 10 I WATCHDOG_LIMIT $end
$var reg 16 J decim_i [15:0] $end
$var reg 16 K decim_q [15:0] $end
$var reg 4 L group_sample_count [3:0] $end
$var reg 10 M in_bin_count [9:0] $end
$var reg 6 N output_bin_count [5:0] $end
$var reg 16 O peak_i [15:0] $end
$var reg 17 P peak_mag [16:0] $end
$var reg 16 Q peak_q [15:0] $end
$var reg 6 R range_bin_index [5:0] $end
$var reg 16 S range_i_out [15:0] $end
$var reg 16 T range_q_out [15:0] $end
$var reg 1 " range_valid_out $end
$var reg 10 U skip_count [9:0] $end
$var reg 3 V state [2:0] $end
$var reg 20 W sum_i [19:0] $end
$var reg 20 X sum_q [19:0] $end
$var reg 10 Y watchdog_count [9:0] $end
$var reg 1 ! watchdog_timeout $end
$upscope $end
$scope begin gap_feed_block $end
$var integer 32 Z sample_idx [31:0] $end
$var integer 32 [ samples_since_gap [31:0] $end
$upscope $end
$scope begin peak_gen $end
$var integer 32 \ grp [31:0] $end
$var integer 32 ] pos_in_grp [31:0] $end
$var integer 32 ^ rel_idx [31:0] $end
$upscope $end
$scope begin wd_gap_feed $end
$var integer 32 _ sample_idx [31:0] $end
$var integer 32 ` samples_since_gap [31:0] $end
$upscope $end
$scope task apply_reset $end
$upscope $end
$scope task check $end
$var reg 1 a cond $end
$var reg 512 b label [511:0] $end
$upscope $end
$scope task feed_constant $end
$var reg 16 c val_i [15:0] $end
$var reg 16 d val_q [15:0] $end
$var integer 32 e idx [31:0] $end
$upscope $end
$scope task feed_peaked $end
$var integer 32 f grp [31:0] $end
$var integer 32 g idx [31:0] $end
$var integer 32 h pos_in_grp [31:0] $end
$var integer 32 i spike_pos [31:0] $end
$upscope $end
$scope task feed_ramp $end
$var integer 32 j idx [31:0] $end
$upscope $end
$scope task start_capture $end
$upscope $end
$scope task stop_capture $end
$upscope $end
$upscope $end
$enddefinitions $end
$comment Show the parameter values. $end
$dumpall
b100000000 I
b1 H
b10 G
b0 F
b11 E
b100 D
b1000000 C
b10000000000 B
b10000 A
b1000000 )
b10000000000 (
b10000 '
r10 &
$end
#0
$dumpvars
bx j
bx i
bx h
bx g
bx f
bx e
bx d
bx c
bx b
xa
bx `
bx _
bx ^
bx ]
bx \
bx [
bx Z
b0 Y
b0 X
b0 W
b0 V
b0 U
b0 T
b0 S
b0 R
b0 Q
b0 P
b0 O
b0 N
b0 M
b0 L
b0 K
b0 J
b0 @
b0 ?
b0 >
b0 =
b0 <
b0 ;
b0 :
b0 9
b0 8
b0 7
bx 6
b1000000 5
b0 4
bx 3
b0 2
b0 1
00
0/
b0 .
b0 -
b0 ,
0+
0*
b0 %
b0 $
b0 #
0"
0!
$end
#5000
1+
#10000
0+
#15000
1+
#20000
0+
#25000
1+
#30000
0+
#35000
10
1+
#40000
0+
#45000
1+
#46000
00
#50000
0+
#55000
1+
#60000
0+
#65000
1+
#70000
0+
#75000
1+
#80000
0+
#85000
1+
#86000
10
b100 7
b100 8
b11100100110000101101110011001110110010101011111011000100110100101101110010111110110100101101110011001000110010101111000001111010011000000100000011001000111010101110010011010010110111001100111001000000111001001100101011100110110010101110100 b
1a
#90000
0+
#95000
1+
#96000
00
#100000
0+
#105000
1+
#110000
0+
#115000
1+
#120000
0+
#125000
1+
#130000
0+
#135000
10
1+
#140000
0+
#145000
1+
#146000
1/
b0 j
1*
#150000
0+
#155000
b1 L
b10 V
b1 M
1+
#156000
b1 >
b1 @
b1 -
b1 ;
b1 j
#160000
0+
#165000
b10 L
b10 M
1+
#166000
b10 >
b10 @
b10 -
b10 ;
b10 j
#170000
0+
#175000
b11 L
b11 M
1+
#176000
b11 >
b11 @
b11 -
b11 ;
b11 j
#180000
0+
#185000
b100 L
b100 M
1+
#186000
b100 >
b100 @
b100 -
b100 ;
b100 j
#190000
0+
#195000
b101 L
b101 M
1+
#196000
b101 >
b101 @
b101 -
b101 ;
b101 j
#200000
0+
#205000
b110 L
b110 M
1+
#206000
b110 >
b110 @
b110 -
b110 ;
b110 j
#210000
0+
#215000
b111 L
b111 M
1+
#216000
b111 >
b111 @
b111 -
b111 ;
b111 j
#220000
0+
#225000
b1000 L
b1000 M
1+
#226000
b1000 >
b1000 @
b1000 -
b1000 ;
b1000 j
#230000
0+
#235000
b1001 L
b1000 J
b1001 M
1+
#236000
b1001 >
b1001 @
b1001 -
b1001 ;
b1001 j
#240000
0+
#245000
b1010 L
b1010 M
1+
#246000
b1010 >
b1010 @
b1010 -
b1010 ;
b1010 j
#250000
0+
#255000
b1011 L
b1011 M
1+
#256000
b1011 >
b1011 @
b1011 -
b1011 ;
b1011 j
#260000
0+
#265000
b1100 L
b1100 M
1+
#266000
b1100 >
b1100 @
b1100 -
b1100 ;
b1100 j
#270000
0+
#275000
b1101 L
b1101 M
1+
#276000
b1101 >
b1101 @
b1101 -
b1101 ;
b1101 j
#280000
0+
#285000
b1110 L
b1110 M
1+
#286000
b1110 >
b1110 @
b1110 -
b1110 ;
b1110 j
#290000
0+
#295000
b1111 L
b1111 M
1+
#296000
b1111 >
b1111 @
b1111 -
b1111 ;
b1111 j
#300000
0+
#305000
b0 L
b11 V
b10000 M
1+
#306000
b10000 >
b10000 @
b10000 -
b10000 ;
b10000 j
#310000
0+
#315000
b10001 M
b1 L
b10 V
b1 N
b1000 $
b1000 S
1"
1+
#316000
b10001 >
b10001 @
b1 2
b10001 -
b10001 ;
b10001 j
#320000
0+
#325000
b10 L
b10010 M
0"
1+
#326000
b10010 >
b10010 @
b10010 -
b10010 ;
b10010 j
#330000
0+
#335000
b11 L
b10011 M
1+
#336000
b10011 >
b10011 @
b10011 -
b10011 ;
b10011 j
#340000
0+
#345000
b100 L
b10100 M
1+
#346000
b10100 >
b10100 @
b10100 -
b10100 ;
b10100 j
#350000
0+
#355000
b101 L
b10101 M
1+
#356000
b10101 >
b10101 @
b10101 -
b10101 ;
b10101 j
#360000
0+
#365000
b110 L
b10110 M
1+
#366000
b10110 >
b10110 @
b10110 -
b10110 ;
b10110 j
#370000
0+
#375000
b111 L
b10111 M
1+
#376000
b10111 >
b10111 @
b10111 -
b10111 ;
b10111 j
#380000
0+
#385000
b1000 L
b11000 M
1+
#386000
b11000 >
b11000 @
b11000 -
b11000 ;
b11000 j
#390000
0+
#395000
b1001 L
b11000 J
b11001 M
1+
#396000
b11001 >
b11001 @
b11001 -
b11001 ;
b11001 j
#400000
0+
#405000
b1010 L
b11010 M
1+
#406000
b11010 >
b11010 @
b11010 -
b11010 ;
b11010 j
#410000
0+
#415000
b1011 L
b11011 M
1+
#416000
b11011 >
b11011 @
b11011 -
b11011 ;
b11011 j
#420000
0+
#425000
b1100 L
b11100 M
1+
#426000
b11100 >
b11100 @
b11100 -
b11100 ;
b11100 j
#430000
0+
#435000
b1101 L
b11101 M
1+
#436000
b11101 >
b11101 @
b11101 -
b11101 ;
b11101 j
#440000
0+
#445000
b1110 L
b11110 M
1+
#446000
b11110 >
b11110 @
b11110 -
b11110 ;
b11110 j
#450000
0+
#455000
b1111 L
b11111 M
1+
#456000
b11111 >
b11111 @
b11111 -
b11111 ;
b11111 j
#460000
0+
#465000
b0 L
b11 V
b100000 M
1+
#466000
b100000 >
b100000 @
b100000 -
b100000 ;
b100000 j
#470000
0+
#475000
b100001 M
b1 L
b10 V
b10 N
b11000 $
b11000 S
b1 %
b1 R
1"
1+
#476000
b100001 >
b100001 @
b10 2
b100001 -
b100001 ;
b100001 j
#480000
0+
#485000
b10 L
b100010 M
0"
1+
#486000
b100010 >
b100010 @
b100010 -
b100010 ;
b100010 j
#490000
0+
#495000
b11 L
b100011 M
1+
#496000
b100011 >
b100011 @
b100011 -
b100011 ;
b100011 j
#500000
0+
#505000
b100 L
b100100 M
1+
#506000
b100100 >
b100100 @
b100100 -
b100100 ;
b100100 j
#510000
0+
#515000
b101 L
b100101 M
1+
#516000
b100101 >
b100101 @
b100101 -
b100101 ;
b100101 j
#520000
0+
#525000
b110 L
b100110 M
1+
#526000
b100110 >
b100110 @
b100110 -
b100110 ;
b100110 j
#530000
0+
#535000
b111 L
b100111 M
1+
#536000
b100111 >
b100111 @
b100111 -
b100111 ;
b100111 j
#540000
0+
#545000
b1000 L
b101000 M
1+
#546000
b101000 >
b101000 @
b101000 -
b101000 ;
b101000 j
#550000
0+
#555000
b1001 L
b101000 J
b101001 M
1+
#556000
b101001 >
b101001 @
b101001 -
b101001 ;
b101001 j
#560000
0+
#565000
b1010 L
b101010 M
1+
#566000
b101010 >
b101010 @
b101010 -
b101010 ;
b101010 j
#570000
0+
#575000
b1011 L
b101011 M
1+
#576000
b101011 >
b101011 @
b101011 -
b101011 ;
b101011 j
#580000
0+
#585000
b1100 L
b101100 M
1+
#586000
b101100 >
b101100 @
b101100 -
b101100 ;
b101100 j
#590000
0+
#595000
b1101 L
b101101 M
1+
#596000
b101101 >
b101101 @
b101101 -
b101101 ;
b101101 j
#600000
0+
#605000
b1110 L
b101110 M
1+
#606000
b101110 >
b101110 @
b101110 -
b101110 ;
b101110 j
#610000
0+
#615000
b1111 L
b101111 M
1+
#616000
b101111 >
b101111 @
b101111 -
b101111 ;
b101111 j
#620000
0+
#625000
b0 L
b11 V
b110000 M
1+
#626000
b110000 >
b110000 @
b110000 -
b110000 ;
b110000 j
#630000
0+
#635000
b110001 M
b1 L
b10 V
b11 N
b101000 $
b101000 S
b10 %
b10 R
1"
1+
#636000
b110001 >
b110001 @
b11 2
b110001 -
b110001 ;
b110001 j
#640000
0+
#645000
b10 L
b110010 M
0"
1+
#646000
b110010 >
b110010 @
b110010 -
b110010 ;
b110010 j
#650000
0+
#655000
b11 L
b110011 M
1+
#656000
b110011 >
b110011 @
b110011 -
b110011 ;
b110011 j
#660000
0+
#665000
b100 L
b110100 M
1+
#666000
b110100 >
b110100 @
b110100 -
b110100 ;
b110100 j
#670000
0+
#675000
b101 L
b110101 M
1+
#676000
b110101 >
b110101 @
b110101 -
b110101 ;
b110101 j
#680000
0+
#685000
b110 L
b110110 M
1+
#686000
b110110 >
b110110 @
b110110 -
b110110 ;
b110110 j
#690000
0+
#695000
b111 L
b110111 M
1+
#696000
b110111 >
b110111 @
b110111 -
b110111 ;
b110111 j
#700000
0+
#705000
b1000 L
b111000 M
1+
#706000
b111000 >
b111000 @
b111000 -
b111000 ;
b111000 j
#710000
0+
#715000
b1001 L
b111000 J
b111001 M
1+
#716000
b111001 >
b111001 @
b111001 -
b111001 ;
b111001 j
#720000
0+
#725000
b1010 L
b111010 M
1+
#726000
b111010 >
b111010 @
b111010 -
b111010 ;
b111010 j
#730000
0+
#735000
b1011 L
b111011 M
1+
#736000
b111011 >
b111011 @
b111011 -
b111011 ;
b111011 j
#740000
0+
#745000
b1100 L
b111100 M
1+
#746000
b111100 >
b111100 @
b111100 -
b111100 ;
b111100 j
#750000
0+
#755000
b1101 L
b111101 M
1+
#756000
b111101 >
b111101 @
b111101 -
b111101 ;
b111101 j
#760000
0+
#765000
b1110 L
b111110 M
1+
#766000
b111110 >
b111110 @
b111110 -
b111110 ;
b111110 j
#770000
0+
#775000
b1111 L
b111111 M
1+
#776000
b111111 >
b111111 @
b111111 -
b111111 ;
b111111 j
#780000
0+
#785000
b0 L
b11 V
b1000000 M
1+
#786000
b1000000 >
b1000000 @
b1000000 -
b1000000 ;
b1000000 j
#790000
0+
#795000
b1000001 M
b1 L
b10 V
b100 N
b111000 $
b111000 S
b11 %
b11 R
1"
1+
#796000
b1000001 >
b1000001 @
b100 2
b1000001 -
b1000001 ;
b1000001 j
#800000
0+
#805000
b10 L
b1000010 M
0"
1+
#806000
b1000010 >
b1000010 @
b1000010 -
b1000010 ;
b1000010 j
#810000
0+
#815000
b11 L
b1000011 M
1+
#816000
b1000011 >
b1000011 @
b1000011 -
b1000011 ;
b1000011 j
#820000
0+
#825000
b100 L
b1000100 M
1+
#826000
b1000100 >
b1000100 @
b1000100 -
b1000100 ;
b1000100 j
#830000
0+
#835000
b101 L
b1000101 M
1+
#836000
b1000101 >
b1000101 @
b1000101 -
b1000101 ;
b1000101 j
#840000
0+
#845000
b110 L
b1000110 M
1+
#846000
b1000110 >
b1000110 @
b1000110 -
b1000110 ;
b1000110 j
#850000
0+
#855000
b111 L
b1000111 M
1+
#856000
b1000111 >
b1000111 @
b1000111 -
b1000111 ;
b1000111 j
#860000
0+
#865000
b1000 L
b1001000 M
1+
#866000
b1001000 >
b1001000 @
b1001000 -
b1001000 ;
b1001000 j
#870000
0+
#875000
b1001 L
b1001000 J
b1001001 M
1+
#876000
b1001001 >
b1001001 @
b1001001 -
b1001001 ;
b1001001 j
#880000
0+
#885000
b1010 L
b1001010 M
1+
#886000
b1001010 >
b1001010 @
b1001010 -
b1001010 ;
b1001010 j
#890000
0+
#895000
b1011 L
b1001011 M
1+
#896000
b1001011 >
b1001011 @
b1001011 -
b1001011 ;
b1001011 j
#900000
0+
#905000
b1100 L
b1001100 M
1+
#906000
b1001100 >
b1001100 @
b1001100 -
b1001100 ;
b1001100 j
#910000
0+
#915000
b1101 L
b1001101 M
1+
#916000
b1001101 >
b1001101 @
b1001101 -
b1001101 ;
b1001101 j
#920000
0+
#925000
b1110 L
b1001110 M
1+
#926000
b1001110 >
b1001110 @
b1001110 -
b1001110 ;
b1001110 j
#930000
0+
#935000
b1111 L
b1001111 M
1+
#936000
b1001111 >
b1001111 @
b1001111 -
b1001111 ;
b1001111 j
#940000
0+
#945000
b0 L
b11 V
b1010000 M
1+
#946000
b1010000 >
b1010000 @
b1010000 -
b1010000 ;
b1010000 j
#950000
0+
#955000
b1010001 M
b1 L
b10 V
b101 N
b1001000 $
b1001000 S
b100 %
b100 R
1"
1+
#956000
b1010001 >
b1010001 @
b101 2
b1010001 -
b1010001 ;
b1010001 j
#960000
0+
#965000
b10 L
b1010010 M
0"
1+
#966000
b1010010 >
b1010010 @
b1010010 -
b1010010 ;
b1010010 j
#970000
0+
#975000
b11 L
b1010011 M
1+
#976000
b1010011 >
b1010011 @
b1010011 -
b1010011 ;
b1010011 j
#980000
0+
#985000
b100 L
b1010100 M
1+
#986000
b1010100 >
b1010100 @
b1010100 -
b1010100 ;
b1010100 j
#990000
0+
#995000
b101 L
b1010101 M
1+
#996000
b1010101 >
b1010101 @
b1010101 -
b1010101 ;
b1010101 j
#1000000
0+
#1005000
b110 L
b1010110 M
1+
#1006000
b1010110 >
b1010110 @
b1010110 -
b1010110 ;
b1010110 j
#1010000
0+
#1015000
b111 L
b1010111 M
1+
#1016000
b1010111 >
b1010111 @
b1010111 -
b1010111 ;
b1010111 j
#1020000
0+
#1025000
b1000 L
b1011000 M
1+
#1026000
b1011000 >
b1011000 @
b1011000 -
b1011000 ;
b1011000 j
#1030000
0+
#1035000
b1001 L
b1011000 J
b1011001 M
1+
#1036000
b1011001 >
b1011001 @
b1011001 -
b1011001 ;
b1011001 j
#1040000
0+
#1045000
b1010 L
b1011010 M
1+
#1046000
b1011010 >
b1011010 @
b1011010 -
b1011010 ;
b1011010 j
#1050000
0+
#1055000
b1011 L
b1011011 M
1+
#1056000
b1011011 >
b1011011 @
b1011011 -
b1011011 ;
b1011011 j
#1060000
0+
#1065000
b1100 L
b1011100 M
1+
#1066000
b1011100 >
b1011100 @
b1011100 -
b1011100 ;
b1011100 j
#1070000
0+
#1075000
b1101 L
b1011101 M
1+
#1076000
b1011101 >
b1011101 @
b1011101 -
b1011101 ;
b1011101 j
#1080000
0+
#1085000
b1110 L
b1011110 M
1+
#1086000
b1011110 >
b1011110 @
b1011110 -
b1011110 ;
b1011110 j
#1090000
0+
#1095000
b1111 L
b1011111 M
1+
#1096000
b1011111 >
b1011111 @
b1011111 -
b1011111 ;
b1011111 j
#1100000
0+
#1105000
b0 L
b11 V
b1100000 M
1+
#1106000
b1100000 >
b1100000 @
b1100000 -
b1100000 ;
b1100000 j
#1110000
0+
#1115000
b1100001 M
b1 L
b10 V
b110 N
b1011000 $
b1011000 S
b101 %
b101 R
1"
1+
#1116000
b1100001 >
b1100001 @
b110 2
b1100001 -
b1100001 ;
b1100001 j
#1120000
0+
#1125000
b10 L
b1100010 M
0"
1+
#1126000
b1100010 >
b1100010 @
b1100010 -
b1100010 ;
b1100010 j
#1130000
0+
#1135000
b11 L
b1100011 M
1+
#1136000
b1100011 >
b1100011 @
b1100011 -
b1100011 ;
b1100011 j
#1140000
0+
#1145000
b100 L
b1100100 M
1+
#1146000
b1100100 >
b1100100 @
b1100100 -
b1100100 ;
b1100100 j
#1150000
0+
#1155000
b101 L
b1100101 M
1+
#1156000
b1100101 >
b1100101 @
b1100101 -
b1100101 ;
b1100101 j
#1160000
0+
#1165000
b110 L
b1100110 M
1+
#1166000
b1100110 >
b1100110 @
b1100110 -
b1100110 ;
b1100110 j
#1170000
0+
#1175000
b111 L
b1100111 M
1+
#1176000
b1100111 >
b1100111 @
b1100111 -
b1100111 ;
b1100111 j
#1180000
0+
#1185000
b1000 L
b1101000 M
1+
#1186000
b1101000 >
b1101000 @
b1101000 -
b1101000 ;
b1101000 j
#1190000
0+
#1195000
b1001 L
b1101000 J
b1101001 M
1+
#1196000
b1101001 >
b1101001 @
b1101001 -
b1101001 ;
b1101001 j
#1200000
0+
#1205000
b1010 L
b1101010 M
1+
#1206000
b1101010 >
b1101010 @
b1101010 -
b1101010 ;
b1101010 j
#1210000
0+
#1215000
b1011 L
b1101011 M
1+
#1216000
b1101011 >
b1101011 @
b1101011 -
b1101011 ;
b1101011 j
#1220000
0+
#1225000
b1100 L
b1101100 M
1+
#1226000
b1101100 >
b1101100 @
b1101100 -
b1101100 ;
b1101100 j
#1230000
0+
#1235000
b1101 L
b1101101 M
1+
#1236000
b1101101 >
b1101101 @
b1101101 -
b1101101 ;
b1101101 j
#1240000
0+
#1245000
b1110 L
b1101110 M
1+
#1246000
b1101110 >
b1101110 @
b1101110 -
b1101110 ;
b1101110 j
#1250000
0+
#1255000
b1111 L
b1101111 M
1+
#1256000
b1101111 >
b1101111 @
b1101111 -
b1101111 ;
b1101111 j
#1260000
0+
#1265000
b0 L
b11 V
b1110000 M
1+
#1266000
b1110000 >
b1110000 @
b1110000 -
b1110000 ;
b1110000 j
#1270000
0+
#1275000
b1110001 M
b1 L
b10 V
b111 N
b1101000 $
b1101000 S
b110 %
b110 R
1"
1+
#1276000
b1110001 >
b1110001 @
b111 2
b1110001 -
b1110001 ;
b1110001 j
#1280000
0+
#1285000
b10 L
b1110010 M
0"
1+
#1286000
b1110010 >
b1110010 @
b1110010 -
b1110010 ;
b1110010 j
#1290000
0+
#1295000
b11 L
b1110011 M
1+
#1296000
b1110011 >
b1110011 @
b1110011 -
b1110011 ;
b1110011 j
#1300000
0+
#1305000
b100 L
b1110100 M
1+
#1306000
b1110100 >
b1110100 @
b1110100 -
b1110100 ;
b1110100 j
#1310000
0+
#1315000
b101 L
b1110101 M
1+
#1316000
b1110101 >
b1110101 @
b1110101 -
b1110101 ;
b1110101 j
#1320000
0+
#1325000
b110 L
b1110110 M
1+
#1326000
b1110110 >
b1110110 @
b1110110 -
b1110110 ;
b1110110 j
#1330000
0+
#1335000
b111 L
b1110111 M
1+
#1336000
b1110111 >
b1110111 @
b1110111 -
b1110111 ;
b1110111 j
#1340000
0+
#1345000
b1000 L
b1111000 M
1+
#1346000
b1111000 >
b1111000 @
b1111000 -
b1111000 ;
b1111000 j
#1350000
0+
#1355000
b1001 L
b1111000 J
b1111001 M
1+
#1356000
b1111001 >
b1111001 @
b1111001 -
b1111001 ;
b1111001 j
#1360000
0+
#1365000
b1010 L
b1111010 M
1+
#1366000
b1111010 >
b1111010 @
b1111010 -
b1111010 ;
b1111010 j
#1370000
0+
#1375000
b1011 L
b1111011 M
1+
#1376000
b1111011 >
b1111011 @
b1111011 -
b1111011 ;
b1111011 j
#1380000
0+
#1385000
b1100 L
b1111100 M
1+
#1386000
b1111100 >
b1111100 @
b1111100 -
b1111100 ;
b1111100 j
#1390000
0+
#1395000
b1101 L
b1111101 M
1+
#1396000
b1111101 >
b1111101 @
b1111101 -
b1111101 ;
b1111101 j
#1400000
0+
#1405000
b1110 L
b1111110 M
1+
#1406000
b1111110 >
b1111110 @
b1111110 -
b1111110 ;
b1111110 j
#1410000
0+
#1415000
b1111 L
b1111111 M
1+
#1416000
b1111111 >
b1111111 @
b1111111 -
b1111111 ;
b1111111 j
#1420000
0+
#1425000
b0 L
b11 V
b10000000 M
1+
#1426000
b10000000 >
b10000000 @
b10000000 -
b10000000 ;
b10000000 j
#1430000
0+
#1435000
b10000001 M
b1 L
b10 V
b1000 N
b1111000 $
b1111000 S
b111 %
b111 R
1"
1+
#1436000
b10000001 >
b10000001 @
b1000 2
b10000001 -
b10000001 ;
b10000001 j
#1440000
0+
#1445000
b10 L
b10000010 M
0"
1+
#1446000
b10000010 >
b10000010 @
b10000010 -
b10000010 ;
b10000010 j
#1450000
0+
#1455000
b11 L
b10000011 M
1+
#1456000
b10000011 >
b10000011 @
b10000011 -
b10000011 ;
b10000011 j
#1460000
0+
#1465000
b100 L
b10000100 M
1+
#1466000
b10000100 >
b10000100 @
b10000100 -
b10000100 ;
b10000100 j
#1470000
0+
#1475000
b101 L
b10000101 M
1+
#1476000
b10000101 >
b10000101 @
b10000101 -
b10000101 ;
b10000101 j
#1480000
0+
#1485000
b110 L
b10000110 M
1+
#1486000
b10000110 >
b10000110 @
b10000110 -
b10000110 ;
b10000110 j
#1490000
0+
#1495000
b111 L
b10000111 M
1+
#1496000
b10000111 >
b10000111 @
b10000111 -
b10000111 ;
b10000111 j
#1500000
0+
#1505000
b1000 L
b10001000 M
1+
#1506000
b10001000 >
b10001000 @
b10001000 -
b10001000 ;
b10001000 j
#1510000
0+
#1515000
b1001 L
b10001000 J
b10001001 M
1+
#1516000
b10001001 >
b10001001 @
b10001001 -
b10001001 ;
b10001001 j
#1520000
0+
#1525000
b1010 L
b10001010 M
1+
#1526000
b10001010 >
b10001010 @
b10001010 -
b10001010 ;
b10001010 j
#1530000
0+
#1535000
b1011 L
b10001011 M
1+
#1536000
b10001011 >
b10001011 @
b10001011 -
b10001011 ;
b10001011 j
#1540000
0+
#1545000
b1100 L
b10001100 M
1+
#1546000
b10001100 >
b10001100 @
b10001100 -
b10001100 ;
b10001100 j
#1550000
0+
#1555000
b1101 L
b10001101 M
1+
#1556000
b10001101 >
b10001101 @
b10001101 -
b10001101 ;
b10001101 j
#1560000
0+
#1565000
b1110 L
b10001110 M
1+
#1566000
b10001110 >
b10001110 @
b10001110 -
b10001110 ;
b10001110 j
#1570000
0+
#1575000
b1111 L
b10001111 M
1+
#1576000
b10001111 >
b10001111 @
b10001111 -
b10001111 ;
b10001111 j
#1580000
0+
#1585000
b0 L
b11 V
b10010000 M
1+
#1586000
b10010000 >
b10010000 @
b10010000 -
b10010000 ;
b10010000 j
#1590000
0+
#1595000
b10010001 M
b1 L
b10 V
b1001 N
b10001000 $
b10001000 S
b1000 %
b1000 R
1"
1+
#1596000
b10010001 >
b10010001 @
b1001 2
b10010001 -
b10010001 ;
b10010001 j
#1600000
0+
#1605000
b10 L
b10010010 M
0"
1+
#1606000
b10010010 >
b10010010 @
b10010010 -
b10010010 ;
b10010010 j
#1610000
0+
#1615000
b11 L
b10010011 M
1+
#1616000
b10010011 >
b10010011 @
b10010011 -
b10010011 ;
b10010011 j
#1620000
0+
#1625000
b100 L
b10010100 M
1+
#1626000
b10010100 >
b10010100 @
b10010100 -
b10010100 ;
b10010100 j
#1630000
0+
#1635000
b101 L
b10010101 M
1+
#1636000
b10010101 >
b10010101 @
b10010101 -
b10010101 ;
b10010101 j
#1640000
0+
#1645000
b110 L
b10010110 M
1+
#1646000
b10010110 >
b10010110 @
b10010110 -
b10010110 ;
b10010110 j
#1650000
0+
#1655000
b111 L
b10010111 M
1+
#1656000
b10010111 >
b10010111 @
b10010111 -
b10010111 ;
b10010111 j
#1660000
0+
#1665000
b1000 L
b10011000 M
1+
#1666000
b10011000 >
b10011000 @
b10011000 -
b10011000 ;
b10011000 j
#1670000
0+
#1675000
b1001 L
b10011000 J
b10011001 M
1+
#1676000
b10011001 >
b10011001 @
b10011001 -
b10011001 ;
b10011001 j
#1680000
0+
#1685000
b1010 L
b10011010 M
1+
#1686000
b10011010 >
b10011010 @
b10011010 -
b10011010 ;
b10011010 j
#1690000
0+
#1695000
b1011 L
b10011011 M
1+
#1696000
b10011011 >
b10011011 @
b10011011 -
b10011011 ;
b10011011 j
#1700000
0+
#1705000
b1100 L
b10011100 M
1+
#1706000
b10011100 >
b10011100 @
b10011100 -
b10011100 ;
b10011100 j
#1710000
0+
#1715000
b1101 L
b10011101 M
1+
#1716000
b10011101 >
b10011101 @
b10011101 -
b10011101 ;
b10011101 j
#1720000
0+
#1725000
b1110 L
b10011110 M
1+
#1726000
b10011110 >
b10011110 @
b10011110 -
b10011110 ;
b10011110 j
#1730000
0+
#1735000
b1111 L
b10011111 M
1+
#1736000
b10011111 >
b10011111 @
b10011111 -
b10011111 ;
b10011111 j
#1740000
0+
#1745000
b0 L
b11 V
b10100000 M
1+
#1746000
b10100000 >
b10100000 @
b10100000 -
b10100000 ;
b10100000 j
#1750000
0+
#1755000
b10100001 M
b1 L
b10 V
b1010 N
b10011000 $
b10011000 S
b1001 %
b1001 R
1"
1+
#1756000
b10100001 >
b10100001 @
b1010 2
b10100001 -
b10100001 ;
b10100001 j
#1760000
0+
#1765000
b10 L
b10100010 M
0"
1+
#1766000
b10100010 >
b10100010 @
b10100010 -
b10100010 ;
b10100010 j
#1770000
0+
#1775000
b11 L
b10100011 M
1+
#1776000
b10100011 >
b10100011 @
b10100011 -
b10100011 ;
b10100011 j
#1780000
0+
#1785000
b100 L
b10100100 M
1+
#1786000
b10100100 >
b10100100 @
b10100100 -
b10100100 ;
b10100100 j
#1790000
0+
#1795000
b101 L
b10100101 M
1+
#1796000
b10100101 >
b10100101 @
b10100101 -
b10100101 ;
b10100101 j
#1800000
0+
#1805000
b110 L
b10100110 M
1+
#1806000
b10100110 >
b10100110 @
b10100110 -
b10100110 ;
b10100110 j
#1810000
0+
#1815000
b111 L
b10100111 M
1+
#1816000
b10100111 >
b10100111 @
b10100111 -
b10100111 ;
b10100111 j
#1820000
0+
#1825000
b1000 L
b10101000 M
1+
#1826000
b10101000 >
b10101000 @
b10101000 -
b10101000 ;
b10101000 j
#1830000
0+
#1835000
b1001 L
b10101000 J
b10101001 M
1+
#1836000
b10101001 >
b10101001 @
b10101001 -
b10101001 ;
b10101001 j
#1840000
0+
#1845000
b1010 L
b10101010 M
1+
#1846000
b10101010 >
b10101010 @
b10101010 -
b10101010 ;
b10101010 j
#1850000
0+
#1855000
b1011 L
b10101011 M
1+
#1856000
b10101011 >
b10101011 @
b10101011 -
b10101011 ;
b10101011 j
#1860000
0+
#1865000
b1100 L
b10101100 M
1+
#1866000
b10101100 >
b10101100 @
b10101100 -
b10101100 ;
b10101100 j
#1870000
0+
#1875000
b1101 L
b10101101 M
1+
#1876000
b10101101 >
b10101101 @
b10101101 -
b10101101 ;
b10101101 j
#1880000
0+
#1885000
b1110 L
b10101110 M
1+
#1886000
b10101110 >
b10101110 @
b10101110 -
b10101110 ;
b10101110 j
#1890000
0+
#1895000
b1111 L
b10101111 M
1+
#1896000
b10101111 >
b10101111 @
b10101111 -
b10101111 ;
b10101111 j
#1900000
0+
#1905000
b0 L
b11 V
b10110000 M
1+
#1906000
b10110000 >
b10110000 @
b10110000 -
b10110000 ;
b10110000 j
#1910000
0+
#1915000
b10110001 M
b1 L
b10 V
b1011 N
b10101000 $
b10101000 S
b1010 %
b1010 R
1"
1+
#1916000
b10110001 >
b10110001 @
b1011 2
b10110001 -
b10110001 ;
b10110001 j
#1920000
0+
#1925000
b10 L
b10110010 M
0"
1+
#1926000
b10110010 >
b10110010 @
b10110010 -
b10110010 ;
b10110010 j
#1930000
0+
#1935000
b11 L
b10110011 M
1+
